fecha,acumuladas,amazonas,antioquia,arauca,atlantico,bogota,bolivar,boyaca,caldas,caqueta,casanare,cauca,cesar,choco,cordoba,cundinamarca,guainia,guajira,guaviare,huila,magdalena,meta,narino,norte_de_santander,putumayo,quindio,risaralda,san_andres,santander,sucre,tolima,valle_del_cauca,vaupes,vichada,procedencia_desconocida,barranquilla,cartagena,santa_marta,positivas_acumuladas,negativas_acumuladas,positividad_acumulada,indeterminadas
2020-03-05T00:00:00.000,636,,,,,,,,,,,,,,,,,,,,,,,,,,,,,,,,,,,,,,,,,
2020-03-06T00:00:00.000,739,,,,,,,,,,,,,,,,,,,,,,,,,,,,,,,,,,,,,,,,,
2020-03-07T00:00:00.000,810,,,,,,,,,,,,,,,,,,,,,,,,,,,,,,,,,,,,,,,,,
2020-03-08T00:00:00.000,813,,,,,,,,,,,,,,,,,,,,,,,,,,,,,,,,,,,,,,,,,
2020-03-09T00:00:00.000,851,,,,,,,,,,,,,,,,,,,,,,,,,,,,,,,,,,,,,,,,,
2020-03-10T00:00:00.000,927,,,,,,,,,,,,,,,,,,,,,,,,,,,,,,,,,,,,,,,,,
2020-03-11T00:00:00.000,1133,,,,,,,,,,,,,,,,,,,,,,,,,,,,,,,,,,,,,,,,,
2020-03-12T00:00:00.000,1393,,,,,,,,,,,,,,,,,,,,,,,,,,,,,,,,,,,,,,,,,
2020-03-13T00:00:00.000,1754,,,,,,,,,,,,,,,,,,,,,,,,,,,,,,,,,,,,,,,,,
2020-03-14T00:00:00.000,2343,,,,,,,,,,,,,,,,,,,,,,,,,,,,,,,,,,,,,,,,,
2020-03-15T00:00:00.000,3176,,,,,,,,,,,,,,,,,,,,,,,,,,,,,,,,,,,,,,,,,
2020-03-16T00:00:00.000,3607,,,,,,,,,,,,,,,,,,,,,,,,,,,,,,,,,,,,,,,,,
2020-03-17T00:00:00.000,3931,,,,,,,,,,,,,,,,,,,,,,,,,,,,,,,,,,,,,,,,,
2020-03-18T00:00:00.000,4690,,,,,,,,,,,,,,,,,,,,,,,,,,,,,,,,,,,,,,,,,
2020-03-19T00:00:00.000,5363,,,,,,,,,,,,,,,,,,,,,,,,,,,,,,,,,,,,,,,,,
2020-03-20T00:00:00.000,5766,,,,,,,,,,,,,,,,,,,,,,,,,,,,,,,,,,,,,,,,,
2020-03-21T00:00:00.000,6064,,,,,,,,,,,,,,,,,,,,,,,,,,,,,,,,,,,,,,,,,
2020-03-22T00:00:00.000,6910,,,,,,,,,,,,,,,,,,,,,,,,,,,,,,,,,,,,,,,,,
2020-03-23T00:00:00.000,7285,,,,,,,,,,,,,,,,,,,,,,,,,,,,,,,,,,,,,,,,,
2020-03-24T00:00:00.000,8051,,,,,,,,,,,,,,,,,,,,,,,,,,,,,,,,,,,,,,,,,
2020-03-25T00:00:00.000,8797,,,,,,,,,,,,,,,,,,,,,,,,,,,,,,,,,,,,,,,,,
2020-03-26T00:00:00.000,9228,,,,,,,,,,,,,,,,,,,,,,,,,,,,,,,,,,,,,,,,,
2020-03-27T00:00:00.000,9486,,,,,,,,,,,,,,,,,,,,,,,,,,,,,,,,,,,,,,,,,
2020-03-28T00:00:00.000,10851,,,,,,,,,,,,,,,,,,,,,,,,,,,,,,,,,,,,,,,,,
2020-03-29T00:00:00.000,12325,,,,,,,,,,,,,,,,,,,,,,,,,,,,,,,,,,,,,,,,,
2020-03-30T00:00:00.000,13816,,,,,,,,,,,,,,,,,,,,,,,,,,,,,,,,,,,,,,,,,
2020-03-31T00:00:00.000,17863,,,,,,,,,,,,,,,,,,,,,,,,,,,,,,,,,,,,,,,,,
2020-04-01T00:00:00.000,20253,,,,,,,,,,,,,,,,,,,,,,,,,,,,,,,,,,,,,,,,,
2020-04-02T00:00:00.000,21412,,,,,,,,,,,,,,,,,,,,,,,,,,,,,,,,,,,,,,,,,
2020-04-03T00:00:00.000,22752,,,,,,,,,,,,,,,,,,,,,,,,,,,,,,,,,,,,,,,,,
2020-04-04T00:00:00.000,23989,,,,,,,,,,,,,,,,,,,,,,,,,,,,,,,,,,,,,,,,,
2020-04-05T00:00:00.000,25547,,,,,,,,,,,,,,,,,,,,,,,,,,,,,,,,,,,,,,,,,
2020-04-06T00:00:00.000,27968,,,,,,,,,,,,,,,,,,,,,,,,,,,,,,,,,,,,,,,,,
2020-04-07T00:00:00.000,30728,,,,,,,,,,,,,,,,,,,,,,,,,,,,,,,,,,,,,,,,,
2020-04-08T00:00:00.000,33858,,,,,,,,,,,,,,,,,,,,,,,,,,,,,,,,,,,,,,,,,
2020-04-09T00:00:00.000,35193,,,,,,,,,,,,,,,,,,,,,,,,,,,,,,,,,,,,,,,,,
2020-04-10T00:00:00.000,37876,,,,,,,,,,,,,,,,,,,,,,,,,,,,,,,,,,,,,,,,,
2020-04-11T00:00:00.000,40618,,,,,,,,,,,,,,,,,,,,,,,,,,,,,,,,,,,,,,,,,
2020-04-12T00:00:00.000,41780,,,,,,,,,,,,,,,,,,,,,,,,,,,,,,,,,,,,,,,,,
2020-04-13T00:00:00.000,43036,,,,,,,,,,,,,,,,,,,,,,,,,,,,,,,,,,,,,,,,,
2020-04-14T00:00:00.000,45351,,,,,,,,,,,,,,,,,,,,,,,,,,,,,,,,,,,,,,,,,
2020-04-15T00:00:00.000,48556,,,,,,,,,,,,,,,,,,,,,,,,,,,,,,,,,,,,,,,,,
2020-04-16T00:00:00.000,52013,,,,,,,,,,,,,,,,,,,,,,,,,,,,,,,,,,,,,,,,,
2020-04-17T00:00:00.000,55501,,,,,,,,,,,,,,,,,,,,,,,,,,,,,,,,,,,,,,,,,
2020-04-18T00:00:00.000,58930,,,,,,,,,,,,,,,,,,,,,,,,,,,,,,,,,,,,,,,,,
2020-04-19T00:00:00.000,62674,,,,,,,,,,,,,,,,,,,,,,,,,,,,,,,,,,,,,,,,,
2020-04-20T00:00:00.000,65097,,,,,,,,,,,,,,,,,,,,,,,,,,,,,,,,,,,,,,,,,
2020-04-21T00:00:00.000,68356,,,,,,,,,,,,,,,,,,,,,,,,,,,,,,,,,,,,,,,,,
2020-04-22T00:00:00.000,71407,,,,,,,,,,,,,,,,,,,,,,,,,,,,,,,,,,,,,,,,,
2020-04-23T00:00:00.000,74864,,,,,,,,,,,,,,,,,,,,,,,,,,,,,,,,,,,,,,,,,
2020-04-24T00:00:00.000,77985,,,,,,,,,,,,,,,,,,,,,,,,,,,,,,,,,,,,,,,,,
2020-04-25T00:00:00.000,81053,,,,,,,,,,,,,,,,,,,,,,,,,,,,,,,,,,,,,,,,,
2020-04-26T00:00:00.000,87106,,,,,,,,,,,,,,,,,,,,,,,,,,,,,,,,,,,,,,,,,
2020-04-27T00:00:00.000,90899,,,,,,,,,,,,,,,,,,,,,,,,,,,,,,,,,,,,,,,,,
2020-04-28T00:00:00.000,95085,,,,,,,,,,,,,,,,,,,,,,,,,,,,,,,,,,,,,,,,,
2020-04-29T00:00:00.000,100153,,,,,,,,,,,,,,,,,,,,,,,,,,,,,,,,,,,,,,,,,
2020-04-30T00:00:00.000,104657,,,,,,,,,,,,,,,,,,,,,,,,,,,,,,,,,,,,,,,,,
2020-05-01T00:00:00.000,108950,,,,,,,,,,,,,,,,,,,,,,,,,,,,,,,,,,,,,,,,,
2020-05-02T00:00:00.000,114602,,,,,,,,,,,,,,,,,,,,,,,,,,,,,,,,,,,,,,,,,
2020-05-03T00:00:00.000,118801,,,,,,,,,,,,,,,,,,,,,,,,,,,,,,,,,,,,,,,,,
2020-05-04T00:00:00.000,123029,,,,,,,,,,,,,,,,,,,,,,,,,,,,,,,,,,,,,,,,,
2020-05-05T00:00:00.000,127105,,,,,,,,,,,,,,,,,,,,,,,,,,,,,,,,,,,,,,,,,
2020-05-06T00:00:00.000,131110,,,,,,,,,,,,,,,,,,,,,,,,,,,,,,,,,,,,,,,,,
2020-05-07T00:00:00.000,135352,,,,,,,,,,,,,,,,,,,,,,,,,,,,,,,,,,,,,,,,,
2020-05-08T00:00:00.000,139739,,,,,,,,,,,,,,,,,,,,,,,,,,,,,,,,,,,,,,,,,
2020-05-09T00:00:00.000,144912,,,,,,,,,,,,,,,,,,,,,,,,,,,,,,,,,,,,,,,,,
2020-05-10T00:00:00.000,151396,1457.0,21161.0,591.0,8100.0,46276.0,5586.0,2022.0,3051.0,481.0,766.0,1878.0,1749.0,690.0,2631.0,3749.0,6.0,749.0,156.0,3679.0,4314.0,4403.0,2545.0,3578.0,121.0,1491.0,4253.0,250.0,3613.0,591.0,2219.0,16447.0,44.0,5.0,2744.0,,,,,,,
2020-05-11T00:00:00.000,158933,1799.0,21676.0,602.0,8880.0,49698.0,5938.0,2141.0,3100.0,495.0,777.0,1893.0,1755.0,690.0,2683.0,4035.0,12.0,749.0,156.0,3818.0,4617.0,4822.0,2596.0,3636.0,134.0,1527.0,4253.0,250.0,3801.0,592.0,2245.0,16618.0,140.0,6.0,2799.0,,,,,,,
2020-05-12T00:00:00.000,165738,2007.0,22573.0,602.0,9500.0,51769.0,6479.0,2243.0,3204.0,534.0,780.0,1969.0,1828.0,744.0,2713.0,4219.0,12.0,792.0,156.0,3919.0,4709.0,4880.0,2635.0,3673.0,134.0,1561.0,4308.0,250.0,3961.0,644.0,2676.0,17276.0,140.0,6.0,2842.0,,,,,,,
2020-05-13T00:00:00.000,171779,2437.0,23234.0,631.0,9825.0,53683.0,6894.0,2341.0,3241.0,557.0,801.0,1971.0,1943.0,744.0,2798.0,4301.0,12.0,829.0,156.0,4155.0,4805.0,5110.0,2723.0,3875.0,134.0,1591.0,4374.0,250.0,4084.0,709.0,2876.0,17689.0,140.0,6.0,2880.0,,,,,,,
2020-05-14T00:00:00.000,177050,2446.0,23733.0,631.0,10370.0,54780.0,7043.0,2661.0,3387.0,588.0,840.0,2005.0,2033.0,744.0,2971.0,4607.0,12.0,855.0,165.0,4320.0,4959.0,5337.0,2853.0,4004.0,134.0,1649.0,4435.0,293.0,4317.0,719.0,3079.0,18016.0,140.0,6.0,2918.0,,,,,,,
2020-05-15T00:00:00.000,183112,2849.0,24478.0,641.0,10954.0,56352.0,7074.0,2946.0,3415.0,635.0,852.0,2062.0,2038.0,746.0,3078.0,4789.0,12.0,934.0,166.0,4423.0,5121.0,5619.0,2973.0,4132.0,134.0,1710.0,4474.0,293.0,4522.0,722.0,3196.0,18678.0,140.0,6.0,2948.0,,,,,,,
2020-05-16T00:00:00.000,190114,3479.0,25322.0,641.0,11273.0,58171.0,7144.0,3141.0,3500.0,668.0,1058.0,2131.0,2193.0,830.0,3262.0,5066.0,12.0,951.0,166.0,4525.0,5191.0,5777.0,2973.0,4220.0,242.0,1730.0,4523.0,293.0,4863.0,808.0,3279.0,19360.0,325.0,8.0,2989.0,,,,,,,
2020-05-17T00:00:00.000,196417,3623.0,26154.0,643.0,11789.0,58843.0,8475.0,3478.0,3582.0,677.0,1125.0,2137.0,2283.0,842.0,3427.0,5215.0,12.0,960.0,184.0,4760.0,5326.0,5854.0,3021.0,4516.0,242.0,1780.0,4580.0,363.0,5017.0,859.0,3363.0,19913.0,325.0,8.0,3041.0,,,,,,,
2020-05-18T00:00:00.000,201888,3958.0,26483.0,649.0,12450.0,60029.0,9328.0,3555.0,3674.0,691.0,1128.0,2139.0,2293.0,842.0,3610.0,5281.0,12.0,1023.0,184.0,4951.0,5395.0,5909.0,3282.0,4609.0,245.0,1788.0,4581.0,363.0,5299.0,875.0,3459.0,20382.0,325.0,8.0,3088.0,,,,,,,
2020-05-19T00:00:00.000,208046,4002.0,27349.0,766.0,12650.0,63097.0,9724.0,3657.0,3693.0,731.0,1130.0,2192.0,2510.0,862.0,3727.0,5548.0,12.0,1031.0,184.0,4944.0,5256.0,5957.0,3333.0,4747.0,253.0,1788.0,4619.0,363.0,5481.0,924.0,3651.0,20768.0,325.0,10.0,2762.0,,,,,,,
2020-05-20T00:00:00.000,214536,4002.0,27690.0,770.0,13382.0,64831.0,10377.0,3862.0,3718.0,747.0,1161.0,2249.0,2638.0,937.0,3911.0,5627.0,12.0,1105.0,184.0,5151.0,5418.0,6269.0,3505.0,4893.0,274.0,1837.0,4754.0,363.0,5544.0,1011.0,3685.0,21339.0,429.0,10.0,2851.0,,,,,,,
2020-05-21T00:00:00.000,222110,4053.0,29118.0,771.0,13782.0,67350.0,10942.0,4033.0,3806.0,754.0,1175.0,2301.0,2639.0,952.0,3944.0,5756.0,12.0,1148.0,221.0,5235.0,5546.0,6397.0,3590.0,5127.0,274.0,1846.0,4861.0,376.0,5768.0,1088.0,3779.0,21900.0,542.0,10.0,3114.0,,,,,,,
2020-05-22T00:00:00.000,235948,4120.0,29732.0,918.0,14635.0,75028.0,11344.0,4348.0,3907.0,803.0,1202.0,2374.0,2726.0,998.0,4095.0,5949.0,12.0,1205.0,244.0,5372.0,5788.0,6540.0,3799.0,5217.0,291.0,1915.0,4958.0,387.0,6105.0,1147.0,4017.0,22979.0,568.0,10.0,3215.0,,,,,,,
2020-05-23T00:00:00.000,243119,4121.0,31533.0,918.0,15406.0,76449.0,12182.0,4554.0,3915.0,826.0,1204.0,2432.0,2852.0,1000.0,4212.0,6377.0,12.0,1243.0,244.0,5561.0,5801.0,6553.0,3908.0,5236.0,291.0,1916.0,5087.0,387.0,6340.0,1239.0,4029.0,23819.0,501.0,10.0,2961.0,,,,,,,
2020-05-24T00:00:00.000,252742,5190.0,32225.0,935.0,15794.0,77511.0,12945.0,5267.0,4063.0,876.0,1259.0,2493.0,2922.0,1248.0,4588.0,6646.0,12.0,1711.0,251.0,5955.0,6396.0,6676.0,3962.0,5435.0,306.0,1993.0,5245.0,433.0,6609.0,1297.0,4508.0,24330.0,627.0,23.0,3011.0,,,,,,,
2020-05-25T00:00:00.000,260812,5450.0,33979.0,936.0,16336.0,79571.0,13634.0,5362.0,4081.0,876.0,1266.0,2511.0,2982.0,1268.0,4658.0,6955.0,12.0,1728.0,251.0,6263.0,6525.0,7139.0,4101.0,5501.0,312.0,2010.0,5402.0,433.0,6847.0,1339.0,4649.0,24756.0,635.0,23.0,3021.0,,,,,,,
2020-05-26T00:00:00.000,271118,5501.0,36237.0,936.0,17153.0,81302.0,14531.0,5700.0,4194.0,903.0,1266.0,2566.0,3111.0,1440.0,4914.0,7305.0,12.0,1729.0,251.0,6496.0,6910.0,7337.0,4231.0,5675.0,312.0,2093.0,5415.0,433.0,7081.0,1485.0,4814.0,26020.0,635.0,23.0,3107.0,,,,,,,
2020-05-27T00:00:00.000,283464,5826.0,37317.0,937.0,18098.0,85597.0,16103.0,5991.0,4307.0,926.0,1279.0,2641.0,3309.0,1627.0,4993.0,7883.0,336.0,1736.0,252.0,6718.0,6956.0,7582.0,4354.0,5710.0,312.0,2102.0,5484.0,433.0,7401.0,1539.0,5002.0,26750.0,636.0,165.0,3162.0,,,,,,,
2020-05-28T00:00:00.000,295614,5841.0,39187.0,981.0,18747.0,89385.0,17221.0,6487.0,4533.0,926.0,1323.0,2714.0,3399.0,1685.0,5266.0,8367.0,573.0,1828.0,261.0,6825.0,7594.0,7870.0,4356.0,5887.0,409.0,2180.0,5590.0,433.0,7532.0,1707.0,5124.0,27350.0,636.0,165.0,3232.0,,,,,,,
2020-05-29T00:00:00.000,306411,6141.0,40161.0,1141.0,19515.0,92958.0,17446.0,6795.0,4698.0,947.0,1399.0,2762.0,3607.0,1734.0,5514.0,8749.0,585.0,1883.0,261.0,6957.0,7820.0,8046.0,4785.0,6118.0,410.0,2232.0,5879.0,517.0,7910.0,1838.0,5239.0,28176.0,636.0,165.0,3387.0,,,,,,,
2020-05-30T00:00:00.000,319779,6160.0,41099.0,1204.0,20164.0,98661.0,19102.0,7325.0,4746.0,1000.0,1510.0,2783.0,3737.0,1735.0,5557.0,9389.0,587.0,1924.0,261.0,7135.0,7963.0,8446.0,4855.0,6245.0,410.0,2291.0,6037.0,517.0,8204.0,1972.0,5398.0,29089.0,636.0,165.0,3472.0,,,,,,,
2020-05-31T00:00:00.000,331817,6612.0,42051.0,1204.0,21233.0,101591.0,20381.0,7734.0,4821.0,1000.0,1807.0,2856.0,4014.0,1980.0,5731.0,9959.0,689.0,1936.0,322.0,7199.0,8212.0,8706.0,5329.0,6333.0,465.0,2312.0,6212.0,575.0,8668.0,2090.0,5497.0,29809.0,636.0,296.0,3557.0,,,,,,,
2020-06-01T00:00:00.000,341142,6770.0,42768.0,1204.0,22927.0,103149.0,21383.0,7878.0,4889.0,1021.0,1807.0,2934.0,4032.0,2125.0,5861.0,10824.0,689.0,2004.0,326.0,7475.0,8342.0,8847.0,5334.0,6882.0,482.0,2340.0,6228.0,575.0,9086.0,2131.0,5567.0,30695.0,636.0,296.0,3635.0,,,,37216.0,296606.0,"10,9",7320.0
2020-06-02T00:00:00.000,350123,6876.0,44128.0,1232.0,24050.0,105540.0,21596.0,8117.0,4963.0,1021.0,1822.0,3004.0,4186.0,2142.0,5965.0,11167.0,689.0,2016.0,326.0,7723.0,8782.0,9026.0,5475.0,6923.0,490.0,2446.0,6384.0,575.0,9646.0,2286.0,5687.0,31325.0,636.0,296.0,3673.0,,,,38944.0,304574.0,"11,1",6605.0
2020-06-03T00:00:00.000,362432,7080.0,44900.0,1261.0,25567.0,109606.0,22864.0,8435.0,5026.0,1038.0,1881.0,3073.0,4313.0,2480.0,6079.0,11667.0,689.0,2017.0,326.0,7806.0,8803.0,9373.0,5790.0,7137.0,519.0,2505.0,6574.0,581.0,9999.0,2404.0,5786.0,32182.0,636.0,296.0,3739.0,,,,41217.0,315121.0,"11,4",6094.0
2020-06-04T00:00:00.000,374592,7190.0,45759.0,1337.0,27344.0,113356.0,24515.0,8691.0,5066.0,1039.0,1902.0,3088.0,4525.0,2522.0,6187.0,12253.0,689.0,2033.0,326.0,7839.0,9264.0,9499.0,5992.0,7179.0,519.0,2544.0,6678.0,592.0,10208.0,2652.0,5804.0,32936.0,788.0,446.0,3830.0,,,,,,,
2020-06-05T00:00:00.000,386938,7367.0,47196.0,1337.0,28612.0,117214.0,25344.0,8972.0,5165.0,1045.0,2003.0,3137.0,4756.0,2532.0,6411.0,12837.0,762.0,2076.0,367.0,8133.0,9581.0,9589.0,6308.0,7328.0,519.0,2545.0,6750.0,603.0,10750.0,2830.0,5972.0,33643.0,788.0,551.0,3915.0,,,,44838.0,335368.0,"11,6",6732.0
2020-06-06T00:00:00.000,399505,7367.0,48510.0,1379.0,30715.0,120773.0,26274.0,9514.0,5316.0,1060.0,2019.0,3226.0,4846.0,2744.0,6625.0,13156.0,762.0,2076.0,395.0,8236.0,9581.0,9899.0,7107.0,7177.0,519.0,2519.0,6975.0,605.0,11420.0,3149.0,5991.0,34805.0,791.0,556.0,3418.0,,,,46559.0,347943.0,"11,7",5003.0
2020-06-07T00:00:00.000,410719,7650.0,49475.0,1379.0,31922.0,123065.0,27461.0,9514.0,5394.0,1067.0,2041.0,3245.0,5004.0,3130.0,6834.0,13525.0,770.0,2076.0,453.0,8338.0,9672.0,10182.0,7404.0,7531.0,519.0,2556.0,7184.0,626.0,11952.0,3496.0,6309.0,35516.0,791.0,719.0,3919.0,,,,48381.0,357006.0,"11,8",5332.0
2020-06-08T00:00:00.000,421723,7665.0,50128.0,1418.0,33687.0,125237.0,29479.0,9779.0,5505.0,1067.0,2160.0,3303.0,5105.0,3145.0,6945.0,14092.0,770.0,2076.0,453.0,8520.0,9892.0,10319.0,7525.0,7833.0,519.0,2621.0,7231.0,626.0,12281.0,3535.0,6351.0,36856.0,791.0,719.0,4090.0,,,,50274.0,366141.0,"11,9",5308.0
2020-06-09T00:00:00.000,432870,7708.0,52032.0,1426.0,35322.0,127712.0,30270.0,9884.0,5590.0,1097.0,2163.0,3396.0,5160.0,3157.0,7265.0,14367.0,770.0,2076.0,453.0,8669.0,9964.0,10470.0,7862.0,8046.0,519.0,2632.0,7382.0,627.0,12744.0,3794.0,6545.0,38074.0,791.0,719.0,4184.0,,,,52298.0,376547.0,"12,1",4025.0
2020-06-10T00:00:00.000,444933,7890.0,54795.0,1460.0,10685.0,129516.0,2748.0,10058.0,5703.0,1132.0,2166.0,3399.0,5263.0,3185.0,7412.0,14670.0,770.0,2076.0,453.0,8877.0,494.0,10622.0,8281.0,8459.0,574.0,2675.0,7589.0,648.0,13045.0,4029.0,6920.0,39071.0,791.0,719.0,5369.0,25812.0,27936.0,9641.0,53456.0,387153.0,"12,0",4324.0
2020-06-11T00:00:00.000,458324,7960.0,55998.0,1475.0,10990.0,134280.0,2867.0,10186.0,5914.0,1133.0,2176.0,3462.0,5449.0,3444.0,7510.0,15332.0,770.0,2076.0,454.0,8958.0,494.0,10827.0,8424.0,8613.0,576.0,2698.0,7712.0,648.0,13416.0,4231.0,7041.0,40812.0,791.0,719.0,5422.0,26943.0,28833.0,9690.0,55922.0,397940.0,"12,2",4462.0
2020-06-12T00:00:00.000,470351,8043.0,57734.0,1552.0,11521.0,136362.0,2890.0,10260.0,5979.0,1139.0,2190.0,3527.0,5515.0,3452.0,7949.0,15956.0,770.0,2076.0,454.0,9067.0,506.0,11164.0,8626.0,8670.0,576.0,2744.0,7971.0,652.0,14076.0,4392.0,7220.0,42107.0,791.0,719.0,5506.0,28419.0,29993.0,9783.0,58169.0,407681.0,"12,4",4501.0
2020-06-13T00:00:00.000,482832,8408.0,59150.0,1598.0,11921.0,138614.0,2924.0,10666.0,6213.0,1245.0,2244.0,3577.0,5698.0,3635.0,8181.0,16255.0,889.0,2175.0,572.0,9253.0,520.0,11448.0,9155.0,9120.0,593.0,2824.0,8278.0,676.0,14454.0,4585.0,7410.0,42951.0,979.0,784.0,5740.0,29449.0,30366.0,10282.0,59735.0,417638.0,"12,4",5459.0
2020-06-14T00:00:00.000,495024,8416.0,60331.0,1598.0,12296.0,141697.0,3018.0,10665.0,6336.0,1252.0,2237.0,3676.0,6324.0,3641.0,8322.0,16771.0,889.0,2332.0,572.0,9253.0,538.0,11863.0,9751.0,9120.0,579.0,2891.0,8454.0,676.0,14845.0,4925.0,7521.0,44088.0,979.0,784.0,5324.0,31338.0,31440.0,10282.0,62789.0,429946.0,"12,7",2289.0
2020-06-15T00:00:00.000,507588,8435.0,61095.0,1598.0,12889.0,145795.0,3085.0,10914.0,6556.0,1399.0,2426.0,3699.0,6520.0,3658.0,8516.0,17217.0,889.0,2522.0,572.0,9483.0,545.0,12175.0,9845.0,9392.0,579.0,2999.0,8655.0,676.0,15177.0,5042.0,7802.0,44959.0,979.0,784.0,5865.0,32404.0,31982.0,10460.0,65141.0,440094.0,"12,8",2353.0
2020-06-16T00:00:00.000,519990,8661.0,62456.0,1603.0,13339.0,148534.0,3151.0,11141.0,6684.0,1400.0,2514.0,3755.0,6684.0,4235.0,8818.0,17615.0,939.0,2534.0,594.0,9635.0,545.0,12431.0,10036.0,9517.0,580.0,3006.0,8759.0,841.0,15413.0,5305.0,8005.0,45892.0,979.0,749.0,6043.0,33883.0,33086.0,10628.0,67815.0,449800.0,"13,0",2375.0
2020-06-17T00:00:00.000,535220,9064.0,63169.0,1612.0,14312.0,153200.0,3188.0,11323.0,6783.0,1439.0,2671.0,3834.0,6944.0,4246.0,9015.0,18025.0,942.0,2629.0,712.0,9891.0,551.0,12751.0,10141.0,9795.0,599.0,3082.0,9093.0,841.0,16060.0,5709.0,8263.0,47299.0,979.0,749.0,6143.0,35582.0,33693.0,10891.0,70942.0,461840.0,"13,3",2438.0
2020-06-18T00:00:00.000,550611,9066.0,64910.0,1644.0,14859.0,157227.0,3280.0,11437.0,6892.0,1450.0,2679.0,3891.0,7087.0,4442.0,9254.0,18684.0,942.0,2647.0,713.0,10032.0,580.0,13099.0,11222.0,10398.0,599.0,3118.0,9240.0,841.0,16692.0,6056.0,8440.0,48321.0,979.0,749.0,6391.0,37152.0,34399.0,11199.0,74184.0,473959.0,"13,5",2468.0
2020-06-19T00:00:00.000,568324,9133.0,66545.0,1694.0,15336.0,163261.0,3382.0,11763.0,7025.0,1725.0,2805.0,3971.0,7455.0,4522.0,9392.0,19358.0,942.0,2851.0,713.0,10282.0,588.0,13372.0,11800.0,10687.0,599.0,3154.0,9599.0,858.0,17340.0,6402.0,8899.0,49335.0,979.0,749.0,6511.0,38484.0,35429.0,11384.0,78027.0,487781.0,"13,7",2516.0
2020-06-20T00:00:00.000,585822,9134.0,67268.0,1699.0,15682.0,171394.0,3495.0,11891.0,7153.0,1733.0,2877.0,4281.0,7715.0,4575.0,9705.0,20126.0,966.0,2975.0,715.0,10442.0,592.0,13522.0,11937.0,10826.0,639.0,3193.0,9742.0,858.0,17835.0,6709.0,9197.0,50265.0,1046.0,749.0,6746.0,40095.0,36474.0,11571.0,81395.0,501825.0,"13,9",2602.0
2020-06-21T00:00:00.000,604273,9374.0,68930.0,1768.0,16494.0,176170.0,3604.0,12145.0,7240.0,1787.0,2927.0,4376.0,8107.0,4611.0,9851.0,20918.0,969.0,3145.0,715.0,10568.0,607.0,13948.0,12412.0,10986.0,639.0,3234.0,9981.0,860.0,18286.0,6951.0,9448.0,51741.0,1046.0,771.0,6951.0,43129.0,37522.0,12062.0,86116.0,515509.0,"14,3",2648.0
2020-06-22T00:00:00.000,620288,9447.0,71085.0,1798.0,17223.0,181174.0,3717.0,12450.0,7335.0,1799.0,3006.0,4407.0,8236.0,4658.0,10028.0,21943.0,969.0,3190.0,778.0,10962.0,609.0,14300.0,12799.0,11103.0,639.0,3359.0,10255.0,1090.0,18564.0,7060.0,9907.0,52426.0,1047.0,771.0,7089.0,44498.0,38362.0,12205.0,89567.0,528029.0,"14,4",2692.0
2020-06-23T00:00:00.000,634611,9735.0,72521.0,1801.0,17951.0,185089.0,3750.0,12672.0,7546.0,1800.0,3059.0,4509.0,8389.0,5119.0,10143.0,22312.0,970.0,3463.0,823.0,11089.0,617.0,14750.0,12856.0,11326.0,679.0,3397.0,10386.0,1182.0,18824.0,7304.0,10195.0,53622.0,1048.0,772.0,7318.0,46033.0,39078.0,12483.0,93053.0,538414.0,"14,7",3144.0
2020-06-24T00:00:00.000,651592,9754.0,74284.0,2021.0,18657.0,190056.0,3971.0,12937.0,7779.0,1845.0,3215.0,4626.0,8624.0,5311.0,10227.0,22969.0,970.0,3610.0,823.0,11268.0,622.0,15266.0,13218.0,11622.0,679.0,3481.0,10744.0,1182.0,19368.0,7664.0,10282.0,55307.0,1048.0,772.0,7425.0,47698.0,39638.0,12629.0,97189.0,551639.0,"14,9",2764.0
2020-06-25T00:00:00.000,670093,9832.0,75979.0,2052.0,19688.0,194982.0,4005.0,13081.0,7919.0,1847.0,3399.0,4841.0,8822.0,5589.0,10573.0,23907.0,970.0,3679.0,823.0,11344.0,642.0,15629.0,13995.0,11845.0,679.0,3536.0,11039.0,1184.0,19842.0,8056.0,10470.0,56781.0,1048.0,782.0,7679.0,50090.0,40545.0,12919.0,102116.0,565095.0,"15,2",2882.0
2020-06-26T00:00:00.000,688959,9857.0,77953.0,2091.0,20667.0,200221.0,4180.0,13234.0,8027.0,1852.0,3420.0,4894.0,8901.0,6053.0,10832.0,25053.0,970.0,3755.0,823.0,11944.0,713.0,16019.0,14497.0,11937.0,679.0,3624.0,11262.0,1184.0,20287.0,8373.0,10709.0,57926.0,1048.0,782.0,7837.0,52867.0,41300.0,13188.0,106906.0,579122.0,"15,4",2931.0
2020-06-27T00:00:00.000,707688,9908.0,79976.0,2276.0,21389.0,205881.0,4365.0,13496.0,8082.0,1887.0,3583.0,5002.0,9199.0,6123.0,11028.0,25599.0,1007.0,3961.0,823.0,12192.0,758.0,16551.0,14719.0,12141.0,679.0,3697.0,11557.0,1334.0,20850.0,8792.0,10955.0,59438.0,1139.0,782.0,7991.0,54671.0,42417.0,13440.0,112665.0,592485.0,"15,9",2538.0
2020-06-28T00:00:00.000,725828,10046.0,82055.0,2364.0,21951.0,212011.0,4421.0,13585.0,8267.0,1922.0,3721.0,5175.0,9514.0,6154.0,11183.0,26349.0,1007.0,4184.0,823.0,12296.0,807.0,16749.0,15123.0,12291.0,681.0,3743.0,11694.0,1334.0,21243.0,9291.0,11180.0,60309.0,1139.0,782.0,8167.0,57178.0,43303.0,13786.0,117069.0,605642.0,"16,2",3117.0
2020-06-29T00:00:00.000,743437,10277.0,83993.0,2364.0,22620.0,216686.0,4635.0,14030.0,8551.0,2038.0,3883.0,5240.0,9805.0,6198.0,11518.0,27203.0,1007.0,4546.0,894.0,12670.0,807.0,17307.0,15596.0,12649.0,739.0,3784.0,11742.0,1334.0,21730.0,9394.0,11671.0,61032.0,1139.0,782.0,8355.0,58809.0,44347.0,14062.0,121588.0,618721.0,"16,4",3128.0
2020-06-30T00:00:00.000,760719,10597.0,86031.0,2407.0,23291.0,220471.0,4707.0,14298.0,8751.0,2049.0,3964.0,5299.0,9925.0,6929.0,11703.0,28178.0,1048.0,4632.0,894.0,12978.0,817.0,17611.0,16783.0,12770.0,741.0,3817.0,11768.0,1367.0,21995.0,9651.0,11954.0,62606.0,1139.0,782.0,8580.0,60551.0,45251.0,14384.0,125769.0,631748.0,"16,5",3202.0
2020-07-01T00:00:00.000,778773,10751.0,87913.0,2433.0,23751.0,224827.0,4833.0,14495.0,8991.0,2082.0,4072.0,5439.0,10196.0,7273.0,11762.0,29300.0,1048.0,4790.0,913.0,13042.0,818.0,18062.0,17213.0,13269.0,751.0,3842.0,12178.0,1393.0,22520.0,9962.0,12256.0,64317.0,1139.0,783.0,8726.0,62739.0,46125.0,14769.0,131159.0,644377.0,"16,8",3237.0
2020-07-02T00:00:00.000,798108,10783.0,89252.0,2491.0,24157.0,234263.0,4864.0,14717.0,9301.0,2087.0,4102.0,5490.0,10377.0,7391.0,11842.0,30376.0,1049.0,4859.0,913.0,13255.0,840.0,18396.0,17474.0,13342.0,753.0,3872.0,12497.0,1400.0,22700.0,10343.0,12366.0,65612.0,1139.0,783.0,8740.0,64897.0,46461.0,14924.0,135866.0,658778.0,"17,0",3464.0
2020-07-03T00:00:00.000,818703,10786.0,91975.0,2502.0,24484.0,240515.0,5038.0,14884.0,9383.0,2092.0,4163.0,5726.0,10735.0,7482.0,12057.0,31275.0,1049.0,5076.0,913.0,13535.0,854.0,18716.0,18088.0,13570.0,797.0,3967.0,12543.0,1427.0,23275.0,10668.0,12533.0,67713.0,1139.0,783.0,8740.0,67681.0,47231.0,15308.0,141355.0,673807.0,"17,3",3541.0
2020-07-04T00:00:00.000,839731,10880.0,93906.0,2538.0,24567.0,247977.0,5158.0,14950.0,9449.0,2119.0,4192.0,5903.0,10998.0,7680.0,12265.0,32625.0,1049.0,5247.0,913.0,14241.0,885.0,19006.0,18356.0,13641.0,858.0,4042.0,13022.0,1427.0,23646.0,11156.0,12862.0,69054.0,1139.0,783.0,8698.0,70638.0,48188.0,15673.0,146259.0,689753.0,"17,4",3719.0
2020-07-05T00:00:00.000,860731,10990.0,96066.0,2677.0,24956.0,254021.0,5234.0,15278.0,9541.0,2126.0,4288.0,6093.0,11530.0,7915.0,12398.0,33331.0,1049.0,5430.0,913.0,14348.0,897.0,19679.0,19061.0,13984.0,863.0,4095.0,13221.0,1428.0,24260.0,11474.0,13293.0,70981.0,1192.0,783.0,8715.0,73702.0,48980.0,15939.0,151983.0,704992.0,"17,7",3756.0
2020-07-06T00:00:00.000,881190,11043.0,98370.0,2677.0,25313.0,261021.0,5505.0,15485.0,9602.0,2131.0,4600.0,6196.0,11768.0,8632.0,12657.0,34446.0,1051.0,5572.0,913.0,14725.0,898.0,20206.0,19246.0,14026.0,940.0,4175.0,13267.0,1428.0,24764.0,11593.0,13626.0,72101.0,1192.0,783.0,8741.0,75602.0,50804.0,16091.0,156614.0,720727.0,"17,8",3849.0
2020-07-07T00:00:00.000,902305,11046.0,101142.0,2783.0,25635.0,267888.0,5552.0,15595.0,9661.0,2170.0,4622.0,6403.0,12097.0,8841.0,12774.0,35129.0,1062.0,5861.0,913.0,15169.0,941.0,21020.0,19859.0,14424.0,940.0,4182.0,13555.0,1430.0,25491.0,11904.0,13897.0,73943.0,1192.0,783.0,8742.0,77237.0,51855.0,16567.0,162134.0,736246.0,"18,0",3925.0
2020-07-08T00:00:00.000,923714,11175.0,104385.0,2784.0,26059.0,272872.0,6133.0,15729.0,9730.0,2250.0,4649.0,6499.0,12261.0,8983.0,13040.0,35679.0,1063.0,6162.0,913.0,15455.0,945.0,21593.0,20083.0,14546.0,956.0,4219.0,13780.0,1599.0,25905.0,12213.0,14237.0,75788.0,1192.0,783.0,8742.0,80993.0,53406.0,16913.0,167310.0,752402.0,"18,1",4002.0
2020-07-09T00:00:00.000,945240,11249.0,106711.0,2998.0,26449.0,280355.0,6144.0,15896.0,9798.0,2276.0,4729.0,6678.0,12391.0,9060.0,13419.0,36590.0,1065.0,6345.0,1065.0,16045.0,947.0,21788.0,20771.0,14702.0,1030.0,4230.0,14059.0,1629.0,26371.0,12612.0,14627.0,77516.0,1192.0,794.0,8744.0,82807.0,54225.0,17933.0,173208.0,767776.0,"18,3",4256.0
2020-07-10T00:00:00.000,968465,11299.0,109418.0,3166.0,26935.0,287257.0,6190.0,16138.0,10051.0,2309.0,4812.0,6880.0,12606.0,9379.0,13708.0,37392.0,1067.0,6512.0,1066.0,16523.0,976.0,22373.0,21403.0,14893.0,1109.0,4312.0,14201.0,1828.0,27393.0,13089.0,15034.0,79282.0,1192.0,794.0,8744.0,86142.0,54750.0,18242.0,178448.0,785724.0,"18,4",4293.0
2020-07-11T00:00:00.000,1006093,11597.0,112162.0,3252.0,27715.0,305987.0,6557.0,16263.0,10124.0,2370.0,4882.0,7021.0,12997.0,9652.0,13922.0,38860.0,1077.0,6733.0,1066.0,16964.0,1029.0,22783.0,21909.0,15206.0,1229.0,4486.0,14293.0,1855.0,28413.0,13395.0,15441.0,80750.0,1192.0,794.0,8748.0,89673.0,56270.0,19426.0,187051.0,814582.0,"18,8",4460.0
2020-07-12T00:00:00.000,1031230,11605.0,114117.0,3255.0,28435.0,316671.0,6901.0,16439.0,10257.0,2422.0,4966.0,7238.0,13302.0,9677.0,14131.0,40179.0,1077.0,6881.0,1066.0,17453.0,1077.0,23116.0,22360.0,15229.0,1303.0,4515.0,14487.0,1856.0,29024.0,13957.0,15684.0,81627.0,1478.0,794.0,8749.0,92732.0,57623.0,19547.0,193722.0,832992.0,"18,8",4516.0
2020-07-13T00:00:00.000,1056814,11640.0,117268.0,3329.0,29314.0,326305.0,7049.0,16583.0,10383.0,2422.0,5073.0,7392.0,13673.0,9784.0,14727.0,41325.0,1077.0,7089.0,1066.0,17554.0,1127.0,23566.0,22707.0,15440.0,1378.0,4579.0,14651.0,1856.0,29446.0,14239.0,16130.0,83144.0,1478.0,794.0,8750.0,95400.0,59198.0,19878.0,201112.0,851135.0,"19,0",4567.0
2020-07-14T00:00:00.000,1082415,11809.0,120233.0,3342.0,30522.0,335193.0,7079.0,16740.0,10421.0,2452.0,5154.0,7640.0,14027.0,10221.0,14965.0,42077.0,1080.0,7680.0,1099.0,18008.0,1215.0,23926.0,22961.0,15583.0,1547.0,4694.0,14843.0,1895.0,29749.0,14853.0,16431.0,85630.0,1478.0,805.0,8752.0,98066.0,60109.0,20136.0,208238.0,869521.0,"19,2",4656.0
2020-07-15T00:00:00.000,1108148,11810.0,125502.0,3402.0,31742.0,342140.0,7448.0,16829.0,10559.0,2471.0,5238.0,7761.0,14560.0,10341.0,15270.0,43199.0,1080.0,8039.0,1123.0,18033.0,1288.0,24732.0,23258.0,15786.0,1597.0,4721.0,15143.0,1896.0,30153.0,15192.0,16769.0,88027.0,1478.0,805.0,8761.0,100251.0,61413.0,20331.0,214795.0,888648.0,"19,4",4705.0
2020-07-16T00:00:00.000,1133507,11843.0,128725.0,3411.0,33626.0,349813.0,7628.0,17013.0,10716.0,2560.0,5302.0,7907.0,14709.0,10689.0,15643.0,43761.0,1086.0,8357.0,1140.0,18711.0,1338.0,25274.0,23621.0,15959.0,1605.0,4821.0,15394.0,1903.0,30706.0,15587.0,17256.0,89467.0,1478.0,805.0,8761.0,103255.0,62730.0,20907.0,221878.0,906891.0,"19,6",4738.0
2020-07-17T00:00:00.000,1159562,11885.0,132840.0,3415.0,34758.0,359046.0,7996.0,17707.0,10906.0,2623.0,5331.0,8174.0,15269.0,10706.0,15980.0,44377.0,1086.0,8516.0,1140.0,18806.0,1423.0,25662.0,23941.0,16119.0,1742.0,4843.0,15626.0,1906.0,31637.0,16014.0,17594.0,90462.0,1478.0,805.0,8762.0,105966.0,63971.0,21050.0,229350.0,925290.0,"19,8",4922.0
2020-07-18T00:00:00.000,1185984,11959.0,137249.0,3426.0,35660.0,366805.0,8020.0,17982.0,11155.0,2858.0,5465.0,8291.0,15733.0,11118.0,16459.0,45376.0,1086.0,9083.0,1140.0,19234.0,1529.0,26055.0,24366.0,16263.0,1948.0,4960.0,15980.0,1908.0,32097.0,16691.0,17813.0,92456.0,1532.0,805.0,8764.0,108524.0,64756.0,21438.0,236604.0,944381.0,"20,0",4999.0
2020-07-19T00:00:00.000,1210063,12136.0,141645.0,3475.0,36497.0,372316.0,8152.0,18274.0,11356.0,3551.0,5621.0,8508.0,16062.0,11366.0,16679.0,46223.0,1086.0,9345.0,1263.0,19452.0,1701.0,26243.0,25050.0,16492.0,2301.0,5052.0,16224.0,1958.0,32701.0,17542.0,18119.0,93799.0,1913.0,805.0,8764.0,111214.0,65285.0,21893.0,243472.0,961552.0,"20,1",5039.0
2020-07-20T00:00:00.000,1236569,12136.0,144581.0,3537.0,37900.0,384774.0,8292.0,18512.0,11377.0,3665.0,5721.0,8586.0,16321.0,11500.0,17032.0,46969.0,1086.0,9562.0,1263.0,19874.0,1832.0,26587.0,25568.0,16710.0,2304.0,5094.0,16232.0,1958.0,32946.0,17734.0,18359.0,95338.0,1913.0,805.0,8766.0,113387.0,66195.0,22153.0,251245.0,980184.0,"20,3",5140.0
2020-07-21T00:00:00.000,1263700,12136.0,149808.0,3537.0,38967.0,394235.0,8794.0,18708.0,11444.0,3747.0,5776.0,9019.0,16498.0,11679.0,17144.0,47514.0,1086.0,9727.0,1263.0,20117.0,1958.0,26831.0,25986.0,16900.0,2735.0,5112.0,16626.0,1958.0,33234.0,18058.0,18629.0,97818.0,1913.0,805.0,8772.0,115037.0,67406.0,22723.0,259415.0,998989.0,"20,5",5296.0
2020-07-22T00:00:00.000,1292501,12208.0,153773.0,3568.0,39684.0,401695.0,8987.0,18913.0,11600.0,3752.0,5806.0,9326.0,16757.0,12694.0,17576.0,48168.0,1101.0,9851.0,1293.0,20230.0,2156.0,27469.0,26788.0,17249.0,2940.0,5203.0,16929.0,2012.0,33789.0,18443.0,18886.0,100916.0,1913.0,837.0,8772.0,119220.0,68824.0,23173.0,268497.0,1018679.0,"20,8",5325.0
2020-07-23T00:00:00.000,1320935,12290.0,157215.0,3568.0,40533.0,412209.0,9107.0,19290.0,11826.0,3774.0,5888.0,9510.0,17234.0,12862.0,18072.0,49011.0,1101.0,10039.0,1293.0,20382.0,2278.0,27976.0,27468.0,17501.0,3344.0,5250.0,17337.0,2017.0,34303.0,18990.0,19163.0,103671.0,2067.0,837.0,8772.0,121362.0,69803.0,23592.0,278015.0,1037563.0,"21,0",5357.0
2020-07-24T00:00:00.000,1349502,12489.0,161991.0,3568.0,41002.0,421981.0,9491.0,19474.0,11925.0,3782.0,5943.0,9596.0,17402.0,13146.0,18603.0,49979.0,1101.0,10221.0,1396.0,20516.0,2321.0,28499.0,28167.0,17916.0,3694.0,5454.0,17787.0,2018.0,35413.0,19475.0,19579.0,105810.0,2070.0,837.0,8772.0,123932.0,70470.0,23682.0,286566.0,1057442.0,"21,2",5494.0
2020-07-25T00:00:00.000,1379043,12539.0,166010.0,3724.0,41834.0,434297.0,9659.0,19682.0,12042.0,3917.0,6018.0,9877.0,17876.0,13171.0,19043.0,50871.0,1101.0,10459.0,1396.0,20926.0,2367.0,28986.0,28832.0,18087.0,3696.0,5483.0,17816.0,2019.0,36000.0,19955.0,19829.0,107944.0,2070.0,839.0,8772.0,126541.0,71510.0,23855.0,295913.0,1077603.0,"21,5",5527.0
2020-07-26T00:00:00.000,1409124,12566.0,170977.0,3726.0,42833.0,445686.0,9725.0,20151.0,12436.0,4055.0,6155.0,10085.0,18425.0,13300.0,19505.0,51657.0,1101.0,10765.0,1399.0,21271.0,2440.0,29256.0,29388.0,18417.0,3792.0,5541.0,18228.0,2019.0,36471.0,20441.0,20115.0,109775.0,2072.0,839.0,8773.0,129039.0,72431.0,24269.0,304898.0,1098622.0,"21,6",5604.0
2020-07-27T00:00:00.000,1439436,12629.0,179816.0,3727.0,43838.0,452231.0,10008.0,20622.0,12633.0,4538.0,6309.0,10239.0,18463.0,13652.0,19901.0,52435.0,1143.0,11000.0,1411.0,21524.0,2460.0,29776.0,29997.0,18760.0,4099.0,5676.0,18531.0,2043.0,36885.0,20549.0,20760.0,112145.0,2185.0,948.0,8782.0,131744.0,72962.0,25015.0,314998.0,1118787.0,"21,9",5651.0
2020-07-28T00:00:00.000,1470613,12629.0,184262.0,3730.0,44455.0,465112.0,10084.0,20764.0,12767.0,4632.0,6323.0,10592.0,19377.0,14064.0,20786.0,53359.0,1143.0,11291.0,1474.0,21591.0,2617.0,30094.0,30529.0,18868.0,4289.0,5684.0,18619.0,2045.0,37513.0,21052.0,20880.0,114344.0,2185.0,948.0,8784.0,134606.0,73633.0,25488.0,325609.0,1139214.0,"22,1",5790.0
2020-07-29T00:00:00.000,1502809,12644.0,187710.0,3763.0,45443.0,478516.0,10430.0,21131.0,12865.0,4821.0,6414.0,10803.0,19653.0,14224.0,21750.0,54608.0,1143.0,11465.0,1474.0,22262.0,2695.0,30609.0,31427.0,19343.0,4444.0,5754.0,19020.0,2053.0,38263.0,21361.0,21365.0,115854.0,2274.0,948.0,8785.0,136811.0,74650.0,26034.0,335313.0,1161566.0,"22,3",5930.0
2020-07-30T00:00:00.000,1537689,12661.0,192896.0,3859.0,46814.0,489308.0,10714.0,21464.0,13185.0,5033.0,6625.0,10831.0,20102.0,14308.0,22204.0,55998.0,1144.0,11710.0,1478.0,22716.0,2865.0,31268.0,32046.0,19678.0,4708.0,5930.0,19346.0,2056.0,39097.0,21751.0,21890.0,119352.0,2274.0,948.0,8786.0,140095.0,75777.0,26772.0,345996.0,1185671.0,"22,5",6022.0
2020-07-31T00:00:00.000,1573679,12726.0,200040.0,4022.0,48318.0,499579.0,11016.0,21763.0,13739.0,5358.0,6713.0,11342.0,20549.0,14365.0,22431.0,57255.0,1144.0,12102.0,1540.0,22948.0,2994.0,31647.0,32257.0,20221.0,4814.0,6038.0,19884.0,2061.0,40874.0,22049.0,22245.0,122291.0,2274.0,953.0,8778.0,143459.0,76647.0,27243.0,357295.0,1210069.0,"22,7",6315.0
2020-08-01T00:00:00.000,1609729,12759.0,206797.0,4112.0,49235.0,511970.0,11278.0,22227.0,14099.0,5555.0,6825.0,11515.0,21253.0,14756.0,23294.0,58722.0,1144.0,12365.0,1547.0,23138.0,3088.0,32151.0,32726.0,20542.0,4981.0,6178.0,20472.0,2088.0,41647.0,22413.0,22774.0,125191.0,2311.0,954.0,8783.0,145630.0,77523.0,27687.0,362075.0,1240507.0,"22,5",7147.0
2020-08-02T00:00:00.000,1647395,12794.0,213856.0,4207.0,50193.0,524916.0,11551.0,22712.0,14475.0,5760.0,6943.0,11696.0,21989.0,15164.0,24195.0,60254.0,1144.0,12640.0,1555.0,23336.0,3186.0,32677.0,33216.0,20877.0,5155.0,6325.0,21086.0,2116.0,42454.0,22793.0,23326.0,128220.0,2350.0,955.0,8790.0,147899.0,78439.0,28151.0,380043.0,1262000.0,"23,1",5352.0
2020-08-03T00:00:00.000,1685530,12939.0,221243.0,4307.0,51060.0,537146.0,11922.0,23422.0,14713.0,6301.0,7147.0,11880.0,22026.0,15178.0,25573.0,61844.0,1154.0,12868.0,1585.0,24690.0,3264.0,33150.0,33690.0,21403.0,5460.0,6423.0,21479.0,2126.0,42972.0,23199.0,24204.0,129896.0,2350.0,955.0,8793.0,150854.0,79591.0,28723.0,391023.0,1288122.0,"23,2",6385.0
2020-08-04T00:00:00.000,1723508,13034.0,227625.0,4312.0,51749.0,550172.0,12143.0,23627.0,14913.0,6484.0,7310.0,11971.0,23366.0,15830.0,26631.0,63133.0,1154.0,13565.0,1626.0,25141.0,3376.0,33680.0,34352.0,22104.0,5734.0,6662.0,21903.0,2162.0,44398.0,23758.0,24704.0,131768.0,2352.0,1051.0,8795.0,153757.0,80053.0,29113.0,402896.0,1314142.0,"23,4",6470.0
2020-08-05T00:00:00.000,1761772,13286.0,232695.0,4319.0,52266.0,563235.0,12280.0,24123.0,15187.0,6804.0,7564.0,12565.0,23722.0,15849.0,27050.0,65284.0,1163.0,13845.0,1663.0,25538.0,3570.0,34481.0,35335.0,22650.0,6038.0,6901.0,22245.0,2162.0,45407.0,24425.0,25189.0,135497.0,2427.0,1051.0,8797.0,156051.0,81110.0,29998.0,415274.0,1339985.0,"23,6",6513.0
2020-08-06T00:00:00.000,1801835,13424.0,237526.0,4387.0,53186.0,578461.0,12547.0,24603.0,15318.0,6860.0,7758.0,12628.0,24271.0,16039.0,28303.0,66973.0,1163.0,14202.0,1667.0,25773.0,3677.0,35105.0,35962.0,22920.0,6180.0,7111.0,22689.0,2163.0,46219.0,25275.0,25485.0,140298.0,2427.0,1052.0,8827.0,159265.0,81721.0,30370.0,427621.0,1367508.0,"23,7",6706.0
2020-08-07T00:00:00.000,1842292,13687.0,243598.0,5269.0,54228.0,590578.0,12769.0,25242.0,15474.0,7039.0,7955.0,12853.0,25291.0,16183.0,29358.0,68191.0,1163.0,14664.0,1694.0,26305.0,3897.0,36366.0,36605.0,24068.0,6236.0,7189.0,23127.0,2175.0,47783.0,25823.0,25910.0,143158.0,2427.0,1055.0,8828.0,162416.0,82896.0,30792.0,439958.0,1395557.0,"23,9",6777.0
2020-08-08T00:00:00.000,1877368,13935.0,248915.0,5279.0,55049.0,603095.0,13051.0,25571.0,15719.0,7472.0,8046.0,12971.0,25500.0,16649.0,30731.0,69854.0,1163.0,14900.0,1727.0,26926.0,3999.0,37007.0,37245.0,25084.0,6308.0,7295.0,23502.0,2177.0,48538.0,26169.0,26723.0,144643.0,2427.0,1055.0,8835.0,164924.0,83780.0,31104.0,451660.0,1418809.0,"24,1",6899.0
2020-08-09T00:00:00.000,1909111,13970.0,253838.0,5560.0,55845.0,610994.0,13409.0,25816.0,16548.0,7594.0,8102.0,13384.0,25585.0,16686.0,33569.0,70398.0,1163.0,15156.0,1758.0,27400.0,4120.0,37540.0,37837.0,25842.0,6460.0,7457.0,23979.0,2177.0,49377.0,27004.0,27107.0,147494.0,2427.0,1058.0,8849.0,167341.0,84804.0,31463.0,461021.0,1441155.0,"24,1",6935.0
2020-08-10T00:00:00.000,1942730,14197.0,258031.0,5581.0,56311.0,623372.0,13697.0,26498.0,17128.0,7929.0,8404.0,13417.0,26269.0,17343.0,35504.0,71940.0,1283.0,15704.0,1758.0,28215.0,4308.0,38363.0,38687.0,26322.0,6776.0,7558.0,24125.0,2198.0,50011.0,27603.0,27433.0,148747.0,2428.0,1102.0,8859.0,168248.0,85211.0,32170.0,472608.0,1463155.0,"24,3",6967.0
2020-08-11T00:00:00.000,1982831,14259.0,262661.0,5606.0,57188.0,637365.0,13883.0,26864.0,17491.0,8050.0,8564.0,13579.0,27062.0,17782.0,37557.0,73506.0,1286.0,16552.0,1841.0,28564.0,4570.0,39118.0,39151.0,26981.0,6799.0,7866.0,24881.0,2222.0,51401.0,28023.0,27853.0,151957.0,2625.0,1103.0,8859.0,171218.0,85777.0,32767.0,484464.0,1488759.0,"24,4",9608.0
2020-08-12T00:00:00.000,2023256,14275.0,266864.0,5741.0,57426.0,654359.0,14126.0,27137.0,17642.0,8202.0,8677.0,13649.0,27759.0,17868.0,39120.0,74845.0,1287.0,17111.0,1841.0,29057.0,4865.0,39652.0,40106.0,27707.0,7291.0,7873.0,25291.0,2230.0,52311.0,28654.0,28264.0,157759.0,2625.0,1103.0,8845.0,171940.0,86439.0,33315.0,498179.0,1517798.0,"24,6",7279.0
2020-08-13T00:00:00.000,2063332,14315.0,272627.0,5756.0,58299.0,668058.0,14350.0,27730.0,18021.0,8413.0,9019.0,14160.0,28184.0,17945.0,40847.0,76300.0,1287.0,17591.0,1837.0,29701.0,4982.0,40419.0,40680.0,28499.0,7456.0,7950.0,25887.0,2236.0,53188.0,29782.0,28643.0,160469.0,2612.0,1103.0,8868.0,174710.0,87470.0,33938.0,510425.0,1545453.0,"24,7",7454.0
2020-08-14T00:00:00.000,2104766,14377.0,278836.0,5815.0,58802.0,684373.0,14927.0,28284.0,18358.0,8741.0,9175.0,14540.0,28790.0,17992.0,42578.0,77324.0,1287.0,18075.0,1837.0,30052.0,5113.0,41365.0,41066.0,29115.0,7828.0,8146.0,26564.0,2297.0,54883.0,30446.0,29176.0,163518.0,2612.0,1103.0,8868.0,176244.0,88002.0,34257.0,523087.0,1574093.0,"24,9",7586.0
2020-08-15T00:00:00.000,2143097,14378.0,283328.0,5878.0,59077.0,701905.0,15323.0,29050.0,18550.0,8948.0,9318.0,14677.0,29453.0,18123.0,43573.0,79859.0,1287.0,18392.0,1837.0,30652.0,5239.0,41784.0,41474.0,29833.0,7980.0,8277.0,27034.0,2372.0,55817.0,30892.0,29830.0,165727.0,2640.0,1103.0,8868.0,177293.0,88574.0,34752.0,535764.0,1599664.0,"25,0",7669.0
2020-08-16T00:00:00.000,2177989,14464.0,287990.0,5916.0,59961.0,716800.0,15634.0,29566.0,18807.0,9273.0,9546.0,14960.0,30056.0,18269.0,44649.0,81302.0,1399.0,18673.0,1878.0,31169.0,5281.0,42271.0,41864.0,30284.0,8018.0,8365.0,27422.0,2413.0,56445.0,31262.0,30594.0,168451.0,2640.0,1211.0,8868.0,178130.0,89051.0,35107.0,545174.0,1624986.0,"25,0",7829.0
2020-08-17T00:00:00.000,2210712,14464.0,290840.0,5919.0,60683.0,731713.0,15928.0,30314.0,18938.0,9551.0,9644.0,15001.0,30082.0,18420.0,46400.0,82501.0,1428.0,18961.0,1878.0,31915.0,5347.0,43078.0,42164.0,30812.0,8434.0,8391.0,27585.0,2444.0,57266.0,31917.0,31277.0,169721.0,2641.0,1211.0,8869.0,179678.0,89771.0,35526.0,555428.0,1647363.0,"25,1",7921.0
2020-08-18T00:00:00.000,2246595,14637.0,293380.0,6173.0,61660.0,744258.0,16374.0,30646.0,19316.0,9706.0,9783.0,15198.0,30769.0,18724.0,47408.0,84103.0,1428.0,19895.0,1888.0,32638.0,5386.0,43758.0,42551.0,31264.0,8563.0,8551.0,27790.0,2445.0,58599.0,33386.0,31698.0,174447.0,2712.0,1211.0,8878.0,181061.0,90555.0,35756.0,568032.0,1670527.0,"25,3",8036.0
2020-08-19T00:00:00.000,2277515,14639.0,296997.0,6403.0,61843.0,755005.0,16614.0,31375.0,19665.0,10077.0,9967.0,15638.0,31585.0,18841.0,48055.0,86014.0,1505.0,20292.0,1888.0,33199.0,5497.0,44565.0,42894.0,32048.0,8646.0,8582.0,28216.0,2486.0,59849.0,34253.0,32143.0,177052.0,2719.0,1211.0,8878.0,182109.0,90826.0,35939.0,577552.0,1691845.0,"25,4",8118.0
2020-08-20T00:00:00.000,2309447,14673.0,300158.0,6670.0,62189.0,764024.0,16712.0,32037.0,20357.0,10250.0,10082.0,16119.0,32720.0,18912.0,49177.0,87582.0,1505.0,20552.0,2086.0,33425.0,5650.0,45417.0,43299.0,33033.0,8762.0,9077.0,28569.0,2486.0,61131.0,35093.0,32671.0,181098.0,2719.0,1211.0,8879.0,183656.0,91216.0,36250.0,588014.0,1713150.0,"25,5",8283.0
2020-08-21T00:00:00.000,2340101,14676.0,304934.0,6682.0,62766.0,771628.0,17155.0,33020.0,20632.0,10394.0,10192.0,16261.0,33629.0,19101.0,50165.0,88325.0,1505.0,21451.0,2087.0,33999.0,6223.0,46269.0,43867.0,33845.0,8979.0,9152.0,29015.0,2491.0,62545.0,36170.0,32941.0,182407.0,2723.0,1211.0,8881.0,185240.0,92891.0,36649.0,597777.0,1733946.0,"25,5",8378.0
2020-08-22T00:00:00.000,2374068,14676.0,310196.0,6800.0,62855.0,782274.0,17509.0,33696.0,21105.0,10641.0,10326.0,16582.0,35233.0,19663.0,50790.0,89596.0,1507.0,22082.0,2134.0,34350.0,6316.0,46802.0,44152.0,34872.0,9077.0,9489.0,29766.0,2543.0,63807.0,36509.0,33621.0,185634.0,2789.0,1218.0,8881.0,186499.0,93216.0,36862.0,607735.0,1757840.0,"25,6",8493.0
2020-08-23T00:00:00.000,2396892,14725.0,313461.0,6849.0,63267.0,789932.0,17761.0,34500.0,21367.0,10945.0,10542.0,17065.0,35340.0,19717.0,50978.0,90751.0,1895.0,22253.0,2148.0,35196.0,6403.0,47533.0,44476.0,35284.0,9224.0,9524.0,30239.0,2544.0,65201.0,36647.0,34199.0,186181.0,2789.0,1322.0,8882.0,187113.0,93597.0,37042.0,614809.0,1773493.0,"25,7",8590.0
2020-08-24T00:00:00.000,2427941,14731.0,315393.0,6873.0,63893.0,803257.0,18036.0,35256.0,21708.0,11026.0,10643.0,17154.0,35490.0,19731.0,52033.0,92770.0,1975.0,22623.0,2149.0,35678.0,6477.0,48425.0,45008.0,35798.0,9546.0,9660.0,30430.0,2597.0,66724.0,37418.0,34760.0,188010.0,2801.0,1341.0,8882.0,187793.0,94548.0,37304.0,624179.0,1795034.0,"25,7",8728.0
2020-08-25T00:00:00.000,2458866,14735.0,318263.0,6890.0,63975.0,814575.0,18445.0,35946.0,21969.0,11084.0,10765.0,17267.0,36224.0,19869.0,53735.0,93875.0,1975.0,22823.0,2149.0,36048.0,6659.0,48899.0,45274.0,37701.0,9947.0,9821.0,30992.0,2646.0,68232.0,37863.0,35327.0,190490.0,2802.0,1341.0,8883.0,188323.0,95452.0,37602.0,634434.0,1815568.0,"25,8",8864.0
2020-08-26T00:00:00.000,2489430,14744.0,321344.0,6930.0,64362.0,822752.0,18734.0,36365.0,22373.0,11279.0,10916.0,17639.0,37586.0,20093.0,55346.0,94979.0,1975.0,23207.0,2149.0,36848.0,6789.0,49569.0,45645.0,38205.0,10071.0,9880.0,31375.0,2660.0,70059.0,38690.0,35854.0,191464.0,2802.0,1341.0,8883.0,190886.0,97527.0,38109.0,642962.0,1837488.0,"25,8",8980.0
2020-08-27T00:00:00.000,2519489,14761.0,324499.0,7220.0,64673.0,833284.0,19136.0,36842.0,22700.0,11456.0,10979.0,17817.0,38466.0,20165.0,56317.0,96451.0,1991.0,23770.0,2151.0,37807.0,6880.0,50393.0,45803.0,39503.0,10201.0,9998.0,31940.0,2661.0,71616.0,39243.0,36495.0,192680.0,2812.0,1353.0,8883.0,191865.0,98363.0,38315.0,652289.0,1858110.0,"25,9",9090.0
2020-08-28T00:00:00.000,2547838,14761.0,327862.0,7236.0,64836.0,843028.0,19267.0,37383.0,22947.0,11819.0,11224.0,18417.0,39609.0,20317.0,56874.0,97357.0,1991.0,24266.0,2151.0,38623.0,7110.0,51242.0,46115.0,40322.0,10363.0,10167.0,32313.0,2665.0,72687.0,39691.0,36982.0,194389.0,2814.0,1358.0,8884.0,192821.0,99033.0,38914.0,660706.0,1877907.0,"25,9",9225.0
2020-08-29T00:00:00.000,2572824,14764.0,331297.0,7276.0,65441.0,848917.0,19694.0,38054.0,23460.0,11968.0,11334.0,18963.0,40254.0,20391.0,57332.0,98463.0,1991.0,24571.0,2154.0,39745.0,7291.0,51810.0,46502.0,41245.0,10490.0,10232.0,32722.0,2702.0,74269.0,40143.0,37362.0,195728.0,2814.0,1387.0,8884.0,194195.0,99714.0,39265.0,667403.0,1896222.0,"25,9",9199.0
2020-08-30T00:00:00.000,2599703,15021.0,334111.0,7281.0,65489.0,860884.0,19990.0,38443.0,23805.0,12197.0,11359.0,19136.0,40750.0,20767.0,57976.0,99154.0,1991.0,24670.0,2385.0,39969.0,7317.0,52452.0,47021.0,41727.0,10821.0,10918.0,33212.0,2702.0,74852.0,40436.0,38010.0,197653.0,2814.0,1387.0,8884.0,194565.0,100038.0,39516.0,674375.0,1916047.0,"25,9",9281.0
2020-08-31T00:00:00.000,2625052,15032.0,336256.0,7459.0,65935.0,870408.0,20135.0,38966.0,24074.0,12701.0,11543.0,19261.0,41103.0,20785.0,58908.0,99680.0,2241.0,25076.0,2394.0,40833.0,7446.0,53058.0,47069.0,41966.0,10957.0,10980.0,33498.0,2763.0,76351.0,40834.0,38526.0,199356.0,2966.0,1641.0,8884.0,195540.0,100482.0,39945.0,680974.0,1934723.0,"25,9",9355.0
2020-09-01T00:00:00.000,2647702,15445.0,338383.0,7462.0,66253.0,879419.0,20341.0,39152.0,24268.0,12992.0,11645.0,19411.0,42161.0,20899.0,59170.0,100887.0,2241.0,25407.0,2502.0,41509.0,7595.0,53356.0,47292.0,42368.0,11016.0,11275.0,33681.0,2829.0,77241.0,41093.0,38796.0,200431.0,3037.0,1644.0,8887.0,196238.0,101223.0,40153.0,687436.0,1950527.0,26.0,9739.0
2020-09-02T00:00:00.000,2676154,15445.0,341216.0,7474.0,66668.0,889330.0,20464.0,39798.0,24391.0,13039.0,11757.0,20017.0,43330.0,20947.0,59985.0,102373.0,2241.0,26298.0,2502.0,41738.0,7712.0,54156.0,47399.0,42720.0,11067.0,11320.0,33932.0,2867.0,79169.0,41571.0,39302.0,201384.0,3041.0,1646.0,8890.0,198873.0,101654.0,40438.0,695347.0,1970998.0,26.0,9809.0
2020-09-03T00:00:00.000,2699889,15509.0,344214.0,7690.0,66856.0,899802.0,20599.0,40034.0,24720.0,13295.0,11843.0,20370.0,43690.0,21184.0,60351.0,102872.0,2241.0,26397.0,2590.0,42455.0,7783.0,54716.0,47701.0,42941.0,11185.0,11427.0,34318.0,2867.0,79963.0,42245.0,39779.0,202500.0,3041.0,1646.0,8891.0,199628.0,101927.0,40619.0,702259.0,1987710.0,26.0,9920.0
2020-09-04T00:00:00.000,2728423,15509.0,348908.0,7772.0,67142.0,907875.0,20693.0,40765.0,24921.0,13761.0,12003.0,20526.0,44625.0,21255.0,61472.0,104006.0,2241.0,26965.0,2653.0,43212.0,7950.0,55671.0,47982.0,43375.0,11268.0,11777.0,34633.0,2867.0,81200.0,43293.0,40431.0,204115.0,3041.0,1646.0,8892.0,200799.0,102335.0,40844.0,710209.0,2008110.0,26.0,10104.0
2020-09-05T00:00:00.000,2753032,15509.0,350784.0,7805.0,67315.0,915337.0,20781.0,41123.0,25282.0,13903.0,12124.0,20968.0,45539.0,21315.0,63342.0,105015.0,2241.0,27528.0,2673.0,44028.0,8028.0,56360.0,48198.0,43614.0,11343.0,11905.0,35036.0,2868.0,83333.0,43612.0,40944.0,205576.0,3041.0,1664.0,8892.0,201757.0,103295.0,40954.0,716511.0,2026183.0,26.0,10338.0
2020-09-06T00:00:00.000,2776144,15515.0,354369.0,7808.0,67725.0,920515.0,20982.0,41538.0,25792.0,14243.0,12240.0,21323.0,46107.0,21356.0,64082.0,106130.0,2726.0,27780.0,2694.0,44540.0,8093.0,57065.0,48859.0,43980.0,11593.0,12321.0,35645.0,2954.0,83868.0,44276.0,41390.0,208007.0,3051.0,1910.0,8897.0,202155.0,103561.0,41054.0,722947.0,2042557.0,26.0,10640.0
2020-09-07T00:00:00.000,2798000,15535.0,355942.0,7810.0,68582.0,929091.0,21202.0,41933.0,26028.0,14355.0,12377.0,21807.0,46149.0,21364.0,65052.0,106760.0,2726.0,27882.0,2813.0,45103.0,8363.0,57632.0,49080.0,44183.0,11629.0,12446.0,35687.0,3010.0,84617.0,44567.0,41759.0,208972.0,3051.0,1912.0,8899.0,203822.0,104166.0,41694.0,728289.0,2058987.0,26.0,10724.0
2020-09-08T00:00:00.000,2819479,15536.0,357867.0,7891.0,68694.0,935553.0,21320.0,42352.0,26336.0,14475.0,12444.0,22061.0,47833.0,21455.0,65425.0,107338.0,2829.0,28651.0,2815.0,45578.0,8624.0,58540.0,49258.0,44565.0,11644.0,12541.0,35977.0,3031.0,85773.0,45138.0,42077.0,210466.0,3128.0,1938.0,8900.0,204662.0,104839.0,41925.0,734244.0,2074463.0,26.0,10772.0
2020-09-09T00:00:00.000,2843509,15583.0,360973.0,7928.0,68951.0,942466.0,21476.0,42695.0,26666.0,14481.0,12544.0,22414.0,48972.0,21920.0,66262.0,108119.0,2829.0,29563.0,2935.0,46118.0,8770.0,58896.0,49468.0,44775.0,11670.0,12745.0,36290.0,3088.0,87467.0,45605.0,42404.0,211377.0,3128.0,1953.0,8908.0,205916.0,105996.0,42158.0,740269.0,2092339.0,26.0,10901.0
2020-09-10T00:00:00.000,2868291,15583.0,364061.0,8349.0,69034.0,951859.0,21534.0,43053.0,26910.0,14643.0,12682.0,22589.0,49782.0,22024.0,66500.0,108906.0,2848.0,29706.0,2954.0,46798.0,8803.0,59855.0,49873.0,45091.0,11699.0,12928.0,36663.0,3090.0,88829.0,45922.0,43108.0,212964.0,3128.0,1959.0,8909.0,206576.0,106651.0,42428.0,747606.0,2109581.0,"26,1",11104.0
2020-09-11T00:00:00.000,2896974,15656.0,367805.0,8367.0,69560.0,960420.0,21572.0,43691.0,27692.0,14749.0,12837.0,22787.0,50930.0,22077.0,67546.0,110139.0,2852.0,30077.0,3003.0,47208.0,9062.0,60754.0,50257.0,45591.0,11745.0,13358.0,37227.0,3135.0,90259.0,46595.0,43697.0,214851.0,3137.0,1960.0,8910.0,207699.0,107115.0,42654.0,754774.0,2131044.0,"26,1",11156.0
2020-09-12T00:00:00.000,2921344,15727.0,370635.0,8688.0,69663.0,968086.0,21678.0,43815.0,27842.0,14790.0,12937.0,23185.0,51914.0,22213.0,68003.0,110472.0,2852.0,30382.0,3292.0,47624.0,9166.0,61262.0,50445.0,45719.0,11829.0,13439.0,37441.0,3135.0,91189.0,46829.0,44229.0,215419.0,3212.0,1960.0,13412.0,208442.0,107523.0,42895.0,760245.0,2149835.0,26.0,11264.0
2020-09-13T00:00:00.000,2947874,15727.0,373727.0,8836.0,69912.0,978592.0,21903.0,44164.0,28157.0,14807.0,13062.0,23365.0,52430.0,22225.0,68329.0,111518.0,2853.0,30711.0,3331.0,48462.0,9232.0,61843.0,50788.0,45967.0,11868.0,13577.0,37680.0,3203.0,92942.0,47459.0,44833.0,216857.0,3213.0,2113.0,13412.0,209257.0,108496.0,43023.0,767107.0,2169390.0,26.0,11377.0
2020-09-14T00:00:00.000,2970260,15752.0,375616.0,8874.0,70550.0,987339.0,21990.0,44708.0,28447.0,15231.0,13137.0,23556.0,53082.0,22245.0,68435.0,112344.0,3291.0,31089.0,3361.0,49119.0,9262.0,62614.0,51669.0,46246.0,12067.0,13653.0,37906.0,3298.0,93726.0,47842.0,45253.0,217744.0,3214.0,2228.0,12422.0,209835.0,108936.0,43179.0,771704.0,2184243.0,26.0,14313.0
2020-09-15T00:00:00.000,2994209,15752.0,377821.0,8895.0,70899.0,994612.0,22074.0,45230.0,29112.0,15231.0,13257.0,24265.0,53506.0,22367.0,69677.0,113171.0,3291.0,31998.0,3373.0,49475.0,9479.0,63669.0,51335.0,46662.0,12067.0,13781.0,38290.0,3298.0,95149.0,48055.0,45776.0,219150.0,3214.0,2228.0,12625.0,211157.0,110874.0,43394.0,778371.0,2204196.0,26.0,11642.0
2020-09-16T00:00:00.000,3018946,16457.0,381803.0,8947.0,71020.0,1002760.0,22221.0,45565.0,29445.0,14878.0,13592.0,24328.0,54449.0,23962.0,69792.0,113955.0,3211.0,32567.0,4233.0,50192.0,9591.0,64250.0,51596.0,46833.0,12251.0,16555.0,38680.0,3661.0,96650.0,48201.0,46019.0,220753.0,3214.0,2225.0,8912.0,211618.0,111066.0,43494.0,784445.0,2222728.0,26.0,11773.0
2020-09-17T00:00:00.000,3043717,16457.0,385152.0,9100.0,71230.0,1014632.0,22385.0,46009.0,29813.0,15106.0,13694.0,24851.0,55204.0,23977.0,70885.0,111992.0,3212.0,32835.0,4258.0,50507.0,9833.0,64931.0,51815.0,47067.0,12299.0,16785.0,39121.0,3662.0,97392.0,48447.0,46502.0,222086.0,3214.0,2232.0,8905.0,212315.0,112050.0,43762.0,790846.0,2241004.0,26.0,11867.0
2020-09-18T00:00:00.000,3065390,16462.0,388779.0,9172.0,71347.0,1020766.0,22444.0,46470.0,30059.0,15421.0,13829.0,25008.0,55805.0,24114.0,71144.0,112605.0,3213.0,33008.0,4277.0,51377.0,9871.0,65598.0,53389.0,47350.0,12601.0,16881.0,39531.0,3679.0,98611.0,48587.0,46979.0,223740.0,3214.0,2261.0,8906.0,212921.0,112181.0,43790.0,796994.0,2256484.0,26.0,11912.0
2020-09-19T00:00:00.000,3087776,16508.0,391141.0,9238.0,71725.0,1027089.0,22571.0,46874.0,30574.0,15427.0,13967.0,25496.0,56401.0,24212.0,71631.0,113627.0,3291.0,33176.0,4361.0,51859.0,10012.0,66425.0,53721.0,47653.0,12660.0,17241.0,40017.0,4652.0,99522.0,48770.0,47518.0,225317.0,3266.0,2382.0,8906.0,213868.0,112663.0,44015.0,802399.0,2273315.0,26.0,12062.0
2020-09-20T00:00:00.000,3112467,16509.0,394659.0,9357.0,72368.0,1036891.0,22731.0,47266.0,30939.0,15471.0,14093.0,25620.0,56787.0,24353.0,71755.0,114475.0,3291.0,34060.0,4371.0,52550.0,10206.0,66841.0,53887.0,48006.0,12667.0,17396.0,40272.0,4920.0,101076.0,48910.0,47988.0,226520.0,3266.0,2423.0,8906.0,214483.0,112892.0,44262.0,807952.0,2292363.0,26.0,12152.0
2020-09-21T00:00:00.000,3136243,16510.0,398922.0,9360.0,72952.0,1044336.0,22803.0,47659.0,31286.0,15472.0,14451.0,25892.0,57152.0,24589.0,72398.0,115118.0,3505.0,34388.0,4430.0,53328.0,10217.0,67676.0,54203.0,48352.0,12756.0,17986.0,40624.0,5157.0,101544.0,49526.0,48471.0,228003.0,3272.0,2630.0,8917.0,214858.0,113202.0,44298.0,813640.0,2310359.0,"25,9",12244.0
2020-09-22T00:00:00.000,3160591,16510.0,401927.0,9362.0,74344.0,1048746.0,22885.0,48166.0,31652.0,15524.0,14494.0,26435.0,57309.0,24681.0,74361.0,115630.0,3505.0,34495.0,4436.0,54378.0,10617.0,68086.0,54385.0,48627.0,12758.0,18075.0,40874.0,5353.0,102909.0,50140.0,49033.0,229477.0,3272.0,2634.0,8918.0,216660.0,115090.0,44843.0,818402.0,2329726.0,"25,9",12463.0
2020-09-23T00:00:00.000,3185614,16530.0,404347.0,9523.0,74607.0,1058825.0,22879.0,48326.0,32125.0,15842.0,14551.0,26499.0,58483.0,24657.0,74810.0,116203.0,3643.0,34815.0,4451.0,55701.0,10850.0,68562.0,54702.0,48941.0,12765.0,18288.0,41296.0,5520.0,104468.0,50408.0,49361.0,231287.0,3238.0,2651.0,8916.0,217311.0,115188.0,45045.0,824776.0,2348274.0,"25,9",12564.0
2020-09-24T00:00:00.000,3207772,16630.0,407280.0,9592.0,74962.0,1064964.0,22912.0,48805.0,32464.0,16064.0,14984.0,26884.0,59343.0,24807.0,75026.0,117215.0,3679.0,35134.0,4592.0,56518.0,10894.0,69347.0,54938.0,49251.0,12775.0,18770.0,41433.0,5679.0,105757.0,50677.0,49805.0,232710.0,3269.0,2655.0,8916.0,218205.0,115694.0,45142.0,830462.0,2364623.0,"25,9",12687.0
2020-09-25T00:00:00.000,3232499,16730.0,410539.0,9604.0,75724.0,1072467.0,23158.0,49252.0,32974.0,16356.0,15138.0,27066.0,60119.0,24882.0,76507.0,118011.0,3679.0,35310.0,4637.0,56980.0,11124.0,69932.0,55258.0,49528.0,12800.0,18925.0,41974.0,5757.0,106819.0,50986.0,50212.0,234022.0,3269.0,2667.0,8916.0,219318.0,116294.0,45565.0,835855.0,2383898.0,"25,9",12746.0
2020-09-26T00:00:00.000,3254789,16732.0,413291.0,9748.0,76250.0,1078022.0,23245.0,49587.0,33415.0,16552.0,15250.0,27463.0,60911.0,24926.0,77060.0,118889.0,3679.0,35547.0,4644.0,57551.0,11146.0,70396.0,55670.0,50014.0,12828.0,19127.0,42418.0,5769.0,108400.0,51238.0,50856.0,236353.0,3269.0,2667.0,8917.0,220373.0,116878.0,45708.0,841178.0,2400725.0,"25,8",12886.0
2020-09-27T00:00:00.000,3277609,16755.0,416846.0,9767.0,76706.0,1086612.0,23278.0,49850.0,33943.0,16649.0,15308.0,27622.0,61765.0,24946.0,77370.0,119714.0,3679.0,35804.0,4646.0,58109.0,11152.0,70810.0,56028.0,50312.0,12844.0,19289.0,42843.0,5778.0,109890.0,51328.0,51370.0,237626.0,3269.0,2684.0,8919.0,220956.0,117236.0,45906.0,846223.0,2418376.0,"25,8",13010.0
2020-09-28T00:00:00.000,3302476,16808.0,420808.0,9769.0,77212.0,1093601.0,23470.0,50408.0,34396.0,16724.0,15521.0,27956.0,62136.0,25088.0,78529.0,120373.0,3924.0,35954.0,4694.0,58693.0,11313.0,71573.0,56170.0,50574.0,12891.0,19951.0,43087.0,6479.0,110886.0,51478.0,51866.0,238905.0,3357.0,2840.0,8923.0,221992.0,117935.0,46192.0,851548.0,2437841.0,"25,8",13087.0
2020-09-29T00:00:00.000,3324160,16758.0,421730.0,9842.0,78542.0,1097732.0,23580.0,50591.0,34812.0,16763.0,15591.0,28246.0,62261.0,25023.0,80014.0,120775.0,3922.0,36010.0,4702.0,59181.0,11691.0,72096.0,56407.0,50737.0,12918.0,20052.0,43297.0,7075.0,111835.0,51900.0,52091.0,240645.0,3323.0,2907.0,8920.0,224727.0,120811.0,46653.0,855220.0,2455716.0,"25,7",13224.0
2020-09-30T00:00:00.000,3347307,16830.0,424666.0,9857.0,78681.0,1105954.0,23729.0,51056.0,35156.0,16784.0,15836.0,28476.0,62998.0,25068.0,80141.0,121502.0,3933.0,36376.0,4711.0,59503.0,11693.0,72545.0,56633.0,51108.0,12958.0,20421.0,43711.0,7415.0,113153.0,51978.0,52663.0,242341.0,3324.0,2944.0,8920.0,225750.0,121632.0,46861.0,861024.0,2472847.0,25.7,13436.0
2020-10-01T00:00:00.000,3370811,16839.0,427295.0,10276.0,79033.0,1112718.0,23825.0,51335.0,35419.0,16850.0,15909.0,28867.0,63912.0,25148.0,81009.0,122196.0,3933.0,36603.0,4824.0,60038.0,11878.0,72870.0,56909.0,51831.0,12990.0,20710.0,44056.0,7431.0,113989.0,52280.0,53120.0,244317.0,3324.0,3060.0,8920.0,226992.0,122770.0,47335.0,866707.0,2490472.0,25.7,13632.0
2020-10-02T00:00:00.000,3399218,16841.0,430555.0,10542.0,79389.0,1122880.0,23952.0,51855.0,35912.0,17255.0,16097.0,29301.0,64439.0,25257.0,81173.0,123098.0,3933.0,36911.0,4907.0,60609.0,11977.0,73609.0,57174.0,52422.0,13244.0,21181.0,44366.0,7492.0,114969.0,52353.0,53674.0,246138.0,3414.0,3164.0,8920.0,227968.0,124455.0,47792.0,873017.0,2512163.0,25.7,14038.0
2020-10-03T00:00:00.000,3426066,16880.0,434206.0,10707.0,80299.0,1129039.0,24005.0,52206.0,36377.0,17360.0,16170.0,29550.0,65050.0,25315.0,82774.0,123771.0,4003.0,37078.0,4925.0,61091.0,12230.0,74236.0,57372.0,52864.0,13307.0,21441.0,44889.0,7599.0,117329.0,52742.0,54183.0,248023.0,3414.0,3171.0,9044.0,229793.0,125503.0,48120.0,878624.0,2533225.0,25.6,14217.0
2020-10-04T00:00:00.000,3454160,16881.0,438438.0,10710.0,80776.0,1140670.0,24119.0,52742.0,36752.0,17538.0,16375.0,29675.0,65732.0,25402.0,83211.0,124617.0,4007.0,37563.0,4929.0,61772.0,12253.0,74917.0,57953.0,53251.0,13332.0,21591.0,45122.0,7600.0,118083.0,52967.0,54627.0,249107.0,3418.0,3176.0,9044.0,231030.0,126346.0,48434.0,884449.0,2555168.0,25.6,14543.0
2020-10-05T00:00:00.000,3477721,16886.0,440992.0,10725.0,81605.0,1148699.0,24204.0,53253.0,37140.0,17731.0,16442.0,30002.0,66225.0,25406.0,83597.0,125484.0,4007.0,37736.0,4978.0,62332.0,12280.0,75794.0,58156.0,53355.0,13375.0,22029.0,45598.0,7653.0,119404.0,53342.0,55259.0,250732.0,3418.0,3176.0,9044.0,231534.0,127397.0,48731.0,890126.0,2572808.0,25.6,14787.0
2020-10-06T00:00:00.000,3501602,16887.0,444362.0,10729.0,82593.0,1155564.0,24284.0,53854.0,37543.0,17977.0,16594.0,30564.0,66477.0,25472.0,84173.0,126209.0,4008.0,38081.0,5071.0,62962.0,12381.0,76376.0,58322.0,53761.0,13382.0,22306.0,45787.0,7670.0,120574.0,53441.0,55782.0,252265.0,3418.0,3208.0,9044.0,233008.0,128630.0,48843.0,895606.0,2590936.0,25.6,15060.0
2020-10-07T00:00:00.000,3526959,16953.0,448104.0,10748.0,82715.0,1164028.0,24351.0,54313.0,38004.0,18165.0,16778.0,30625.0,67516.0,25525.0,84511.0,126832.0,4049.0,38340.0,5117.0,63322.0,12530.0,76810.0,58658.0,54327.0,13399.0,22856.0,46214.0,7724.0,122444.0,54002.0,56329.0,253495.0,3456.0,3388.0,9150.0,234074.0,129040.0,49067.0,901651.0,2610042.0,25.6,15266.0
2020-10-08T00:00:00.000,3550223,17009.0,451627.0,11108.0,82920.0,1172076.0,24404.0,54600.0,38481.0,18232.0,16942.0,30714.0,67836.0,25625.0,85027.0,127416.0,4049.0,38500.0,5122.0,63758.0,12639.0,77464.0,58910.0,54762.0,13421.0,23066.0,46685.0,7728.0,123895.0,54295.0,56884.0,255395.0,3456.0,3410.0,9150.0,235046.0,129415.0,49156.0,906579.0,2628271.0,25.6,15373.0
2020-10-09T00:00:00.000,3583083,17010.0,455797.0,11125.0,83245.0,1184988.0,24509.0,55330.0,39215.0,18430.0,17087.0,30996.0,68340.0,25696.0,85553.0,128198.0,4049.0,38748.0,5140.0,64648.0,12701.0,78425.0,59310.0,55333.0,13470.0,23423.0,47211.0,7790.0,125517.0,54900.0,57582.0,257295.0,3456.0,3414.0,9307.0,236024.0,130468.0,49353.0,913322.0,2654229.0,25.5,15532.0
2020-10-10T00:00:00.000,3612284,17048.0,460453.0,11144.0,83978.0,1194707.0,24688.0,55825.0,39525.0,18469.0,17171.0,31327.0,69302.0,25790.0,86207.0,129067.0,4049.0,38973.0,5142.0,65169.0,12807.0,78836.0,59593.0,55790.0,13476.0,23778.0,47537.0,7826.0,126948.0,55286.0,58080.0,259362.0,3456.0,3424.0,9438.0,237474.0,131572.0,49567.0,919218.0,2677403.0,25.4,15663.0
2020-10-11T00:00:00.000,3638978,17084.0,463668.0,11162.0,84467.0,1204485.0,24785.0,56686.0,40067.0,18638.0,17315.0,31522.0,70260.0,25832.0,86355.0,129656.0,4049.0,39327.0,5205.0,66358.0,12830.0,79776.0,59958.0,56286.0,13555.0,24141.0,47959.0,7829.0,127860.0,55916.0,58541.0,260801.0,3456.0,3432.0,9581.0,238108.0,132410.0,49618.0,924894.0,2698290.0,25.4,15794.0
2020-10-12T00:00:00.000,3661140,17087.0,467784.0,11166.0,84787.0,1212754.0,24818.0,57232.0,40502.0,18947.0,17537.0,31704.0,70799.0,25856.0,86540.0,130109.0,4049.0,39660.0,5208.0,66809.0,12831.0,80457.0,60002.0,56340.0,13576.0,24321.0,48282.0,7850.0,129305.0,55983.0,59089.0,262287.0,3456.0,3432.0,9611.0,238527.0,132682.0,49761.0,929647.0,2715671.0,25.4,15822.0
2020-10-13T00:00:00.000,3681799,17088.0,469756.0,11171.0,86095.0,1218476.0,24920.0,57444.0,40825.0,19009.0,17591.0,31847.0,70950.0,25858.0,88550.0,130578.0,4049.0,39772.0,5209.0,67163.0,13028.0,80761.0,60107.0,56719.0,13578.0,24577.0,48358.0,7853.0,130588.0,56399.0,59411.0,263605.0,3456.0,3436.0,9655.0,240258.0,133440.0,50219.0,933687.0,2732241.0,25.4,15871.0
2020-10-14T00:00:00.000,3702743,17177.0,472125.0,11588.0,86117.0,1224727.0,24941.0,57692.0,41223.0,19018.0,18204.0,32386.0,72300.0,26023.0,89249.0,130981.0,4155.0,40248.0,5296.0,67472.0,13048.0,80843.0,60254.0,56908.0,13646.0,25460.0,48600.0,7943.0,131915.0,56777.0,59812.0,265332.0,3508.0,3611.0,9712.0,240468.0,133672.0,50312.0,938258.0,2748268.0,25.3,16217.0
2020-10-15T00:00:00.000,3724649,17178.0,474612.0,11632.0,86242.0,1231387.0,24968.0,58155.0,42369.0,19077.0,18249.0,32669.0,72763.0,26087.0,89780.0,131813.0,4155.0,40346.0,5353.0,68165.0,13152.0,81282.0,60484.0,57259.0,13867.0,25612.0,48986.0,7999.0,132654.0,57250.0,60344.0,267309.0,3508.0,3623.0,9712.0,241286.0,134660.0,50662.0,943308.0,2764976.0,25.3,16365.0
2020-10-16T00:00:00.000,3750011,17179.0,479030.0,11642.0,86444.0,1238700.0,25028.0,58732.0,42785.0,19270.0,18422.0,32713.0,73350.0,26221.0,90634.0,132425.0,4155.0,40442.0,5359.0,68636.0,13203.0,82173.0,60891.0,57766.0,13873.0,26016.0,49318.0,8019.0,134314.0,57369.0,61058.0,268844.0,3508.0,3629.0,9794.0,242407.0,135519.0,51143.0,948766.0,2784764.0,25.3,16481.0
2020-10-17T00:00:00.000,3778867,17435.0,482906.0,11878.0,87054.0,1248142.0,25114.0,59443.0,43326.0,19376.0,18597.0,32975.0,74553.0,26226.0,91058.0,133347.0,4155.0,40587.0,5385.0,69542.0,13359.0,82808.0,61168.0,58127.0,13961.0,26255.0,49760.0,8042.0,135771.0,57707.0,61774.0,270904.0,3512.0,3629.0,10084.0,243538.0,136120.0,51249.0,954949.0,2807347.0,25.3,16571.0
2020-10-18T00:00:00.000,3805311,17540.0,486017.0,11894.0,87548.0,1256974.0,25239.0,59956.0,43981.0,19522.0,18816.0,33285.0,75373.0,26306.0,91454.0,134312.0,4225.0,40824.0,5397.0,70288.0,13470.0,83412.0,61505.0,58465.0,13965.0,26662.0,50359.0,8079.0,137301.0,58346.0,62667.0,272541.0,3512.0,3629.0,10084.0,244294.0,136711.0,51358.0,960576.0,2828056.0,25.3,16679.0
2020-10-19T00:00:00.000,3832297,17541.0,490970.0,11914.0,88614.0,1265639.0,25362.0,60505.0,44445.0,19686.0,19045.0,33589.0,75568.0,26353.0,91844.0,135282.0,4226.0,40929.0,5402.0,70694.0,13516.0,84305.0,61783.0,58614.0,13983.0,27198.0,50523.0,8087.0,138925.0,58655.0,63069.0,273759.0,3512.0,3720.0,10211.0,245764.0,137516.0,51549.0,966248.0,2849266.0,25.2,16783.0
2020-10-20T00:00:00.000,3857620,17715.0,494118.0,11921.0,90051.0,1272170.0,25387.0,60672.0,45081.0,19720.0,19373.0,33672.0,76852.0,26407.0,92703.0,135951.0,4232.0,41030.0,5425.0,71498.0,13743.0,84696.0,62126.0,59187.0,14073.0,27615.0,50768.0,8141.0,140079.0,58938.0,63479.0,276039.0,3513.0,3756.0,10211.0,247131.0,138084.0,52063.0,971615.0,2868997.0,25.2,17008.0
2020-10-21T00:00:00.000,3892159,17729.0,500906.0,11951.0,90179.0,1284286.0,25429.0,61384.0,46143.0,19931.0,19728.0,34079.0,77859.0,26437.0,93199.0,136826.0,4232.0,41193.0,5442.0,72060.0,13786.0,85343.0,62546.0,59610.0,14081.0,27861.0,51190.0,8147.0,141745.0,59118.0,64154.0,278541.0,3513.0,3756.0,10705.0,248080.0,138804.0,52186.0,979054.0,2895923.0,25.2,17182.0
2020-10-22T00:00:00.000,3922999,17730.0,506938.0,12184.0,90654.0,1294496.0,25520.0,61924.0,46764.0,20071.0,19967.0,34174.0,78454.0,26537.0,93432.0,137677.0,4232.0,41596.0,5457.0,73031.0,13812.0,86007.0,63004.0,60060.0,14127.0,28338.0,51627.0,8172.0,143377.0,59455.0,64923.0,280452.0,3513.0,3757.0,10877.0,249129.0,139042.0,52489.0,986106.0,2919565.0,25.1,17328.0
2020-10-23T00:00:00.000,3958929,17766.0,512995.0,12860.0,91629.0,1305606.0,25684.0,62889.0,47761.0,20117.0,20176.0,34452.0,78934.0,26660.0,94761.0,139121.0,4234.0,41926.0,5497.0,73728.0,13968.0,86811.0,63465.0,60503.0,14206.0,28805.0,52007.0,8240.0,144816.0,59859.0,65450.0,281906.0,3547.0,3765.0,10963.0,250666.0,140258.0,52898.0,992970.0,2948453.0,25.1,17506.0
2020-10-24T00:00:00.000,3994876,17740.0,516689.0,12881.0,92643.0,1319579.0,25973.0,63326.0,48661.0,20341.0,20588.0,34747.0,80350.0,26640.0,95479.0,140262.0,4232.0,42282.0,5545.0,74382.0,14200.0,87675.0,63654.0,60841.0,14254.0,29172.0,52371.0,8257.0,145956.0,60537.0,66181.0,283983.0,3513.0,3764.0,10960.0,252578.0,141313.0,53327.0,999903.0,2977310.0,25.0,17663.0
2020-10-25T00:00:00.000,4018323,17910.0,518952.0,12886.0,92985.0,1326648.0,26021.0,64130.0,49177.0,20879.0,20665.0,34902.0,81156.0,26452.0,96055.0,141543.0,4143.0,42511.0,5502.0,75184.0,14100.0,88440.0,63838.0,61098.0,14126.0,29306.0,52758.0,8108.0,146969.0,61125.0,67279.0,285712.0,3466.0,3761.0,10943.0,253975.0,141822.0,53796.0,1005476.0,2997975.0,25.0,14872.0
2020-10-26T00:00:00.000,4048373,17943.0,525506.0,12932.0,94185.0,1334106.0,26075.0,64504.0,49951.0,20714.0,20956.0,35291.0,81384.0,26764.0,96593.0,142307.0,4232.0,42530.0,5575.0,75774.0,14353.0,89382.0,64004.0,61362.0,14306.0,29765.0,53306.0,8395.0,148391.0,61603.0,68114.0,287426.0,3513.0,3784.0,11463.0,255421.0,142192.0,54271.0,1010913.0,3019556.0,25.0,17904.0
2020-10-27T00:00:00.000,4074671,18046.0,527622.0,13154.0,94955.0,1343034.0,26081.0,65566.0,50786.0,20941.0,21118.0,35771.0,81942.0,26777.0,96929.0,143127.0,4244.0,42584.0,5656.0,76625.0,14430.0,89883.0,64381.0,61790.0,14340.0,30248.0,53703.0,8460.0,149989.0,61808.0,68636.0,289377.0,3571.0,3785.0,11463.0,256764.0,142556.0,54529.0,1016846.0,3039756.0,25.0,18069.0
2020-10-28T00:00:00.000,4104706,18256.0,533929.0,13170.0,95429.0,1350192.0,26210.0,66074.0,51787.0,20964.0,21351.0,36024.0,82810.0,26801.0,97619.0,144111.0,4246.0,42940.0,5683.0,76999.0,15071.0,90199.0,64786.0,62171.0,14359.0,30708.0,53941.0,8498.0,151865.0,61889.0,69538.0,291301.0,3571.0,3785.0,11539.0,258417.0,143462.0,55011.0,1023105.0,3063346.0,24.9,18255.0
2020-10-29T00:00:00.000,4132037,18450.0,535963.0,13172.0,96572.0,1357914.0,26324.0,66997.0,52424.0,21180.0,21420.0,36150.0,84146.0,26945.0,98279.0,145214.0,4282.0,43550.0,5697.0,77842.0,15165.0,90758.0,65034.0,62473.0,14399.0,31296.0,54416.0,8513.0,153004.0,62248.0,70068.0,292667.0,3571.0,3857.0,11539.0,259952.0,145026.0,55530.0,1028655.0,3084936.0,24.9,18446.0
2020-10-30T00:00:00.000,4170138,18451.0,540569.0,13387.0,97610.0,1371275.0,26482.0,68071.0,53436.0,21321.0,21791.0,36304.0,84757.0,26982.0,98555.0,146603.0,4282.0,43705.0,5755.0,78983.0,15181.0,91525.0,65482.0,62867.0,14446.0,31779.0,54934.0,8566.0,154230.0,62476.0,70865.0,295040.0,3573.0,3857.0,11539.0,262908.0,146529.0,56022.0,1035614.0,3115792.0,24.8,18732.0
2020-10-31T00:00:00.000,4202704,18471.0,546126.0,13593.0,98391.0,1381354.0,26545.0,68456.0,54235.0,21542.0,21894.0,36626.0,85661.0,27049.0,99214.0,147362.0,4370.0,44325.0,5818.0,79297.0,15267.0,92098.0,65670.0,63251.0,14502.0,32304.0,55391.0,8611.0,155484.0,62642.0,71571.0,296893.0,3573.0,3857.0,11539.0,265676.0,147527.0,56519.0,1041644.0,3142136.0,24.8,18924.0
2020-11-01T00:00:00.000,4240181,18484.0,551345.0,13606.0,100187.0,1391266.0,26709.0,68971.0,55083.0,21670.0,21970.0,37094.0,86382.0,27078.0,100678.0,148418.0,4370.0,44567.0,5823.0,80047.0,15499.0,93049.0,66039.0,63711.0,14511.0,32620.0,55850.0,8611.0,157121.0,63035.0,72284.0,300063.0,3573.0,3858.0,12039.0,268054.0,149264.0,57252.0,1048669.0,3172494.0,24.7,19018.0
2020-11-02T00:00:00.000,4265875,18588.0,554521.0,13617.0,101050.0,1400383.0,26800.0,69354.0,55800.0,21847.0,22133.0,37114.0,86615.0,27086.0,100817.0,148795.0,4370.0,44691.0,5865.0,81223.0,15589.0,93675.0,66351.0,63941.0,14555.0,33252.0,56218.0,8716.0,158469.0,63504.0,73333.0,301340.0,3573.0,3858.0,12039.0,269083.0,150083.0,57627.0,1054409.0,3192356.0,24.7,19110.0
2020-11-03T00:00:00.000,4291983,18678.0,559325.0,13618.0,101667.0,1407589.0,26900.0,70200.0,56442.0,22001.0,22361.0,37443.0,86792.0,27118.0,101458.0,149548.0,4387.0,44920.0,5919.0,81805.0,15720.0,94331.0,66398.0,64421.0,14574.0,33663.0,56411.0,8839.0,159666.0,63873.0,73851.0,302936.0,3575.0,3925.0,12039.0,270538.0,150424.0,58628.0,1060137.0,3212554.0,24.7,19292.0
2020-11-04T00:00:00.000,4325544,18679.0,563587.0,13641.0,103666.0,1415391.0,26940.0,71017.0,57368.0,22061.0,22437.0,37820.0,88757.0,27136.0,103110.0,150641.0,4387.0,45249.0,5956.0,82341.0,15900.0,94855.0,66515.0,64788.0,14578.0,34265.0,56894.0,8877.0,161101.0,64068.0,74421.0,304679.0,3575.0,3947.0,12039.0,273338.0,152459.0,59061.0,1066757.0,3239186.0,24.7,19601.0
2020-11-05T00:00:00.000,4350790,18682.0,567050.0,13650.0,103953.0,1422858.0,27028.0,71644.0,58588.0,22064.0,22493.0,37974.0,89277.0,27202.0,103349.0,151726.0,4387.0,45390.0,5959.0,82742.0,15999.0,95166.0,66751.0,65398.0,14602.0,34598.0,57300.0,8926.0,162636.0,64117.0,75217.0,306974.0,3575.0,3947.0,12039.0,275241.0,152861.0,59427.0,1072348.0,3258761.0,24.6,19681.0
2020-11-06T00:00:00.000,4386646,18736.0,572231.0,13660.0,104356.0,1433074.0,27134.0,72324.0,59441.0,22354.0,22634.0,38150.0,89975.0,27343.0,105003.0,152718.0,4387.0,45538.0,5960.0,83661.0,16216.0,96005.0,67322.0,65922.0,14652.0,35145.0,57841.0,9006.0,164768.0,65784.0,76105.0,309534.0,3575.0,3947.0,12039.0,276805.0,153486.0,59815.0,1080428.0,3286329.0,24.6,19889.0
2020-11-07T00:00:00.000,4414177,18740.0,574839.0,14120.0,104977.0,1440222.0,27188.0,72996.0,60024.0,22479.0,22824.0,38427.0,91050.0,27432.0,105807.0,153977.0,4387.0,45780.0,5961.0,84436.0,16228.0,96452.0,67694.0,66316.0,14672.0,35414.0,58314.0,9007.0,166405.0,66346.0,76808.0,311904.0,3575.0,3947.0,12039.0,278726.0,154283.0,60381.0,1086028.0,3308133.0,24.6,20016.0
2020-11-08T00:00:00.000,4439517,18971.0,578537.0,14125.0,105819.0,1447000.0,27256.0,73741.0,61127.0,22611.0,22979.0,38691.0,91732.0,27444.0,106676.0,154720.0,4387.0,46035.0,5999.0,84944.0,16236.0,97149.0,67923.0,66656.0,14714.0,35650.0,58888.0,9034.0,167310.0,66548.0,77547.0,313612.0,3575.0,3948.0,12039.0,280484.0,154798.0,60612.0,1091144.0,3328262.0,24.6,20111.0
2020-11-09T00:00:00.000,4475832,19008.0,585064.0,14153.0,106822.0,1459709.0,27420.0,74293.0,61836.0,23032.0,23128.0,38971.0,92039.0,27483.0,107014.0,156088.0,4387.0,46188.0,6023.0,85667.0,16458.0,97933.0,68167.0,66857.0,14754.0,36048.0,59287.0,9038.0,169269.0,67285.0,78323.0,316085.0,3575.0,3948.0,12039.0,281992.0,155289.0,61160.0,1098358.0,3356953.0,24.5,20521.0
2020-11-10T00:00:00.000,4503539,19009.0,588942.0,14247.0,108052.0,1465917.0,27460.0,74944.0,62857.0,23145.0,23238.0,39334.0,92480.0,27545.0,107615.0,157144.0,4388.0,46343.0,6024.0,86376.0,16598.0,98434.0,68290.0,67216.0,14759.0,36327.0,59771.0,9039.0,170025.0,67883.0,78757.0,318468.0,3575.0,3948.0,12039.0,284261.0,157136.0,61953.0,1103726.0,3379170.0,24.5,20643.0
2020-11-11T00:00:00.000,4533728,19013.0,593033.0,14256.0,109372.0,1473842.0,27513.0,75372.0,63575.0,23233.0,23307.0,39430.0,93476.0,27559.0,108788.0,158111.0,4388.0,46665.0,6061.0,87079.0,16736.0,98893.0,68526.0,67605.0,14768.0,36636.0,60157.0,9048.0,171702.0,68214.0,79470.0,321058.0,3575.0,4030.0,12039.0,286325.0,158224.0,62649.0,1109607.0,3403385.0,24.5,20736.0
2020-11-12T00:00:00.000,4564500,19111.0,596781.0,14656.0,109959.0,1482857.0,27538.0,76356.0,64610.0,23336.0,23439.0,39701.0,93842.0,27578.0,109452.0,158988.0,4388.0,46812.0,6061.0,87662.0,17400.0,99405.0,68852.0,68219.0,14815.0,36882.0,60455.0,9049.0,173035.0,68578.0,80642.0,323635.0,3575.0,4039.0,12039.0,287668.0,159296.0,63789.0,1115961.0,3427694.0,24.4,20845.0
2020-11-13T00:00:00.000,4592200,19134.0,599472.0,14671.0,111033.0,1491023.0,27688.0,76828.0,65449.0,23583.0,23566.0,39911.0,94239.0,27646.0,109943.0,160064.0,4388.0,47048.0,6061.0,88340.0,17609.0,100127.0,69191.0,68565.0,14822.0,37063.0,60896.0,9050.0,174585.0,68958.0,81594.0,326123.0,3576.0,4039.0,12039.0,289108.0,160343.0,64425.0,1121212.0,3450011.0,24.4,20977.0
2020-11-14T00:00:00.000,4630457,19304.0,606602.0,14804.0,112017.0,1498782.0,27828.0,77246.0,66969.0,23622.0,23777.0,40146.0,94575.0,28144.0,111474.0,161423.0,4425.0,47277.0,6178.0,88812.0,17816.0,101276.0,69412.0,69218.0,14935.0,38495.0,61602.0,9070.0,176165.0,69462.0,82407.0,328895.0,3613.0,4353.0,12039.0,291809.0,161178.0,65307.0,1128890.0,3480005.0,24.4,21562.0
2020-11-15T00:00:00.000,4651038,19320.0,607938.0,14814.0,112913.0,1504068.0,27875.0,78099.0,67694.0,23939.0,24008.0,40373.0,94873.0,28216.0,111980.0,162357.0,4425.0,47420.0,6181.0,89493.0,17879.0,101648.0,69814.0,69544.0,14974.0,38718.0,62069.0,9168.0,177605.0,69672.0,83134.0,330074.0,3613.0,4365.0,12039.0,293050.0,161976.0,65710.0,1132917.0,3496484.0,24.4,21637.0
2020-11-16T00:00:00.000,4678789,19320.0,610979.0,14818.0,113501.0,1515333.0,27882.0,78660.0,68387.0,24159.0,24145.0,40761.0,94999.0,28242.0,112378.0,163922.0,4425.0,47511.0,6181.0,89726.0,17879.0,102631.0,69987.0,69556.0,15039.0,39077.0,62420.0,9199.0,179071.0,69815.0,84117.0,331689.0,3613.0,4366.0,12039.0,294654.0,162278.0,66030.0,1139018.0,3518042.0,24.3,21729.0
2020-11-17T00:00:00.000,4707099,19841.0,613858.0,14827.0,113862.0,1524931.0,27894.0,79146.0,68983.0,24294.0,24262.0,41112.0,95039.0,28326.0,113035.0,165220.0,4425.0,47630.0,6190.0,90636.0,18156.0,103264.0,70179.0,69691.0,15121.0,39641.0,62635.0,9262.0,180773.0,70049.0,84888.0,334634.0,3613.0,4406.0,12047.0,295937.0,162504.0,66788.0,1143869.0,3537402.0,24.3,25828.0
2020-11-18T00:00:00.000,4734312,19829.0,617835.0,14824.0,114995.0,1529975.0,27962.0,79532.0,70170.0,24435.0,24299.0,41304.0,96195.0,28324.0,114194.0,165485.0,4465.0,47944.0,6231.0,91024.0,18568.0,103548.0,70260.0,70339.0,15160.0,40036.0,62987.0,9341.0,182094.0,70438.0,85811.0,336277.0,3613.0,4371.0,12039.0,298714.0,163981.0,67713.0,1150470.0,3561850.0,24.3,21992.0
2020-11-19T00:00:00.000,4759759,19876.0,621067.0,14824.0,115476.0,1538847.0,27968.0,80189.0,71184.0,24536.0,24353.0,41378.0,97322.0,28373.0,115261.0,166088.0,4465.0,48082.0,6234.0,91421.0,18896.0,103829.0,70543.0,70590.0,15164.0,40275.0,63292.0,9388.0,182804.0,70609.0,86406.0,337967.0,3613.0,4371.0,12039.0,300320.0,164310.0,68399.0,1155284.0,3582265.0,24.3,22210.0
2020-11-20T00:00:00.000,4790682,19919.0,625904.0,14824.0,115735.0,1548385.0,28085.0,81183.0,72486.0,24618.0,24517.0,41511.0,98229.0,28540.0,116057.0,167137.0,4465.0,48873.0,6236.0,92223.0,19034.0,104301.0,70774.0,71131.0,15188.0,40552.0,63847.0,9388.0,184002.0,70923.0,87202.0,339721.0,3613.0,4371.0,12037.0,301752.0,165204.0,68715.0,1161701.0,3606710.0,24.2,22271.0
2020-11-21T00:00:00.000,4817175,19978.0,627771.0,14830.0,117256.0,1555144.0,28245.0,81503.0,72837.0,24711.0,24652.0,41723.0,98369.0,28567.0,117598.0,168292.0,4465.0,49026.0,6237.0,92519.0,19194.0,104839.0,71140.0,71518.0,15305.0,40767.0,64299.0,9388.0,185700.0,71446.0,87975.0,341702.0,3613.0,4371.0,12037.0,304244.0,166167.0,69747.0,1166425.0,3628381.0,24.2,22369.0
2020-11-22T00:00:00.000,4844144,19978.0,631480.0,14899.0,118064.0,1562486.0,28289.0,82117.0,73283.0,24855.0,24816.0,41975.0,98832.0,28612.0,117864.0,169983.0,4465.0,49150.0,6254.0,93141.0,19387.0,105561.0,71450.0,71995.0,15308.0,41119.0,64813.0,9388.0,187091.0,71593.0,88728.0,343386.0,3613.0,4404.0,12037.0,306107.0,167342.0,70279.0,1171642.0,3649987.0,24.2,22515.0
2020-11-23T00:00:00.000,4869410,19978.0,636270.0,14905.0,118458.0,1570587.0,28293.0,82493.0,74272.0,24935.0,24964.0,42349.0,99046.0,28678.0,118231.0,171169.0,4465.0,49164.0,6257.0,93728.0,19450.0,106157.0,71599.0,72065.0,15369.0,41375.0,65159.0,9393.0,188562.0,71712.0,89399.0,345537.0,3613.0,4404.0,12037.0,306938.0,167739.0,70660.0,1176943.0,3669892.0,24.2,22575.0
2020-11-24T00:00:00.000,4903761,19978.0,638184.0,15380.0,120076.0,1577864.0,28452.0,82969.0,75616.0,25031.0,25040.0,42667.0,99604.0,28683.0,120212.0,172561.0,4465.0,50047.0,6261.0,94175.0,19949.0,107336.0,71724.0,72609.0,15432.0,41697.0,65727.0,9407.0,189824.0,72367.0,90015.0,348312.0,3613.0,4404.0,12037.0,309761.0,169944.0,72338.0,1183196.0,3697865.0,24.1,22700.0
2020-11-25T00:00:00.000,4930933,19982.0,640127.0,15390.0,120628.0,1587477.0,28474.0,83679.0,76601.0,25042.0,25120.0,42855.0,100579.0,28688.0,121350.0,173275.0,4465.0,50636.0,6288.0,94594.0,20022.0,108026.0,71963.0,73184.0,15447.0,41938.0,65983.0,9420.0,190871.0,72536.0,90615.0,350558.0,3613.0,4405.0,12037.0,311399.0,170892.0,72774.0,1189215.0,3718801.0,24.1,22917.0
2020-11-26T00:00:00.000,4962600,20015.0,643993.0,15392.0,121535.0,1597626.0,28642.0,83960.0,77230.0,25244.0,25220.0,43044.0,100886.0,28703.0,121800.0,174273.0,4465.0,50766.0,6290.0,95094.0,20469.0,108530.0,72214.0,73626.0,15489.0,42189.0,66509.0,9420.0,193315.0,72873.0,91539.0,352951.0,3613.0,4405.0,12037.0,313374.0,172330.0,73539.0,1195376.0,3744169.0,24.1,23055.0
2020-11-27T00:00:00.000,4994892,20035.0,647735.0,15407.0,121945.0,1609026.0,28806.0,84918.0,78178.0,25362.0,25393.0,43273.0,101243.0,28897.0,122432.0,175667.0,4513.0,51022.0,6367.0,95474.0,20520.0,109117.0,72505.0,74101.0,15621.0,42839.0,67050.0,9430.0,194489.0,72992.0,92593.0,355701.0,3620.0,4427.0,12008.0,314424.0,173326.0,74436.0,1202330.0,3769213.0,24.1,23349.0
2020-11-28T00:00:00.000,5030237,20035.0,650715.0,15414.0,122958.0,1621287.0,29032.0,85552.0,79322.0,25382.0,25759.0,43549.0,101941.0,28908.0,123600.0,177042.0,4513.0,51287.0,6382.0,96340.0,20701.0,109933.0,72858.0,74785.0,15672.0,43172.0,67615.0,9458.0,195968.0,73287.0,93386.0,357786.0,3620.0,4427.0,12008.0,316763.0,174783.0,74997.0,1209490.0,3797194.0,24.0,23553.0
2020-11-29T00:00:00.000,5058899,20344.0,656035.0,15433.0,123506.0,1629128.0,29143.0,85881.0,80716.0,25508.0,25843.0,43736.0,102358.0,29054.0,123740.0,178099.0,4545.0,51435.0,6406.0,96844.0,20825.0,110351.0,73382.0,75253.0,15696.0,43605.0,68101.0,9462.0,196956.0,73414.0,94246.0,360532.0,3620.0,4505.0,12008.0,317824.0,176111.0,75254.0,1215903.0,3819280.0,24.0,23716.0
2020-11-30T00:00:00.000,5085495,20344.0,657533.0,15445.0,127525.0,1637924.0,29745.0,86438.0,81848.0,25558.0,26057.0,43764.0,102470.0,29072.0,124752.0,178933.0,4546.0,51524.0,6406.0,97410.0,22055.0,111011.0,73421.0,75447.0,15770.0,43765.0,68482.0,9469.0,198306.0,73664.0,94563.0,362926.0,3620.0,4506.0,12007.0,317824.0,176111.0,75254.0,1220871.0,3840839.0,24.0,23785.0
2020-12-01T00:00:00.000,5114915,20345.0,660771.0,15483.0,125629.0,1647270.0,29270.0,87145.0,82342.0,25703.0,26140.0,44094.0,103285.0,29184.0,125604.0,180080.0,4611.0,52053.0,6525.0,97847.0,21263.0,111464.0,73735.0,76002.0,15809.0,44028.0,68828.0,9485.0,199923.0,74068.0,95441.0,365429.0,3653.0,4520.0,12007.0,321578.0,177291.0,77010.0,1227233.0,3863738.0,24.0,23944.0
2020-12-02T00:00:00.000,5150931,20345.0,664452.0,15485.0,125851.0,1659669.0,29495.0,87648.0,83311.0,25791.0,26335.0,44284.0,104435.0,29189.0,126820.0,181481.0,4611.0,52970.0,6530.0,98517.0,21597.0,112146.0,74077.0,76540.0,15834.0,44450.0,69149.0,9495.0,202053.0,74322.0,96165.0,367963.0,3653.0,4600.0,12007.0,322935.0,179180.0,77546.0,1234614.0,3891065.0,24.0,25252.0
2020-12-03T00:00:00.000,5182997,20380.0,667854.0,15990.0,126261.0,1672022.0,29580.0,88300.0,84218.0,25899.0,26459.0,44403.0,104760.0,29204.0,127427.0,182422.0,4611.0,53267.0,6533.0,98858.0,21861.0,112726.0,74208.0,77050.0,15898.0,44846.0,69739.0,9495.0,203744.0,74899.0,96840.0,369806.0,3653.0,4600.0,12007.0,324806.0,180224.0,78147.0,1241236.0,3916350.0,23.9,25411.0
2020-12-04T00:00:00.000,5214467,20390.0,672446.0,15994.0,127289.0,1681594.0,29619.0,88868.0,85259.0,26030.0,26763.0,44865.0,105313.0,29210.0,127719.0,183801.0,4611.0,53485.0,6543.0,99516.0,22227.0,113512.0,74496.0,77590.0,15958.0,45156.0,70276.0,9500.0,204899.0,75099.0,97458.0,371797.0,3653.0,4600.0,12007.0,326803.0,181533.0,78588.0,1247749.0,3941185.0,23.9,25533.0
2020-12-05T00:00:00.000,5245812,20390.0,676514.0,16090.0,127974.0,1691600.0,29729.0,89548.0,85952.0,26067.0,26888.0,45015.0,105626.0,29408.0,128005.0,185223.0,4611.0,53901.0,6567.0,99979.0,22413.0,113933.0,74714.0,78271.0,16062.0,45455.0,70740.0,9522.0,206575.0,75684.0,98597.0,373831.0,3653.0,4665.0,12007.0,328598.0,182583.0,79422.0,1254453.0,3965709.0,23.9,25650.0
2020-12-06T00:00:00.000,5271417,20418.0,678339.0,16146.0,128876.0,1699455.0,29886.0,89973.0,87171.0,26174.0,26978.0,45287.0,106357.0,29408.0,128685.0,186595.0,4611.0,54133.0,6573.0,100410.0,22538.0,114410.0,75153.0,78794.0,16163.0,45754.0,71109.0,9536.0,207914.0,75961.0,99570.0,375389.0,3653.0,4665.0,12007.0,329747.0,183830.0,79749.0,1259715.0,3985902.0,23.9,25800.0
2020-12-07T00:00:00.000,5294762,20418.0,679789.0,16155.0,129418.0,1709254.0,30076.0,90337.0,87713.0,26265.0,27129.0,45485.0,106636.0,29465.0,129247.0,187602.0,4611.0,54498.0,6597.0,100602.0,22572.0,114914.0,75446.0,78977.0,16229.0,45967.0,71628.0,9555.0,209351.0,76191.0,100203.0,377203.0,3653.0,4667.0,12007.0,330368.0,184425.0,80109.0,1264938.0,4003928.0,23.9,25896.0
2020-12-08T00:00:00.000,5315171,20458.0,680973.0,16226.0,129976.0,1714967.0,30126.0,90809.0,88340.0,26290.0,27247.0,45698.0,106890.0,29530.0,129862.0,188314.0,4611.0,54776.0,6599.0,101032.0,22581.0,115061.0,75660.0,79514.0,16241.0,46182.0,71923.0,9555.0,210887.0,76562.0,100351.0,379434.0,3653.0,4732.0,12007.0,331593.0,185766.0,80745.0,1269355.0,4019735.0,23.9,26081.0
2020-12-09T00:00:00.000,5346073,20476.0,687823.0,16230.0,130244.0,1724972.0,30241.0,91078.0,89565.0,26320.0,27365.0,45748.0,106984.0,29691.0,130312.0,189277.0,4736.0,55342.0,6625.0,101323.0,22745.0,115532.0,75716.0,79851.0,16255.0,46502.0,72211.0,9570.0,212385.0,76758.0,101153.0,380914.0,3653.0,4819.0,12007.0,333831.0,186521.0,81298.0,1275939.0,4043909.0,23.9,26225.0
2020-12-10T00:00:00.000,5382929,20476.0,691476.0,16274.0,132442.0,1735974.0,30349.0,91451.0,90616.0,26324.0,27426.0,45984.0,108210.0,29736.0,132334.0,189906.0,4736.0,55609.0,6704.0,101905.0,22992.0,116515.0,76073.0,80174.0,16260.0,46887.0,72640.0,9576.0,213698.0,77348.0,101721.0,383134.0,3653.0,4819.0,12007.0,336613.0,188664.0,82233.0,1282703.0,4073852.0,23.9,26374.0
2020-12-11T00:00:00.000,5415370,20479.0,695113.0,16532.0,132898.0,1746271.0,30495.0,92007.0,91731.0,26351.0,27538.0,46136.0,109978.0,29795.0,132821.0,190629.0,4736.0,56830.0,6747.0,102336.0,23270.0,116811.0,76385.0,80802.0,16296.0,47153.0,73074.0,9576.0,215085.0,77653.0,102677.0,384945.0,3653.0,4820.0,12007.0,338831.0,190122.0,82787.0,1290266.0,4098508.0,23.8,26596.0
2020-12-12T00:00:00.000,5446911,20528.0,699420.0,16575.0,133819.0,1757912.0,30618.0,92486.0,91975.0,26370.0,27682.0,46277.0,110437.0,29818.0,133392.0,191805.0,4763.0,56929.0,6755.0,102875.0,23546.0,117981.0,76847.0,81482.0,16339.0,47437.0,73494.0,9577.0,216489.0,78015.0,103567.0,386616.0,3653.0,4865.0,12007.0,340001.0,191455.0,83104.0,1297420.0,4122782.0,23.8,26709.0
2020-12-13T00:00:00.000,5477557,20566.0,703129.0,16589.0,134428.0,1768362.0,30852.0,92836.0,92558.0,26590.0,27810.0,46475.0,110774.0,29834.0,134053.0,192960.0,4763.0,57002.0,6764.0,103507.0,23681.0,118573.0,77190.0,81925.0,16397.0,47887.0,73971.0,9604.0,217905.0,78324.0,104536.0,388541.0,3657.0,4865.0,12007.0,342074.0,193079.0,83489.0,1304456.0,4146238.0,23.8,26863.0
2020-12-14T00:00:00.000,5507206,20566.0,708757.0,16597.0,135168.0,1776967.0,30996.0,93070.0,93726.0,26814.0,27986.0,46543.0,111276.0,29835.0,134390.0,194171.0,4763.0,57140.0,6795.0,103805.0,23700.0,119117.0,77254.0,82048.0,16482.0,48112.0,74598.0,9607.0,218757.0,78840.0,105142.0,391379.0,3657.0,4865.0,12007.0,344240.0,193971.0,84065.0,1311480.0,4168698.0,23.8,27028.0
2020-12-15T00:00:00.000,5538570,20568.0,711977.0,16753.0,135796.0,1788286.0,31227.0,93734.0,94334.0,26935.0,28161.0,46886.0,111832.0,29952.0,134879.0,195526.0,4763.0,57448.0,6843.0,104416.0,23782.0,119691.0,77617.0,82676.0,16680.0,48463.0,74981.0,9616.0,220547.0,79106.0,105916.0,393248.0,3657.0,4865.0,12007.0,345248.0,195721.0,84433.0,1318842.0,4192553.0,23.8,27175.0
