rango,urep,urep_inf,urep_sup,blCFR,blCFR_inf,blCFR_sup,cCFR,cCFR_inf,cCFR_sup,deaths,cases,nCFR,region
(0-39),17.822226988221082,4.876443733929628,65.09048629724347,0.036798528058877636,0.0,0.08778836448142857,0.20647566069776324,0.18859481526573932,0.22559207610497456,489,253220,0.001931127083168786,BOGOTA
(40-49),18.917432460443585,6.420184307301321,55.62155276213401,0.17,0.0,0.3621456607626104,0.8984932148861078,0.8291591605407983,0.9720362900143997,615,73193,0.008402442856557321,BOGOTA
(50-59),25.112820904970555,15.195503030105616,41.43771713716195,0.62,0.3072618434693817,0.9329200498749756,2.4692015328335306,2.344679459958536,2.5984904448017043,1438,62493,0.02301057718464468,BOGOTA
(60-69),31.450281167065274,23.191466164151674,42.55928607958236,2.32,1.6183678710132896,3.0222659716579043,7.377649104906878,7.100738985555964,7.661932405215655,2486,36266,0.06854905421055534,BOGOTA
(70-79),54.95060173456633,44.63315146265633,67.37461294623579,9.31,7.416131015191079,11.209146146671447,16.94721478579584,16.37574179386248,17.53044087366613,2778,17583,0.15799351646476711,BOGOTA
(80-MAX_AGE),77.61941210497422,66.98517702515194,89.37326908500371,24.96,21.425576113474506,28.487768773873853,32.153375541456356,31.215168479456267,33.102520104352884,3059,10185,0.30034364261168384,BOGOTA
(0-MAX_AGE),47.874830380406905,46.95198634854235,48.81618067700296,1.1248478831969608,0.8507044221792546,1.410799390289343,2.349561917069808,2.2543127104192013,2.4478953867886726,10865,452940,0.023987724643440633,BOGOTA
(0-39),21.69682994339615,5.921002580080582,79.45078531268874,0.036798528058877636,0.0,0.08778836448142857,0.16960373707755566,0.14836189034723532,0.1930292591286742,229,145805,0.0015705908576523439,ANTIOQUIA
(40-49),28.654078945726376,9.685131003086545,84.5962766665045,0.17,0.0,0.3621456607626104,0.5931893617458202,0.5187141227875139,0.6753046699388809,227,41371,0.005486935292837978,ANTIOQUIA
(50-59),34.648139281051385,20.882154799038872,57.4009520393312,0.62,0.3072618434693817,0.9329200498749756,1.7896831554167805,1.6451717575134646,1.9433063623828573,556,33699,0.01649900590521974,ANTIOQUIA
(60-69),37.90717569804756,27.866146353470437,51.45915354889726,2.32,1.6183678710132896,3.0222659716579043,6.120943987702975,5.770215862654935,6.4863416728735075,1071,19050,0.056220472440944885,ANTIOQUIA
(70-79),59.62558198188719,48.30377823418617,73.30731484013198,9.31,7.416131015191079,11.209146146671447,15.618406113717093,14.881135006992832,16.377575709695602,1433,9954,0.14396222624070726,ANTIOQUIA
(80-MAX_AGE),81.16776918007176,69.88470448989158,93.69967449408288,24.96,21.425576113474506,28.487768773873853,30.748328235161555,29.534775467012047,31.982182334248844,1704,5966,0.2856185048608783,ANTIOQUIA
(0-MAX_AGE),56.13570351376899,54.619306886459064,57.69509573820297,1.23625014699352,0.9431482230682412,1.5409170805113583,2.2022507977146546,2.077515265078713,2.3328850405293022,5220,255845,0.02040297836580742,ANTIOQUIA
(0-39),15.579309730836572,4.241572937698164,57.18393905024036,0.036798528058877636,0.0,0.08778836448142857,0.23620289299993222,0.20051593237767015,0.27639758757004307,155,70402,0.002201641998806852,VALLE
(40-49),14.749201374239046,4.986521904583235,43.533393078647094,0.17,0.0,0.3621456607626104,1.1524338709814912,1.0104868205793358,1.3085514075450888,235,21864,0.010748261983168679,VALLE
(50-59),21.35232617352313,12.862291176842627,35.39236726109438,0.62,0.3072618434693817,0.9329200498749756,2.9041551512019264,2.660537226709805,3.163561736840226,509,18863,0.02698404283517998,VALLE
(60-69),24.583002648824774,18.069547260822887,33.375068937536604,2.32,1.6183678710132896,3.0222659716579043,9.438320815091021,8.891877822858621,10.006858703577448,1014,11592,0.08747412008281573,VALLE
(70-79),43.90549268224824,35.564350435769434,53.98749207054174,9.31,7.416131015191079,11.209146146671447,21.209094783908117,20.194158059946744,22.25135355751323,1307,6632,0.1970747889022919,VALLE
(80-MAX_AGE),68.27835384660577,58.75701238791539,78.86637175637759,24.96,21.425576113474506,28.487768773873853,36.54762427744872,35.02899071451521,38.086575027311255,1416,4183,0.3385130289266077,VALLE
(0-MAX_AGE),41.493175027211,40.31797679768796,42.703811871215294,1.4344801931867517,1.106239514416512,1.7740542549594513,3.457153696080063,3.2512577880668383,3.6732365318044686,4636,133536,0.034717229810687755,VALLE
(0-39),12.260882196291096,3.3228825250205047,45.21061041340456,0.036798528058877636,0.0,0.08778836448142857,0.30013133675824344,0.24288997896274425,0.36677245729640484,95,33866,0.002805173330183665,SANTANDER
(40-49),14.211289988253991,4.7778812572192795,42.1832852945846,0.17,0.0,0.3621456607626104,1.1960457741115678,0.9949902531194075,1.4254001651055281,123,10979,0.011203206120776027,SANTANDER
(50-59),15.274485155782031,9.171582342604456,25.40050685788907,0.62,0.3072618434693817,0.9329200498749756,4.0596150450168516,3.648799843205107,4.5024820494958595,343,9018,0.038035041029053,SANTANDER
(60-69),20.77051641435972,15.212616090261882,28.30256554853253,2.32,1.6183678710132896,3.0222659716579043,11.170223934353519,10.339104241898285,12.043859089557252,599,5749,0.10419203339711254,SANTANDER
(70-79),43.33536094813885,34.9311039138504,53.56287918509566,9.31,7.416131015191079,11.209146146671447,21.48686568664484,20.06486187425312,22.961915511347854,678,3389,0.20005901445854235,SANTANDER
(80-MAX_AGE),76.67324510874465,65.56185588750296,89.19514145022515,24.96,21.425576113474506,28.487768773873853,32.54482379718894,30.554983439410766,34.58289106054458,692,2277,0.3039086517347387,SANTANDER
(0-MAX_AGE),37.8502379450351,36.413969067545146,39.34508813671197,1.2489546776693075,0.9551855322265101,1.5544418740324666,3.299737063768271,3.0230864920324874,3.5960581032587187,2530,65278,0.038757314868715344,SANTANDER
(0-39),14.870986112936436,4.024018461806897,54.92040362200923,0.036798528058877636,0.0,0.08778836448142857,0.24745431837320167,0.1974258041076941,0.3062750064784514,84,36298,0.0023141770896468127,CUNDINAMARCA
(40-49),16.66555574070988,5.589421226511999,49.589755180920235,0.17,0.0,0.3621456607626104,1.019854739861907,0.8323133423169187,1.2366811340810968,102,10680,0.009550561797752809,CUNDINAMARCA
(50-59),21.064621392697877,12.5879942582901,35.198468749715296,0.62,0.3072618434693817,0.9329200498749756,2.943704530297643,2.583918940246449,3.3383619801828246,235,8547,0.027495027495027496,CUNDINAMARCA
(60-69),23.080509287999025,16.853958250121966,31.546598528833453,2.32,1.6183678710132896,3.0222659716579043,10.053971611069592,9.191840557576835,10.968144937624015,454,4866,0.09330045211672831,CUNDINAMARCA
(70-79),46.54456762749446,37.37520339179214,57.76197204886362,9.31,7.416131015191079,11.209146146671447,20.010039243853107,18.457224454010408,21.633456029598108,500,2688,0.18601190476190477,CUNDINAMARCA
(80-MAX_AGE),79.19517769476685,67.41252217085045,92.59780871061618,24.96,21.425576113474506,28.487768773873853,31.507115811420434,29.230535037982346,33.85203884933977,502,1724,0.29118329466357307,CUNDINAMARCA
(0-MAX_AGE),41.87618416699322,40.03638983633445,43.80299672752368,1.174701065301385,0.894589146541785,1.4666576248028593,2.805189063472064,2.5372642038596,3.0942900702288787,1877,64803,0.028964708423992715,CUNDINAMARCA
(0-39),8.147609579487787,2.214262179327038,29.95982051857699,0.036798528058877636,0.0,0.08778836448142857,0.45165064886879597,0.3757957251944908,0.5382658110649419,124,29242,0.004240476027631489,BARRANQUILLA
(40-49),10.02952559549934,3.377418208472101,29.722028373338492,0.17,0.0,0.3621456607626104,1.6948007788403878,1.4293486802987725,1.9945642879655279,142,8909,0.015938938152430127,BARRANQUILLA
(50-59),14.798949036015212,8.872708922804948,24.647150246614352,0.62,0.3072618434693817,0.9329200498749756,4.19015241461173,3.7363252242274094,4.6819985961010335,298,7573,0.039350323517760466,BARRANQUILLA
(60-69),21.993187996708574,16.074595056554358,30.032520272395548,2.32,1.6183678710132896,3.0222659716579043,10.55099369539933,9.680809889283724,11.471225497470105,489,4936,0.09906807131280389,BARRANQUILLA
(70-79),45.78713968957871,36.74835515012681,56.85290521439554,9.31,7.416131015191079,11.209146146671447,20.336451324766518,18.72906138364575,22.0177962084804,480,2511,0.1911589008363202,BARRANQUILLA
(80-MAX_AGE),66.68750177571953,56.91538643202594,77.75147923683565,24.96,21.425576113474506,28.487768773873853,37.42920039980011,34.9457640620677,39.96309714123933,549,1554,0.3532818532818533,BARRANQUILLA
(0-MAX_AGE),36.128895855280895,34.624691989141496,37.70081640698625,1.2518158260362933,0.9601251804317477,1.555186570698365,3.4648855988848943,3.1446036641145554,3.8083173117550384,2082,54725,0.03804476930105071,BARRANQUILLA
(0-39),13.698419335953835,3.680910233172226,50.946095402410954,0.036798528058877636,0.0,0.08778836448142857,0.2686365665327946,0.202435988765273,0.34952569416421,55,22643,0.0024290067570551604,TOLIMA
(40-49),22.43987704176963,7.403723806164073,67.88608377821734,0.17,0.0,0.3621456607626104,0.757486678507414,0.5570883156664145,1.0060372986123278,47,6848,0.006863317757009346,TOLIMA
(50-59),22.064902852418353,13.064460103103565,37.21611614239523,0.62,0.3072618434693817,0.9329200498749756,2.8105142370176788,2.375258151786995,3.3005753463444365,144,5651,0.025482215537073083,TOLIMA
(60-69),25.709111488398413,18.657127577114665,35.36369399571624,2.32,1.6183678710132896,3.0222659716579043,9.02661362908331,8.073691652044426,10.052317720976333,300,3687,0.08136696501220504,TOLIMA
(70-79),50.871255627691006,40.62189782049664,63.506226300541904,9.31,7.416131015191079,11.209146146671447,18.31091485211483,16.626449800644526,20.09017320747827,361,2169,0.16643614568925771,TOLIMA
(80-MAX_AGE),75.10271357758359,63.79161191756757,88.03123907946069,24.96,21.425576113474506,28.487768773873853,33.227295758423644,30.659907748279736,35.87128924891265,429,1409,0.3044712562100781,TOLIMA
(0-MAX_AGE),45.74296408913451,43.38419438943832,48.23439825541092,1.471422724654701,1.1371629448935596,1.8169503820610136,3.216681080488187,2.8614126000625433,3.60643266794116,1336,42407,0.03150423279175608,TOLIMA
(0-39),16.66222330698609,4.4662367586808625,62.123036000986474,0.036798528058877636,0.0,0.08778836448142857,0.22085301882277478,0.16343157474193637,0.2918755357453118,49,23963,0.0020448190961064976,CARTAGENA
(40-49),16.997167138810198,5.657213188648617,50.96882930093105,0.17,0.0,0.3621456607626104,1.0000484426340395,0.7742578437107103,1.2705722262145613,66,7122,0.009267059814658803,CARTAGENA
(50-59),28.83997060309586,16.93964203659551,49.03837473816869,0.62,0.3072618434693817,0.9329200498749756,2.150090655050614,1.7670144570624187,2.590082196852972,108,5420,0.01992619926199262,CARTAGENA
(60-69),40.0700883722955,28.72290459484071,55.814035368354475,2.32,1.6183678710132896,3.0222659716579043,5.790379943838621,4.999408540623229,6.664813337340347,182,3399,0.05354516034127685,CARTAGENA
(70-79),72.7613849565069,56.94437160695036,92.77814298302181,9.31,7.416131015191079,11.209146146671447,12.797587823594517,11.104422459038798,14.646043402528463,182,1528,0.11910994764397906,CARTAGENA
(80-MAX_AGE),88.63921592063588,74.06186831590131,100.0,24.96,21.425576113474506,28.487768773873853,28.161990931514318,25.112567098348205,31.368565982908315,232,884,0.26244343891402716,CARTAGENA
(0-MAX_AGE),56.77922801334713,53.042511364331865,60.78431967592692,1.03047372399963,0.7792441216812345,1.293775628934097,1.8148770435864798,1.5456843046360056,2.1178264306844077,819,42318,0.019353466609953213,CARTAGENA
(0-39),6.376273389431394,1.730736965387497,23.475399720181166,0.036798528058877636,0.0,0.08778836448142857,0.5771141592004622,0.4741032720505962,0.6957566035899587,109,20673,0.005272577758428869,NORTE SANTANDER
(40-49),6.040531706254085,2.037620581171849,17.869945616276784,0.17,0.0,0.3621456607626104,2.814012564666848,2.410489453633128,3.26419253888508,169,6593,0.025633247383588655,NORTE SANTANDER
(50-59),9.076557814582191,5.44971156504123,15.094840727427655,0.62,0.3072618434693817,0.9329200498749756,6.831329005617445,6.136833514547692,7.578367648021311,331,5341,0.06197341321849841,NORTE SANTANDER
(60-69),13.878449900273216,10.160194612421261,18.920463124593308,2.32,1.6183678710132896,3.0222659716579043,16.718727560728215,15.439934268580982,18.058771550625387,534,3504,0.1523972602739726,NORTE SANTANDER
(70-79),30.68979133128816,24.695098127806514,38.006473108615154,9.31,7.416131015191079,11.209146146671447,30.335847862713283,28.146674722438043,32.59374043193189,511,1847,0.2766648619382783,NORTE SANTANDER
(80-MAX_AGE),59.921350588111096,50.94589844710513,70.17974531902705,24.96,21.425576113474506,28.487768773873853,41.63258985999293,38.469342301309844,44.84806978667697,394,1035,0.38067632850241545,NORTE SANTANDER
(0-MAX_AGE),23.865471892896156,22.86692968879761,24.909612345384975,1.039681913523459,0.7857034096115845,1.3057690726433626,4.356422121718195,3.949195387538549,4.7923961932655725,2048,38993,0.052522247582899494,NORTE SANTANDER
(0-39),7.269211272365431,1.9708236524897857,26.794077040570645,0.036798528058877636,0.0,0.08778836448142857,0.5062315693011956,0.41116866739596863,0.6165923609505963,98,20217,0.00484740564871148,ATLANTICO
(40-49),7.344565379454301,2.471746408471697,21.778874547149307,0.17,0.0,0.3621456607626104,2.3143220332479224,1.9412386154809744,2.736833139203032,133,5983,0.022229650676917935,ATLANTICO
(50-59),11.562162709934162,6.920529252584698,19.28913722955141,0.62,0.3072618434693817,0.9329200498749756,5.362574065757036,4.741696149511218,6.03851032498336,257,4992,0.05148237179487179,ATLANTICO
(60-69),17.86999179977594,13.030731912599968,24.46080871641758,2.32,1.6183678710132896,3.0222659716579043,12.983950883932058,11.804708830897976,14.235421007125538,392,3154,0.12428662016487001,ATLANTICO
(70-79),35.39685375311314,28.389520463068063,43.98827008639152,9.31,7.416131015191079,11.209146146671447,26.303393075555004,24.162775678838315,28.53105907155733,422,1680,0.2511904761904762,ATLANTICO
(80-MAX_AGE),61.81278922260537,52.52040303628414,72.44527307975805,24.96,21.425576113474506,28.487768773873853,40.360191526101296,37.240406150912456,43.53921249828543,388,997,0.3891675025075226,ATLANTICO
(0-MAX_AGE),28.635652541441893,27.318532311601473,30.018824916856346,1.087144845446182,0.8248884869552716,1.361375410883749,3.7964694470280853,3.405300643380971,4.2186331391096985,1690,37024,0.04564606741573034,ATLANTICO
(0-39),9.227101338481672,2.49079804164169,34.15945174455173,0.036798528058877636,0.0,0.08778836448142857,0.3987982541060705,0.3115921701768822,0.5027674145908767,71,18706,0.003795573612744574,HUILA
(40-49),12.69593956562795,4.233523747042008,37.99935396388522,0.17,0.0,0.3621456607626104,1.3388851184622068,1.0490297830642232,1.6831708786756883,72,5647,0.012750132813883479,HUILA
(50-59),16.291480326205416,9.677265494511442,27.38914255896604,0.62,0.3072618434693817,0.9329200498749756,3.80586490547741,3.2560971229619082,4.418927396077132,165,4578,0.03604193971166448,HUILA
(60-69),22.314537200929575,16.18016689873343,30.721430234862968,2.32,1.6183678710132896,3.0222659716579043,10.398626512920565,9.27456044008058,11.608960649379751,282,2862,0.09853249475890985,HUILA
(70-79),45.577896672544135,36.261111989801506,57.126571462630224,9.31,7.416131015191079,11.209146146671447,20.42891956536886,18.3697140905946,22.60997269941919,293,1508,0.1942970822281167,HUILA
(80-MAX_AGE),68.61052619694138,57.952892724970496,80.95028629936746,24.96,21.425576113474506,28.487768773873853,36.363126643620284,33.11149326676329,39.71033779684956,307,904,0.3396017699115044,HUILA
(0-MAX_AGE),36.66343166268406,34.65892400832789,38.787537245861635,1.0858507635289707,0.824788391456706,1.3589424377887602,2.9617084751020215,2.5999276103777125,3.3595103087911236,1190,34205,0.03479023534570969,HUILA
(0-39),7.34353043460679,1.989225832088957,27.091881838859422,0.036798528058877636,0.0,0.08778836448142857,0.5011000113290641,0.4036406375856986,0.614888363474464,91,18769,0.004848420267462305,CESAR
(40-49),11.778165177598604,3.933536998335438,35.197665650814145,0.17,0.0,0.3621456607626104,1.4431072701168184,1.1423432044532353,1.797832236440866,78,5586,0.013963480128893663,CESAR
(50-59),16.37622735003371,9.706229827158957,27.593071954884753,0.62,0.3072618434693817,0.9329200498749756,3.7860512607248147,3.211592774251494,4.4303567343438655,149,4064,0.03666338582677165,CESAR
(60-69),23.98327576449466,17.318246719076907,33.159623508611844,2.32,1.6183678710132896,3.0222659716579043,9.672805785208602,8.518798158373592,10.926334381650516,232,2479,0.0935861234368697,CESAR
(70-79),43.50107106618062,34.62377836450612,54.49996719184171,9.31,7.416131015191079,11.209146146671447,21.409501822683445,19.27015957988824,23.67147119465369,295,1421,0.2076002814919071,CESAR
(80-MAX_AGE),75.1452747476807,63.211405793878704,89.06599670589736,24.96,21.425576113474506,28.487768773873853,33.20159851920745,29.981110718702165,36.54351612723992,272,842,0.32304038004750596,CESAR
(0-MAX_AGE),34.053362354908195,32.12506151151718,36.10033250833109,0.8132037573582567,0.6045521073392118,1.0344946276019107,2.388009991911893,2.0728901011653798,2.7369880218830547,1117,33161,0.03368414704019782,CESAR
(0-39),16.76873877425855,4.477933628256669,62.75630071862028,0.036798528058877636,0.0,0.08778836448142857,0.21944901325152846,0.15820391550572496,0.2965168108241767,42,19948,0.002105474233005815,META
(40-49),17.2184510128815,5.700727884073721,51.90823380208223,0.17,0.0,0.3621456607626104,0.9872386056270829,0.7403594005036791,1.2893662992389143,53,5606,0.00945415626114877,META
(50-59),18.326553440723124,10.79957510191576,31.06048098980701,0.62,0.3072618434693817,0.9329200498749756,3.3831160431867504,2.810449939928871,4.034853737452703,119,3690,0.03224932249322493,META
(60-69),22.775149587090183,16.40222102792375,31.576213411361557,2.32,1.6183678710132896,3.0222659716579043,10.187604737452626,8.902894310794295,11.589009588713994,206,2128,0.09680451127819549,META
(70-79),47.45863892205355,37.41448436434448,60.070090616558346,9.31,7.416131015191079,11.209146146671447,19.62099452516122,17.270193679212067,22.141742010787734,208,1114,0.1867145421903052,META
(80-MAX_AGE),78.70000171594282,65.58246627710267,94.28669513651265,24.96,21.425576113474506,28.487768773873853,31.735479983582763,28.132918682194546,35.50848503848078,202,658,0.3069908814589666,META
(0-MAX_AGE),39.11641376946995,36.56402349062383,41.85144201696307,0.9103216999484103,0.6780593756106391,1.1548913454292569,2.32721612706435,1.9910806253798512,2.703866457377061,830,33144,0.025042239922761285,META
(0-39),18.715019141169837,4.951561230574848,70.69453893984617,0.036798528058877636,0.0,0.08778836448142857,0.19662288253611024,0.133633599736558,0.2789753851513366,31,17737,0.0017477589220274003,RISARALDA
(40-49),27.86321327397815,9.009377611283734,86.02789420524502,0.17,0.0,0.3621456607626104,0.6099653477846423,0.4056889491186186,0.880371919823908,28,5165,0.005421103581800581,RISARALDA
(50-59),25.351164979374275,14.82358481507914,43.30356453891386,0.62,0.3072618434693817,0.9329200498749756,2.445747744403491,1.9808284535852996,2.984752638207133,94,4330,0.021709006928406466,RISARALDA
(60-69),31.123832211841883,22.352334578261868,43.27132466018316,2.32,1.6183678710132896,3.0222659716579043,7.45649095225938,6.468775819208003,8.542712431794076,191,2930,0.06518771331058021,RISARALDA
(70-79),57.77798745105439,45.65105645853306,72.9429983641053,9.31,7.416131015191079,11.209146146671447,16.114363245464858,14.262790717661627,18.103512978692613,235,1645,0.14285714285714285,RISARALDA
(80-MAX_AGE),88.62818290894548,74.07250142799859,100.0,24.96,21.425576113474506,28.487768773873853,28.17182560862628,25.13445765148755,31.36497169244078,234,912,0.2565789473684211,RISARALDA
(0-MAX_AGE),53.08201700112212,49.59701380366594,56.81918327404005,1.448711934670928,1.1151057420087631,1.7935078270146976,2.7291890369985348,2.3454956121192234,3.1617277249580944,813,32719,0.02484794767566246,RISARALDA
(0-39),20.05383488364169,5.2782550705035485,76.14809624984031,0.036798528058877636,0.0,0.08778836448142857,0.1835028760519613,0.12096329939334184,0.266875587051707,27,16039,0.0016833967204937963,CALDAS
(40-49),45.642392934510916,14.301611457578801,100.0,0.17,0.0,0.3621456607626104,0.3724031684273705,0.21708364479595,0.5955861066554435,17,5001,0.0033993201359728054,CALDAS
(50-59),32.29304800201865,18.732698843561263,55.60669800650133,0.62,0.3072618434693817,0.9329200498749756,1.9200863438473368,1.5181980916140372,2.394005057278037,77,4407,0.01747220331291128,CALDAS
(60-69),40.897365122682025,29.215983766721752,57.16582422325762,2.32,1.6183678710132896,3.0222659716579043,5.674307421814871,4.856394150600533,6.583905234365162,163,3175,0.05133858267716535,CALDAS
(70-79),72.9490022172949,57.37055598278551,92.53614008028057,9.31,7.416131015191079,11.209146146671447,12.76587128236056,11.190378144336478,14.475511001817887,210,1804,0.1164079822616408,CALDAS
(80-MAX_AGE),99.8266897746967,83.68104966552465,100.0,24.96,21.425576113474506,28.487768773873853,24.998999719808427,22.44596617004606,27.688490548249888,271,1178,0.2300509337860781,CALDAS
(0-MAX_AGE),66.08593576207707,61.61027958167835,70.89501957769302,1.547798452621895,1.1953972953409728,1.9111662789279769,2.3421209721640297,1.9984476966600984,2.735571257718176,765,31604,0.024205796734590557,CALDAS
(0-39),9.146808321215538,2.4635160931229647,33.93957613411792,0.036798528058877636,0.0,0.08778836448142857,0.40232161977292796,0.3085926157708811,0.5154654574669015,62,16431,0.003773355243137971,NARIÑO
(40-49),11.052946574631928,3.6847884191382714,33.089871857325704,0.17,0.0,0.3621456607626104,1.5377861895048057,1.202925569597539,1.935800673726995,71,4914,0.014448514448514449,NARIÑO
(50-59),19.479930227165024,11.489052529674305,32.986453844807826,0.62,0.3072618434693817,0.9329200498749756,3.1832292293411535,2.652412283947229,3.7863003303889253,123,4140,0.029710144927536233,NARIÑO
(60-69),23.855758347481608,17.212684992669946,33.01000242662017,2.32,1.6183678710132896,3.0222659716579043,9.727031427995078,8.546857003842524,11.010758703261182,224,2482,0.09024979854955681,NARIÑO
(70-79),42.91494273893067,34.15004397497661,53.77843137576057,9.31,7.416131015191079,11.209146146671447,21.69919936858736,19.519736096590947,24.00340038571742,291,1440,0.20208333333333334,NARIÑO
(80-MAX_AGE),69.67425958677637,58.77684473723197,82.32357916261735,24.96,21.425576113474506,28.487768773873853,35.829539882252014,32.538113755646116,39.22354230539642,293,882,0.3321995464852608,NARIÑO
(0-MAX_AGE),39.02103952006815,36.7743338387494,41.40976808655046,1.2538015959821378,0.9648998805944565,1.5546546709990625,3.21311138963031,2.805938158929692,3.6626970268195196,1064,30289,0.03512826438641091,NARIÑO
(0-39),4.5519453558140865,1.236030439637496,16.752322640307174,0.036798528058877636,0.0,0.08778836448142857,0.8083880265746622,0.6666770181858501,0.9711096125121554,113,14184,0.00796672306824591,CORDOBA
(40-49),6.0939455827129585,2.050293162322741,18.0755333214152,0.17,0.0,0.3621456607626104,2.7889983616618523,2.3336614371834963,3.305163210645423,129,4692,0.027493606138107418,CORDOBA
(50-59),10.892491182394695,6.512018261994824,18.193707657448815,0.62,0.3072618434693817,0.9329200498749756,5.692732131535086,5.00536531325083,6.443605833695609,235,4178,0.056247008137865005,CORDOBA
(60-69),17.741235074271437,12.942090267819534,24.27445043459985,2.32,1.6183678710132896,3.0222659716579043,13.077984697436701,11.908228799007327,14.318134279663909,404,3126,0.12923864363403711,CORDOBA
(70-79),37.19186122342507,29.872228955688662,46.14642602646989,9.31,7.416131015191079,11.209146146671447,25.040959507884626,23.10672968535207,27.05248842856982,476,1925,0.24727272727272728,CORDOBA
(80-MAX_AGE),61.06221351171869,52.136866419260144,71.16323306707312,24.96,21.425576113474506,28.487768773873853,40.85582630657202,38.178263168962964,43.57452944597655,535,1322,0.40468986384266264,CORDOBA
(0-MAX_AGE),27.195678572468513,26.01193450996301,28.43555360683503,1.0846168604365605,0.8253881593019528,1.3559694606009307,3.9881652811542607,3.573929289838968,4.437936249393982,1892,29427,0.06429469534780984,CORDOBA
(0-39),15.361712804215106,4.073099504010778,57.902818396009046,0.036798528058877636,0.0,0.08778836448142857,0.23954143307080514,0.16494490981233884,0.33624226498674137,33,14988,0.002201761409127302,BOYACA
(40-49),18.084985835694052,5.936137881865972,54.998404973176875,0.17,0.0,0.3621456607626104,0.9398974513576637,0.6723015097751385,1.2776955039390248,40,4653,0.008596604341285192,BOYACA
(50-59),28.885903265812317,16.708759226041863,49.883964648894455,0.62,0.3072618434693817,0.9329200498749756,2.146507698268943,1.683207304637149,2.6956221446122752,72,3660,0.019672131147540985,BOYACA
(60-69),31.00523486134692,22.15074779043011,43.339732510510636,2.32,1.6183678710132896,3.0222659716579043,7.483609885712717,6.403758747966286,8.681657212019879,160,2346,0.06820119352088662,BOYACA
(70-79),64.2271654388098,49.997162720824285,82.37752301015048,9.31,7.416131015191079,11.209146146671447,14.49968751919736,12.44221241300016,16.75471070888519,155,1167,0.1328191945158526,BOYACA
(80-MAX_AGE),83.79118078373865,69.95938584204937,100.0,24.96,21.425576113474506,28.487768773873853,29.767528721968223,26.497076457054124,33.19965398157001,221,801,0.2759051186017478,BOYACA
(0-MAX_AGE),54.5282914232736,50.629685864546545,58.7358702456814,1.4507077571297151,1.1228314934779473,1.790042472797244,2.6604776600039544,2.2481778458353188,3.128694108762471,681,27620,0.024656046343229543,BOYACA
(0-39),20.177213964073015,5.22254336948306,77.9145282687411,0.036798528058877636,0.0,0.08778836448142857,0.1823680010887904,0.1098320444260279,0.2846443672089305,19,11493,0.001653180196641434,QUINDIO
(40-49),20.415486307837583,6.5900096712507725,63.14289089574974,0.17,0.0,0.3621456607626104,0.832490546782382,0.5493127271360246,1.2089347054529909,27,3591,0.007518796992481203,QUINDIO
(50-59),29.4100277564519,16.902759615524793,51.12133411997794,0.62,0.3072618434693817,0.9329200498749756,2.108406695196118,1.6238676038222815,2.6895965528804577,63,3326,0.01894167167769092,QUINDIO
(60-69),35.887568383323895,25.47721879731254,50.48902370518291,2.32,1.6183678710132896,3.0222659716579043,6.466745562687789,5.449526090770501,7.608178112861563,135,2319,0.05821474773609314,QUINDIO
(70-79),48.10885905916773,38.08109214006137,60.62627390122359,9.31,7.416131015191079,11.209146146671447,19.362383685014027,17.201457688389073,21.669050240803024,241,1370,0.1759124087591241,QUINDIO
(80-MAX_AGE),98.75328450830212,81.76071824061107,100.0,24.96,21.425576113474506,28.487768773873853,25.270260312484083,22.167254282711426,28.572875811521005,186,820,0.22682926829268293,QUINDIO
(0-MAX_AGE),54.08788655975586,50.19951261674716,58.28716584184074,1.5822893962417135,1.2232706876726733,1.9522095151605852,2.925460871737539,2.4754537415361964,3.4427446658908365,671,22919,0.029277019067149527,QUINDIO
(0-39),13.381416743330266,3.5109185651521484,50.97373697612391,0.036798528058877636,0.0,0.08778836448142857,0.2750027275248458,0.1780438997199073,0.40569240598513634,25,9594,0.002605795288722118,CAUCA
(40-49),16.43059490084986,5.331325046211695,50.553111174192935,0.17,0.0,0.3621456607626104,1.0346449332341912,0.6991288988646858,1.4737497746321382,30,3053,0.00982640026203734,CAUCA
(50-59),27.069354787420103,15.394245294235837,47.56014199185429,0.62,0.3072618434693817,0.9329200498749756,2.291161712051905,1.7157704072902593,2.993802811083246,52,2391,0.021748222501045588,CAUCA
(60-69),28.281239852672403,20.013963132273947,39.92331351505052,2.32,1.6183678710132896,3.0222659716579043,8.203721330638716,6.858984996502289,9.71611540172187,122,1568,0.0778061224489796,CAUCA
(70-79),49.55452529731909,38.75286160012411,63.270344793786215,9.31,7.416131015191079,11.209146146671447,18.792281584053125,16.259584375440987,21.53631691461999,165,922,0.1789587852494577,CAUCA
(80-MAX_AGE),83.95750131866477,69.66008173566823,100.0,24.96,21.425576113474506,28.487768773873853,29.74253754564671,26.16356025211716,33.516178066772405,184,646,0.2848297213622291,CAUCA
(0-MAX_AGE),47.32081745280706,43.65505040554243,51.30261422470146,1.1456097377056538,0.8772058473390725,1.4260865831886844,2.420973940639506,2.0003452374890567,2.9113895534845597,578,18174,0.03180367558049962,CAUCA
(0-39),10.89109539066713,2.8747196774116315,41.23853461635634,0.036798528058877636,0.0,0.08778836448142857,0.3378690915435097,0.22638944327409236,0.48487872423866873,29,8736,0.0033195970695970695,SUCRE
(40-49),10.850517161868371,3.5710088089695633,32.91016163506123,0.17,0.0,0.3621456607626104,1.5665484533215577,1.1359780936657053,2.1043841680145503,43,2796,0.015379113018597998,SUCRE
(50-59),16.77129699952892,9.77976209463268,28.730074757585932,0.62,0.3072618434693817,0.9329200498749756,3.696578410102362,2.9672113996526006,4.54529367325609,86,2368,0.036317567567567564,SUCRE
(60-69),22.016643514945724,15.791504158385312,30.654006420076986,2.32,1.6183678710132896,3.0222659716579043,10.541176286442603,9.10860469757683,12.114076482982195,176,1704,0.10328638497652583,SUCRE
(70-79),50.459296800760214,39.687977519305775,64.0235587475769,9.31,7.416131015191079,11.209146146671447,18.45065278145281,16.160932716839334,20.91660059312549,196,1081,0.18131359851988899,SUCRE
(80-MAX_AGE),77.2741004563306,64.57103612781006,92.29008851833476,24.96,21.425576113474506,28.487768773873853,32.29759177864378,28.779794128528923,35.9710523633452,218,685,0.3182481751824818,SUCRE
(0-MAX_AGE),39.183976710982535,36.50541306219382,42.06509153209848,1.0984377536189682,0.8359410200941756,1.3730031709005481,2.8033033980457924,2.356120923530232,3.317421876099904,748,17377,0.04304540484548541,SUCRE
(0-39),10.073300293794698,2.665328133793819,38.04917074458308,0.036798528058877636,0.0,0.08778836448142857,0.36532857882999836,0.2483539302809865,0.518157333709024,31,8973,0.0034548088710576173,STA MARTA D.E.
(40-49),7.85326739328756,2.6079212709414437,23.60401636992206,0.17,0.0,0.3621456607626104,2.163947342929416,1.6512790112966997,2.782550623920288,59,2888,0.020429362880886426,STA MARTA D.E.
(50-59),15.860880479337771,9.237113397413596,27.206084953004684,0.62,0.3072618434693817,0.9329200498749756,3.9102127249426113,3.126270048636749,4.824438600577075,83,2262,0.03669319186560566,STA MARTA D.E.
(60-69),23.20316921335597,16.493102201444394,32.609207371154284,2.32,1.6183678710132896,3.0222659716579043,9.998693622914947,8.444389085917953,11.730836828363433,134,1419,0.09443269908386187,STA MARTA D.E.
(70-79),46.07305403197573,35.94517210245291,58.985583600505564,9.31,7.416131015191079,11.209146146671447,20.2209939939446,17.404640457256335,23.273168713755243,152,793,0.19167717528373265,STA MARTA D.E.
(80-MAX_AGE),81.31044892939006,66.39491479480637,99.74451764504064,24.96,21.425576113474506,28.487768773873853,30.71128654927671,26.243740751557493,35.46427941639658,124,425,0.2917647058823529,STA MARTA D.E.
(0-MAX_AGE),35.207151792977626,32.49170250751394,38.15601479762686,0.9126620495911941,0.6818829710982304,1.1557714454702959,2.5922277944926346,2.1246949713040575,3.1320217614713117,583,16760,0.03478520286396181,STA MARTA D.E.
(0-39),7.898126180215949,2.103468239590651,29.638441504237008,0.036798528058877636,0.0,0.08778836448142857,0.46589879812390506,0.3299023652839229,0.6389271863844304,38,8435,0.004505038529934795,CAQUETA
(40-49),13.846620801295023,4.478673463452094,42.74057855612836,0.17,0.0,0.3621456607626104,1.227277826207437,0.817024139668365,1.768906250163249,28,2361,0.011859381617958492,CAQUETA
(50-59),12.206734141232099,7.131130466638834,20.873496567957204,0.62,0.3072618434693817,0.9329200498749756,5.080488563312711,4.0996144541020305,6.215042017790784,89,1824,0.048793859649122806,CAQUETA
(60-69),16.642273090958764,11.881411878908606,23.28794027611365,2.32,1.6183678710132896,3.0222659716579043,13.941347960251848,11.89256884305292,16.196528110438567,145,1089,0.13314967860422405,CAQUETA
(70-79),40.37602891595541,31.50012607381521,51.709014574425915,9.31,7.416131015191079,11.209146146671447,23.062295622839663,19.834031360657285,26.544048213595218,146,661,0.22087745839636913,CAQUETA
(80-MAX_AGE),74.38067081251913,61.427973122693025,90.08283050533757,24.96,21.425576113474506,28.487768773873853,33.572233238873594,29.245724907670184,38.11362246417046,153,471,0.3248407643312102,CAQUETA
(0-MAX_AGE),29.92614494393624,27.64872962614303,32.39682537371922,0.823718445980048,0.6130417289876156,1.0469886554672794,2.7525393643577223,2.2672343972598847,3.312936905417537,599,14845,0.0403502862916807,CAQUETA
(0-39),7.24234814391208,1.9273414905068091,27.1985408611934,0.036798528058877636,0.0,0.08778836448142857,0.5080965649451282,0.35799167855755804,0.6996706035252154,37,7590,0.004874835309617918,GUAJIRA
(40-49),7.083242536500327,2.3448783574557943,21.357279673816393,0.17,0.0,0.3621456607626104,2.399976402507696,1.7974896912942198,3.1354515678923778,52,2252,0.023090586145648313,GUAJIRA
(50-59),12.837359003129983,7.482686167892676,22.001989414178773,0.62,0.3072618434693817,0.9329200498749756,4.831033038638995,3.871430527837378,5.9464756282306634,84,1817,0.04623004953219593,GUAJIRA
(60-69),21.454273623394066,15.255384606560158,30.141916550775395,2.32,1.6183678710132896,3.0222659716579043,10.813532543789183,9.13866760204937,12.676819608201829,134,1291,0.10379550735863671,GUAJIRA
(70-79),43.626129967593386,33.84127110137724,56.21498998141665,9.31,7.416131015191079,11.209146146671447,21.35163997975753,18.16001419475685,24.823953021258582,130,632,0.20569620253164558,GUAJIRA
(80-MAX_AGE),67.54147066105472,55.46853208065274,82.41489191598636,24.96,21.425576113474506,28.487768773873853,37.00018045678027,31.858343587605077,42.37027391602754,126,354,0.3559322033898305,GUAJIRA
(0-MAX_AGE),28.696251324498935,26.43893013891601,31.151032431254443,0.6447952384934906,0.4720982146324786,0.8304607320631019,2.2469476814153295,1.8164855589036368,2.748735584815922,563,13938,0.04039316975175779,GUAJIRA
(0-39),12.406010426249615,3.1641987887635503,48.61957313605343,0.036798528058877636,0.0,0.08778836448142857,0.2966407173078321,0.16611967312737277,0.48879251094577914,15,5410,0.0027726432532347504,CASANARE
(40-49),12.90840415486308,4.065539257917258,40.934282595893904,0.17,0.0,0.3621456607626104,1.316524487251549,0.7820717006058462,2.0727221890711744,18,1485,0.012121212121212121,CASANARE
(50-59),13.348273536259,7.443961802659388,23.938860721082023,0.62,0.3072618434693817,0.9329200498749756,4.645689104214426,3.3082177823418673,6.321084481158035,38,877,0.043329532497149374,CASANARE
(60-69),25.226009606315213,16.563440026748697,38.54312640167642,2.32,1.6183678710132896,3.0222659716579043,9.191865089704143,6.618050128782387,12.35121844153052,39,459,0.08496732026143791,CASANARE
(70-79),38.55432372505543,28.270885510086323,53.04243875115991,9.31,7.416131015191079,11.209146146671447,24.17142088120339,18.504358546314155,30.594628993214823,50,224,0.22321428571428573,CASANARE
(80-MAX_AGE),78.9170452948616,59.1358276101862,100.0,24.96,21.425576113474506,28.487768773873853,31.558051721903723,23.287570922499945,40.786297450382214,37,123,0.3008130081300813,CASANARE
(0-MAX_AGE),32.888140886526976,28.64954620654056,37.769764525016704,0.7143289696412143,0.5201696290985003,0.9213127668472403,2.1720732429412704,1.539207923458705,2.9639721913713446,197,8578,0.022965726276521332,CASANARE
(0-39),7.790248390064397,2.0223748755143425,29.993949863921042,0.036798528058877636,0.0,0.08778836448142857,0.47231760258773525,0.28873535974321984,0.7285181360733195,20,4405,0.004540295119182747,BOLIVAR
(40-49),6.793201133144476,2.2058252349259844,20.88898341118152,0.17,0.0,0.3621456607626104,2.503061577714837,1.6950321381528615,3.5541091339967634,30,1247,0.024057738572574178,BOLIVAR
(50-59),18.922775340383254,10.35802443669196,34.5765859933059,0.62,0.3072618434693817,0.9329200498749756,3.275296801446306,2.236036473718791,4.616985716650712,31,996,0.03112449799196787,BOLIVAR
(60-69),22.871695367450883,15.75288623019453,33.22490614484232,2.32,1.6183678710132896,3.0222659716579043,10.145631249607337,7.99462480614966,12.644270630734644,70,722,0.09695290858725762,BOLIVAR
(70-79),52.100437466291126,39.07041036769563,69.65282113806141,9.31,7.416131015191079,11.209146146671447,17.874895674896145,14.304282297697831,21.91217809458921,74,429,0.17249417249417248,BOLIVAR
(80-MAX_AGE),72.09705372616985,58.6680335210354,88.90884546773809,24.96,21.425576113474506,28.487768773873853,34.593554268637625,29.325482184555508,40.15720715612369,108,325,0.3323076923076923,BOLIVAR
(0-MAX_AGE),36.745759360792334,33.05598934067613,40.860724899525536,1.0434329212197364,0.7920212319985609,1.3069933422300062,2.8396467186786616,2.162276521649707,3.667188629209014,333,8124,0.04098966026587888,BOLIVAR
(0-39),3.6665644485331694,0.9751026298026398,13.779264685127021,0.036798528058877636,0.0,0.08778836448142857,1.0036762002105575,0.7039248196505787,1.3868273423344735,36,3731,0.009648887697668185,MAGDALENA
(40-49),5.614215812516096,1.830948229650492,17.188157547729972,0.17,0.0,0.3621456607626104,3.0279560053031487,2.093280204831113,4.226259865752713,33,1142,0.028896672504378284,MAGDALENA
(50-59),8.55026812383187,4.955421817210312,14.743368561435085,0.62,0.3072618434693817,0.9329200498749756,7.2506580409721995,5.705923870123475,9.058052510194159,71,1018,0.06974459724950884,MAGDALENA
(60-69),13.35994977362762,9.512066442055398,18.753493155231983,2.32,1.6183678710132896,3.0222659716579043,17.363309692690958,14.696087478985277,20.294598346995397,128,761,0.16819973718791065,MAGDALENA
(70-79),33.446800537147496,26.13641128679727,42.78200577581771,9.31,7.416131015191079,11.209146146671447,27.8673679782605,24.01448562609713,31.97922848446072,142,532,0.2669172932330827,MAGDALENA
(80-MAX_AGE),49.91334488734835,41.78028284487916,59.635645406226075,24.96,21.425576113474506,28.487768773873853,50.00836445422495,44.48274123695199,55.53383621114513,165,341,0.4838709677419355,MAGDALENA
(0-MAX_AGE),21.118875185680572,19.495433034397724,22.88422838250253,0.9348231895124196,0.7029159366929716,1.179088273067874,4.42641213581752,3.6014963632563037,5.38677319400821,575,7525,0.07641196013289037,MAGDALENA
(0-39),8.650282560126165,2.195605848395238,34.06751605103326,0.036798528058877636,0.0,0.08778836448142857,0.4253435465929916,0.2327284357555346,0.7126253969237828,14,3450,0.004057971014492754,PUTUMAYO
(40-49),6.894937800221703,2.2085122061436095,21.498428924804248,0.17,0.0,0.3621456607626104,2.464969837849494,1.568849500869227,3.675810408587754,23,988,0.02327935222672065,PUTUMAYO
(50-59),9.974605799326758,5.53490590061622,17.98956312151279,0.62,0.3072618434693817,0.9329200498749756,6.213597941898518,4.365795037691438,8.535969676145994,35,593,0.05902192242833052,PUTUMAYO
(60-69),14.28195070546221,9.767994183309531,20.936669073825882,2.32,1.6183678710132896,3.0222659716579043,16.26058353107407,12.58488931283599,20.507484545693224,58,376,0.15425531914893617,PUTUMAYO
(70-79),29.118391055869587,22.090332486280428,38.60390395809512,9.31,7.416131015191079,11.209146146671447,32.05245359588237,25.95892042072846,38.63412861807418,71,234,0.3034188034188034,PUTUMAYO
(80-MAX_AGE),61.73492657119402,48.6975715947786,79.48796704686674,24.96,21.425576113474506,28.487768773873853,40.43243037729552,32.25700000957805,49.01864490461716,57,149,0.3825503355704698,PUTUMAYO
(0-MAX_AGE),24.03561834938049,21.32124962028554,27.1089651127149,0.8020162356622047,0.5959642645264592,1.0208155116357551,3.336817612884442,2.4826584782245,4.381444742760667,258,5791,0.04455189086513556,PUTUMAYO
(0-39),5.341596862441292,1.3830078866384383,20.622012597042428,0.036798528058877636,0.0,0.08778836448142857,0.6889486217731167,0.4152867453042159,1.073796483663314,19,2810,0.006761565836298933,CHOCO
(40-49),6.203966005665722,1.970500904357311,19.51217921745096,0.17,0.0,0.3621456607626104,2.7399027634440056,1.681461044782544,4.199950024192756,20,743,0.026917900403768506,CHOCO
(50-59),11.33880588200555,6.162683864902969,20.890949121054263,0.62,0.3072618434693817,0.9329200498749756,5.472563394009431,3.6669145502266853,7.812524295972434,28,522,0.05363984674329502,CHOCO
(60-69),16.811352788544703,11.396958046087672,24.864228120276653,2.32,1.6183678710132896,3.0222659716579043,13.785216109394918,10.49948191765638,17.640707553843214,53,390,0.1358974358974359,CHOCO
(70-79),53.256651884700666,36.93592735878715,77.79421856387785,9.31,7.416131015191079,11.209146146671447,17.46130455312878,12.260707109078187,23.746521740415815,32,185,0.17297297297297298,CHOCO
(80-MAX_AGE),77.52498248460489,59.462857686631374,100.0,24.96,21.425576113474506,28.487768773873853,32.27513403774977,24.77214566798042,40.51633896367104,47,149,0.31543624161073824,CHOCO
(0-MAX_AGE),28.349076538679313,24.723033732082182,32.52374504771736,0.7613314751953015,0.5682743476837715,0.9671537327746261,2.685717525724134,1.866326157732962,3.7284708560021707,199,4800,0.04145833333333333,CHOCO
(0-39),11.89052437902484,2.859338318586052,49.436998138732044,0.036798528058877636,0.0,0.08778836448142857,0.3095325147949337,0.13372596335143053,0.6089867369773128,8,2681,0.0029839612085042896,ARAUCA
(40-49),8.680696074463778,2.679805975620067,28.099641397927627,0.17,0.0,0.3621456607626104,1.9585157119982242,1.0747734732279781,3.2642414759254,14,740,0.01891891891891892,ARAUCA
(50-59),12.2110217190829,6.583849434709996,22.681870718759487,0.62,0.3072618434693817,0.9329200498749756,5.081244787834086,3.345729785756272,7.356822175123401,26,533,0.04878048780487805,ARAUCA
(60-69),22.163027145171046,14.11498026784541,35.02716390604977,2.32,1.6183678710132896,3.0222659716579043,10.472635724663828,7.12664286940122,14.693380745718454,29,286,0.10139860139860139,ARAUCA
(70-79),36.16768937245398,26.238913126571582,50.45951498418244,9.31,7.416131015191079,11.209146146671447,25.798340688342453,19.342371959458816,33.13600200191967,43,173,0.24855491329479767,ARAUCA
(80-MAX_AGE),86.51646447140382,63.008771561119744,100.0,24.96,21.425576113474506,28.487768773873853,28.944108215395133,20.454674916075238,38.67493801462067,30,108,0.2777777777777778,ARAUCA
(0-MAX_AGE),30.774923453577014,26.28355473753974,36.055972880815936,0.7415644205681209,0.5443193783793965,0.9515378980642006,2.4096528995393145,1.6016118216776725,3.4811455469790715,150,4521,0.033178500331785,ARAUCA
(0-39),12.210978227537565,2.8218521118154745,52.83873312402252,0.036798528058877636,0.0,0.08778836448142857,0.3012987800185815,0.11064912140073341,0.6546387659795205,6,2016,0.002976190476190476,AMAZONAS
(40-49),6.690703064640742,2.017046006559435,22.19631947364625,0.17,0.0,0.3621456607626104,2.5393297672866084,1.2742888427511794,4.498066426551562,11,440,0.025,AMAZONAS
(50-59),8.41892708366458,4.553039110785296,15.606998769230213,0.62,0.3072618434693817,0.9329200498749756,7.364566525582915,4.866913780183716,10.604764496918307,26,356,0.07303370786516854,AMAZONAS
(60-69),21.38726901404985,13.227512372862332,34.91988151960612,2.32,1.6183678710132896,3.0222659716579043,10.855467475825394,7.007038551250777,15.84239901150446,23,214,0.10747663551401869,AMAZONAS
(70-79),30.663566059163916,22.314815621985435,42.78024632195635,9.31,7.416131015191079,11.209146146671447,30.376986107802033,22.760240767680486,38.87741578636389,41,136,0.3014705882352941,AMAZONAS
(80-MAX_AGE),63.77816291161178,47.08156539225482,90.10139613239912,24.96,21.425576113474506,28.487768773873853,39.23108402535019,27.6732002307217,51.746619239923895,27,69,0.391304347826087,AMAZONAS
(0-MAX_AGE),23.651017793296266,20.01159354026409,27.9701360198446,0.5269764523281841,0.374007670962386,0.6931036883641161,2.2282527418757314,1.4229617267296628,3.3409653343047254,134,3231,0.04147322810275456,AMAZONAS
(0-39),23.459061637534496,4.145124868947029,100.0,0.036798528058877636,0.0,0.08778836448142857,0.15691937229426384,0.019009316592457144,0.565686086019701,2,1315,0.001520912547528517,SAN ANDRES
(40-49),100.0,100.0,100.0,0.17,0.0,0.3621456607626104,0.0,0.0,0.0,0,337,0.0,SAN ANDRES
(50-59),69.03679206283589,21.603049974215434,100.0,0.62,0.3072618434693817,0.9329200498749756,0.8984621770474823,0.18566913800999826,2.6030972020105514,3,344,0.00872093023255814,SAN ANDRES
(60-69),28.887945670628184,17.389697675008264,48.414159025249134,2.32,1.6183678710132896,3.0222659716579043,8.029058721442365,4.973229718340837,12.127944612414598,20,259,0.07722007722007722,SAN ANDRES
(70-79),100.0,85.16319394636749,100.0,9.31,7.416131015191079,11.209146146671447,4.779380769774752,1.5698362383488547,10.801684858728489,5,109,0.045871559633027525,SAN ANDRES
(80-MAX_AGE),100.0,92.51899771460789,100.0,24.96,21.425576113474506,28.487768773873853,15.585576776069612,7.7354569819159895,26.800332352800215,10,66,0.15151515151515152,SAN ANDRES
(0-MAX_AGE),78.28413529584793,57.63393216588555,100.0,0.9380962887459308,0.6881654988199266,1.1996327747233164,1.198495954501657,0.5721594082035076,2.345212665889612,40,2431,0.016454134101192924,SAN ANDRES
(0-39),46.29254829806807,6.072313090250811,100.0,0.036798528058877636,0.0,0.08778836448142857,0.07948079367548984,0.0020122592265073725,0.44203493159070684,1,1286,0.0007776049766718507,GUAVIARE
(40-49),9.960339943342776,2.645973457798719,37.583220561938866,0.17,0.0,0.3621456607626104,1.70643951933541,0.5563392895446894,3.9371148554494084,5,299,0.016722408026755852,GUAVIARE
(50-59),100.0,18.72783924604636,100.0,0.62,0.3072618434693817,0.9329200498749756,0.5682755139867984,0.014386455395533657,3.125404547196542,1,179,0.00558659217877095,GUAVIARE
(60-69),17.40237691001698,9.721095733100954,32.067854857188074,2.32,1.6183678710132896,3.0222659716579043,13.400463646830495,7.120324025765219,22.238224899742896,12,92,0.13043478260869565,GUAVIARE
(70-79),39.790364845797214,23.852097375231523,70.8378371387404,9.31,7.416131015191079,11.209146146671447,23.323773860890096,12.258679920978778,37.908156519055844,11,49,0.22448979591836735,GUAVIARE
(80-MAX_AGE),79.86135181975736,50.02741089491257,100.0,24.96,21.425576113474506,28.487768773873853,31.52867648916265,16.27403750021521,50.38673118191621,10,33,0.30303030303030304,GUAVIARE
(0-MAX_AGE),36.408317202907206,26.837639242022824,49.47759678172678,0.6571898412077113,0.47168228620778807,0.8554425973284323,1.8047306484294603,0.8554390392758519,3.5107003159123975,40,1939,0.020629190304280558,GUAVIARE
(0-39),9.88653787181846,1.9797780614549736,49.412319021805736,0.036798528058877636,0.0,0.08778836448142857,0.37242858714791516,0.07686967891280283,1.084504190480784,3,813,0.0036900369003690036,GUAINIA
(40-49),14.192634560906514,2.864437277906572,70.83360120012003,0.17,0.0,0.3621456607626104,1.1981696621852447,0.14543470930994853,4.260990341596916,2,168,0.011904761904761904,GUAINIA
(50-59),12.313234512490402,5.284418692095583,29.13191880832835,0.62,0.3072618434693817,0.9329200498749756,5.028873339364584,2.045494970857699,10.086849399333387,7,140,0.05,GUAINIA
(60-69),28.307866440294287,12.30326457197564,68.45741668113332,2.32,1.6183678710132896,3.0222659716579043,8.1444843678739,2.6974807168155,17.992226582512348,5,62,0.08064516129032258,GUAINIA
(70-79),100.0,40.64503675515948,100.0,9.31,7.416131015191079,11.209146146671447,8.651399478276623,1.8209455898157347,23.25453210757371,3,35,0.08571428571428572,GUAINIA
(80-MAX_AGE),91.50779896013866,43.23568527105966,100.0,24.96,21.425576113474506,28.487768773873853,27.35520666876899,6.0413459300306895,61.10778316465556,3,11,0.2727272727272727,GUAINIA
(0-MAX_AGE),35.45759245277318,23.714743225308926,53.125592798241975,0.44249844081051715,0.3075459364133429,0.5907846625006133,1.2481894408599417,0.3444889357921065,3.113157917907648,23,1229,0.01871440195280716,GUAINIA
(0-39),100.0,100.0,100.0,0.036798528058877636,0.0,0.08778836448142857,0.0,0.0,0.0,0,783,0.0,VICHADA
(40-49),100.0,100.0,100.0,0.17,0.0,0.3621456607626104,0.0,0.0,0.0,0,163,0.0,VICHADA
(50-59),100.0,100.0,100.0,0.62,0.3072618434693817,0.9329200498749756,0.0,0.0,0.0,0,85,0.0,VICHADA
(60-69),20.55137844611529,10.0541692255113,44.016144767907285,2.32,1.6183678710132896,3.0222659716579043,11.27756272945945,4.6562489877014075,21.865471712101268,7,63,0.1111111111111111,VICHADA
(70-79),50.28824833702883,24.496222627203963,100.0,9.31,7.416131015191079,11.209146146671447,18.712615813162405,6.3693396324391705,38.42981114447374,5,27,0.18518518518518517,VICHADA
(80-MAX_AGE),100.0,54.31347805248238,100.0,24.96,21.425576113474506,28.487768773873853,20.14326208428193,4.363851922291612,48.36474986860594,3,15,0.2,VICHADA
(0-MAX_AGE),58.26768273565769,35.422034260363795,96.04035789857521,0.45736014706167727,0.3190257681566846,0.6089748076684218,0.7849634576321125,0.2792727014775054,1.612425631675071,15,1136,0.013204225352112676,VICHADA
(0-39),11.849126034958601,2.0956065295125224,67.08792020527498,0.036798528058877636,0.0,0.08778836448142857,0.31037390793966296,0.037609846408498196,1.1166411943621224,2,650,0.003076923076923077,VAUPES
(40-49),100.0,100.0,100.0,0.17,0.0,0.3621456607626104,0.0,0.0,0.0,0,199,0.0,VAUPES
(50-59),81.23191401405539,14.020349864013285,100.0,0.62,0.3072618434693817,0.9329200498749756,0.7640444642126182,0.019342060218686844,4.1833753006140455,1,132,0.007575757575757576,VAUPES
(60-69),28.838224593742424,13.84960819504964,62.10259058804948,2.32,1.6183678710132896,3.0222659716579043,8.088798278954952,3.3140509734305663,15.958293634451637,7,87,0.08045977011494253,VAUPES
(70-79),100.0,59.21067260540015,100.0,9.31,7.416131015191079,11.209146146671447,4.6619488258509225,0.5696555796666714,15.845578580908015,2,43,0.046511627906976744,VAUPES
(80-MAX_AGE),100.0,58.26338651130906,100.0,24.96,21.425576113474506,28.487768773873853,15.398915239647476,1.9225091452519185,45.48082369956783,2,13,0.15384615384615385,VAUPES
(0-MAX_AGE),62.76259421475383,37.5060659030458,100.0,0.4765055959905389,0.3371850718383754,0.6290360053109647,0.759397442577074,0.17087856063517093,2.2686515194376478,14,1124,0.012455516014234875,VAUPES
(0-39),13.347811976115118,3.6588244001259556,48.66004800555982,0.036798528058877636,0.0,0.08778836448142857,0.27568960688682226,0.26445905281730014,0.2872734629605911,2262,877324,0.002578294905872859,Colombia
(40-49),15.051853137533241,5.117719779590316,44.173476012243626,0.17,0.0,0.3621456607626104,1.1292428222379234,1.0875933119216277,1.1720649279545303,2742,259708,0.010558011305004082,Colombia
(50-59),20.73948482272855,12.573041028907584,34.15612546201584,0.62,0.3072618434693817,0.9329200498749756,2.989908176282406,2.915682927153433,3.0655007142882718,5977,214412,0.02787623827024607,Colombia
(60-69),26.448136773006574,19.537707813258255,35.72540420515634,2.32,1.6183678710132896,3.0222659716579043,8.773080100955536,8.614733604940334,8.933393650283595,10680,130894,0.08159273916298684,Colombia
(70-79),49.105957333805435,39.97104017813384,60.074348582151195,9.31,7.416131015191079,11.209146146671447,18.96423385391789,18.663453267100792,19.267788258006703,12324,69643,0.1769596370058728,Colombia
(80-MAX_AGE),75.32222693784877,65.14550640291982,86.51847458047403,24.96,21.425576113474506,28.487768773873853,33.13337137319571,32.67098241255337,33.59822165661569,13190,42516,0.3102361463919466,Colombia
(0-MAX_AGE),42.95342017168813,42.50179301018663,43.40990960359294,1.167305295229447,0.8894974839391916,1.4569566348042446,2.717607089513118,2.664212618118044,2.771823410231658,47175,1594497,0.02958613280551798,Colombia
