rango,urep,urep_inf,urep_sup,blCFR,blCFR_inf,blCFR_sup,cCFR,cCFR_inf,cCFR_sup,deaths,cases,nCFR,region
(0-39),17.165067962037355,4.69621939603912,62.695967503195035,0.036798528058877636,0.0,0.08778836448142857,0.21438046903056568,0.19547239639434452,0.23462060584868993,471,234094,0.0020120122685758713,BOGOTA
(40-49),18.184112171780892,6.170823765006273,53.469685768534234,0.17,0.0,0.3621456607626104,0.9347321789682497,0.8614356266890628,1.0125523719374696,595,67729,0.00878501085207223,BOGOTA
(50-59),24.393854330076124,14.758784322722377,40.25599835476079,0.62,0.3072618434693817,0.9329200498749756,2.54199738493542,2.410935342905509,2.678188573255025,1374,57657,0.023830584317602373,BOGOTA
(60-69),30.851621287388127,22.747039479842083,41.75471897971729,2.32,1.6183678710132896,3.0222659716579043,7.520966315148135,7.230842132268765,7.819020143484867,2349,33383,0.07036515591768265,BOGOTA
(70-79),54.32964912577648,44.121857621538325,66.62423209328364,9.31,7.416131015191079,11.209146146671447,17.141546918738342,16.547101241228994,17.748525872728305,2620,16295,0.16078551702976374,BOGOTA
(80-MAX_AGE),77.38563603406928,66.77181993555692,89.12123189650691,24.96,21.425576113474506,28.487768773873853,32.25095635865159,31.28127504304718,33.23224119451067,2877,9481,0.3034490032696973,BOGOTA
(0-MAX_AGE),47.1091017712768,46.178431811191,48.05891889854455,1.1248478831969608,0.8507044221792546,1.410799390289343,2.3877483169824565,2.2881087998678162,2.4906996833784882,10286,418639,0.024570094998315972,BOGOTA
(0-39),22.1048758049678,6.029662527333755,80.98129460448061,0.036798528058877636,0.0,0.08778836448142857,0.16647246691427492,0.1447321541354916,0.19055242555306995,210,135134,0.0015540130537096512,ANTIOQUIA
(40-49),28.136606861819324,9.50712435768229,83.09588830856185,0.17,0.0,0.3621456607626104,0.6040896117481354,0.5264076568686126,0.689950876306511,216,38322,0.0056364490371066224,ANTIOQUIA
(50-59),34.304189981006004,20.666520264340793,56.85427177491296,0.62,0.3072618434693817,0.9329200498749756,1.807649584937802,1.6572604557141362,1.96782331691423,523,31087,0.016823752694052178,ANTIOQUIA
(60-69),37.04040434483167,27.220994650188786,50.297513693842745,2.32,1.6183678710132896,3.0222659716579043,6.2643150541761585,5.89581322053353,6.648626788252843,1014,17491,0.057972671659710706,ANTIOQUIA
(70-79),58.80502937751254,47.62389172184596,72.32262436869317,9.31,7.416131015191079,11.209146146671447,15.835707126038168,15.066083733179674,16.62879153229564,1348,9181,0.14682496460080602,ANTIOQUIA
(80-MAX_AGE),80.53703465447693,69.32084432908756,93.00256035202685,24.96,21.425576113474506,28.487768773873853,30.990303489320954,29.731386365952023,32.27070394014827,1603,5548,0.2889329488103821,ANTIOQUIA
(0-MAX_AGE),55.44785686762695,53.90680777714376,57.03391516507699,1.23625014699352,0.9431482230682412,1.5409170805113583,2.229571146437282,2.0996747665077575,2.3657908547470474,4914,236763,0.020754932147337212,ANTIOQUIA
(0-39),15.06228399512668,4.099402175046836,55.30523826906795,0.036798528058877636,0.0,0.08778836448142857,0.24430921362453945,0.20657240661034718,0.28693112636865026,148,65111,0.002273041421572392,VALLE
(40-49),14.29279643868879,4.830766099044085,42.199084681184814,0.17,0.0,0.3621456607626104,1.1891862173074246,1.0393006035518098,1.3544086411316436,224,20241,0.011066646904797193,VALLE
(50-59),20.93939679002607,12.60814179627316,34.72295169347633,0.62,0.3072618434693817,0.9329200498749756,2.9613888858954507,2.705539601134357,3.234333293483138,479,17368,0.02757945647167204,VALLE
(60-69),23.996065771380504,17.63233043140355,32.58914374853591,2.32,1.6183678710132896,3.0222659716579043,9.669324291018423,9.093063428765513,10.269515596203437,954,10625,0.08978823529411764,VALLE
(70-79),43.349569263203804,35.101266351180215,53.32437757326252,9.31,7.416131015191079,11.209146146671447,21.483300500384647,20.421163555791257,22.57481453254957,1220,6135,0.19885900570497148,VALLE
(80-MAX_AGE),67.71513861523152,58.24923368864127,78.25055737380461,24.96,21.425576113474506,28.487768773873853,36.857950513192264,35.27226356959438,38.46520082520538,1315,3851,0.34146974811737213,VALLE
(0-MAX_AGE),40.80864781843214,39.61622198129602,42.03823318458069,1.4344801931867517,1.106239514416512,1.7740542549594513,3.515124891231402,3.298856970632843,3.7424035233618307,4340,123331,0.03518985494320163,VALLE
(0-39),12.031464808823376,3.258119702690996,44.400021180814576,0.036798528058877636,0.0,0.08778836448142857,0.30585320979390995,0.24569505747505446,0.3762459045850819,89,31122,0.0028597133860291755,SANTANDER
(40-49),13.824362606232295,4.645030059547542,41.05946807188509,0.17,0.0,0.3621456607626104,1.2295347832880954,1.0178906010382547,1.4717632629083988,117,10152,0.01152482269503546,SANTANDER
(50-59),14.976252244550045,8.986988883614973,24.920040234681515,0.62,0.3072618434693817,0.9329200498749756,4.140699661663158,3.7093855236385997,4.606687602817505,323,8323,0.038808122071368495,SANTANDER
(60-69),20.185937315647493,14.777276081673598,27.51973531085037,2.32,1.6183678710132896,3.0222659716579043,11.494509175302976,10.616503095792428,12.418448073890398,566,5263,0.1075432262967889,SANTANDER
(70-79),42.40315842884847,34.16039612337334,52.442269143395734,9.31,7.416131015191079,11.209146146671447,21.96300362060671,20.469126851654465,23.513564414248357,638,3099,0.2058728622136173,SANTANDER
(80-MAX_AGE),76.75058291547522,65.56270845902436,89.38500703877033,24.96,21.425576113474506,28.487768773873853,32.51292205452533,30.44068584216484,34.637623993578245,637,2077,0.306692344727973,SANTANDER
(0-MAX_AGE),37.159300078690244,35.70477511621027,38.67514525835947,1.2489546776693075,0.9551855322265101,1.5544418740324666,3.3610976226395146,3.0704635247129195,3.673020078991007,2370,60036,0.039476314211473115,SANTANDER
(0-39),14.894801610532982,4.025589151348613,55.075192835769535,0.036798528058877636,0.0,0.08778836448142857,0.24705346280657134,0.19501841272604856,0.3086791130295974,77,33143,0.0023232658479920344,CUNDINAMARCA
(40-49),15.802214782384755,5.297651272088412,47.04071666325479,0.17,0.0,0.3621456607626104,1.075620430392055,0.8750469354427005,1.3079949140397007,99,9778,0.010124769891593373,CUNDINAMARCA
(50-59),20.67439588109286,12.342534878712533,34.58113914052858,0.62,0.3072618434693817,0.9329200498749756,2.9994375665372366,2.6210355215087944,3.415776319519126,220,7803,0.02819428424964757,CUNDINAMARCA
(60-69),22.217976645828326,16.214784153495177,30.38568698602605,2.32,1.6183678710132896,3.0222659716579043,10.44434705700476,9.527355963934557,11.417754079538955,431,4411,0.09771026978009521,CUNDINAMARCA
(70-79),45.9383188873211,36.848990268612226,57.074683997734965,9.31,7.416131015191079,11.209146146671447,20.26872423962364,18.6355055559463,21.978720780118888,462,2456,0.18811074918566775,CUNDINAMARCA
(80-MAX_AGE),77.67899345022396,66.04376242643784,90.94800616350744,24.96,21.425576113474506,28.487768773873853,32.11824942325957,29.709065237570055,34.600685328706994,462,1546,0.2988357050452781,CUNDINAMARCA
(0-MAX_AGE),40.931388575767045,39.072647265059665,42.88121191841891,1.174701065301385,0.894589146541785,1.4666576248028593,2.8699177734625003,2.587011550950675,3.1758314225312434,1751,59137,0.02960921250655258,CUNDINAMARCA
(0-39),7.702448926836314,2.0928172647824757,28.329218774045717,0.036798528058877636,0.0,0.08778836448142857,0.4777518807653067,0.3965794430987773,0.5705865739731752,121,26564,0.004555036892034332,BARRANQUILLA
(40-49),9.840598706185785,3.3118135930456414,29.179821984848452,0.17,0.0,0.3621456607626104,1.7272573404584202,1.4491435895256115,2.042431548968482,134,8151,0.016439700650226968,BARRANQUILLA
(50-59),14.03329959658451,8.411230411498305,23.37886238989608,0.62,0.3072618434693817,0.9329200498749756,4.418525386334065,3.934082371207851,4.9439711954532894,290,6878,0.04216341959872056,BARRANQUILLA
(60-69),21.244010362931885,15.520534765976695,29.022001082639115,2.32,1.6183678710132896,3.0222659716579043,10.923203588562654,10.005347278867026,11.894591463295734,469,4502,0.10417592181252777,BARRANQUILLA
(70-79),44.45968024273544,35.66067551542101,55.241848502979884,9.31,7.416131015191079,11.209146146671447,20.94779392505304,19.25536326359758,22.71879485273751,456,2270,0.20088105726872246,BARRANQUILLA
(80-MAX_AGE),64.85888066635475,55.3362517185445,75.65009432843186,24.96,21.425576113474506,28.487768773873853,38.46447670912633,35.87648319296261,41.10215934827421,526,1425,0.36912280701754385,BARRANQUILLA
(0-MAX_AGE),34.885899460555514,33.40463805542528,36.43531973823082,1.2518158260362933,0.9601251804317477,1.555186570698365,3.5883257634698493,3.2502085103580316,3.951259410412204,1996,49790,0.04008837115886724,BARRANQUILLA
(0-39),15.27530388146176,4.0905675525109775,57.006763297418914,0.036798528058877636,0.0,0.08778836448142857,0.24089706774608344,0.17705415870789182,0.3202147441657588,47,20962,0.002242152466367713,CARTAGENA
(40-49),15.843004660513568,5.2658410877549455,47.573891137794554,0.17,0.0,0.3621456607626104,1.0728451124101555,0.8235058642895494,1.373255568264753,62,6209,0.009985504912224191,CARTAGENA
(50-59),27.001583994695455,15.826565682954524,46.01043159761814,0.62,0.3072618434693817,0.9329200498749756,2.296586374699844,1.87440648313988,2.783640962595102,101,4712,0.021434634974533108,CARTAGENA
(60-69),36.409087234214574,26.073485627923233,50.76599971506591,2.32,1.6183678710132896,3.0222659716579043,6.373312204250691,5.488319878634561,7.352630706777708,175,2937,0.059584610146407896,CARTAGENA
(70-79),68.29268292682927,53.344363349024846,87.26458926356673,9.31,7.416131015191079,11.209146146671447,13.636961565982267,11.78458609794499,15.661621002015435,171,1344,0.12723214285714285,CARTAGENA
(80-MAX_AGE),84.34430964760254,70.36281811246741,100.0,24.96,21.425576113474506,28.487768773873853,29.572376426647253,26.282434565553153,33.02827225315724,216,782,0.27621483375959077,CARTAGENA
(0-MAX_AGE),52.99464739667526,49.409359586940006,56.845552241198426,1.03047372399963,0.7792441216812345,1.293775628934097,1.9444716271685274,1.6482410758507653,2.2787183838322393,772,36948,0.020894229728266753,CARTAGENA
(0-39),12.328214563725142,3.3088931714181626,45.90341418699918,0.036798528058877636,0.0,0.08778836448142857,0.29848489122592076,0.22300069642428355,0.39124125835723333,52,19071,0.0027266530334014998,TOLIMA
(40-49),20.450682462013905,6.733809648927391,61.99481361739553,0.17,0.0,0.3621456607626104,0.8311669656213893,0.6045581290756222,1.1142132131280125,44,5790,0.0075993091537132984,TOLIMA
(50-59),21.06867146716402,12.441017376698294,35.63306451903486,0.62,0.3072618434693817,0.9329200498749756,2.9431228062844523,2.4629266022005853,3.4872991767511907,129,4783,0.0269705205937696,TOLIMA
(60-69),25.23680605174663,18.26404381418034,34.81245503424814,2.32,1.6183678710132896,3.0222659716579043,9.195672603741036,8.15355973136766,10.323437099272315,259,3103,0.08346761198839832,TOLIMA
(70-79),48.70567110579081,38.82310491172794,60.92031401062069,9.31,7.416131015191079,11.209146146671447,19.11608196387708,17.274904584792104,21.064165670028924,326,1869,0.17442482611021937,TOLIMA
(80-MAX_AGE),74.27581084426838,62.94960339052067,87.28339804212473,24.96,21.425576113474506,28.487768773873853,33.59821916213088,30.83970496658409,36.44279973996619,378,1230,0.3073170731707317,TOLIMA
(0-MAX_AGE),44.245483158956134,41.83256374058798,46.80257176762278,1.471422724654701,1.1371629448935596,1.8169503820610136,3.325603093355459,2.935210863002531,3.75612786717256,1188,35846,0.033141773140657256,TOLIMA
(0-39),7.1327167965912945,1.933123056012792,26.30044470889158,0.036798528058877636,0.0,0.08778836448142857,0.5159023003084487,0.41759033504959076,0.630301615092177,95,18960,0.0050105485232067514,ATLANTICO
(40-49),7.3328723427985105,2.4665655237871937,21.75531374561807,0.17,0.0,0.3621456607626104,2.3179336099981707,1.9359315600067408,2.751808693307478,127,5624,0.022581792318634424,ATLANTICO
(50-59),11.267446209571053,6.742504369836598,18.802069218739348,0.62,0.3072618434693817,0.9329200498749756,5.502792764603285,4.859974032997398,6.203061384812269,252,4708,0.05352591333899745,ATLANTICO
(60-69),17.329487373221095,12.633062050299868,23.727888966368333,2.32,1.6183678710132896,3.0222659716579043,13.388855257518378,12.159826258188312,14.693496946251027,382,2936,0.13010899182561309,ATLANTICO
(70-79),34.50219025471851,27.664092020627574,42.890163891968925,9.31,7.416131015191079,11.209146146671447,26.983660219415672,24.765127602947814,29.291495101599242,410,1562,0.26248399487836105,ATLANTICO
(80-MAX_AGE),60.17040659849193,51.12853689015612,70.51779239598359,24.96,21.425576113474506,28.487768773873853,41.48503786479081,38.280040931489424,44.744678086396014,382,943,0.4050901378579003,ATLANTICO
(0-MAX_AGE),27.931310619561156,26.631623609111948,29.297042160196906,1.087144845446182,0.8248884869552716,1.361375410883749,3.892204244568425,3.487643894851238,4.3290457728577945,1648,34734,0.047446306212932575,ATLANTICO
(0-39),6.309445581360418,1.710627957035949,23.256216151195048,0.036798528058877636,0.0,0.08778836448142857,0.5832220459459101,0.47373400271497057,0.7103071691372698,98,18426,0.0053185715836318245,NORTE SANTANDER
(40-49),5.979200834948561,2.0150445257647362,17.705280029392412,0.17,0.0,0.3621456607626104,2.842469118783395,2.4135987544687065,3.323777722324539,152,5883,0.02583715791262961,NORTE SANTANDER
(50-59),9.531110126367693,5.71137982018387,15.882423664883271,0.62,0.3072618434693817,0.9329200498749756,6.50536766535125,5.784177357112485,7.286680206732332,278,4744,0.05860033726812816,NORTE SANTANDER
(60-69),14.48533389301781,10.585786807436113,19.783682455684907,2.32,1.6183678710132896,3.0222659716579043,16.01570139769632,14.682123727812515,17.419991932705713,453,3125,0.14496,NORTE SANTANDER
(70-79),31.590349681645275,25.364704576183588,39.21299328352402,9.31,7.416131015191079,11.209146146671447,29.48296303211152,27.167868028014237,31.87982705758451,436,1615,0.26996904024767804,NORTE SANTANDER
(80-MAX_AGE),62.02249956416067,52.56479641669347,72.9065965345521,24.96,21.425576113474506,28.487768773873853,40.23282972535803,36.896671665773944,43.63775502938568,338,911,0.37102085620197583,NORTE SANTANDER
(0-MAX_AGE),24.58981018035996,23.4811874178907,25.753116662891145,1.039681913523459,0.7857034096115845,1.3057690726433626,4.228074153157099,3.799586023377949,4.689466321589684,1755,34704,0.05057053941908714,NORTE SANTANDER
(0-39),9.364110284073485,2.524779900455408,34.70805585444744,0.036798528058877636,0.0,0.08778836448142857,0.3929823292402993,0.3040589454775563,0.4997022668151607,66,17706,0.003727549983056591,HUILA
(40-49),13.278709958596643,4.418405778801407,39.829472290492454,0.17,0.0,0.3621456607626104,1.280092846830029,0.9893001741558626,1.6287104709147626,65,5358,0.012131392310563644,HUILA
(50-59),16.71781618478436,9.911471496076253,28.160567074306886,0.62,0.3072618434693817,0.9329200498749756,3.7094382781829305,3.15001898601922,4.336484773090065,151,4292,0.035181733457595524,HUILA
(60-69),21.750822695927393,15.759431227689358,29.96896184845095,2.32,1.6183678710132896,3.0222659716579043,10.668703793002058,9.492208884140592,11.937051303584012,270,2676,0.10089686098654709,HUILA
(70-79),44.30061522126105,35.226601300770014,55.557891974444054,9.31,7.416131015191079,11.209146146671447,21.013769450906107,18.869623431145225,23.284710612713198,284,1427,0.19901892081289418,HUILA
(80-MAX_AGE),69.15077989601387,58.318039851426484,81.73453596997324,24.96,21.425576113474506,28.487768773873853,36.11221300111451,32.7725149701234,39.55501511337468,288,838,0.3436754176610978,HUILA
(0-MAX_AGE),36.487097409008626,34.43698368943933,38.66314981715857,1.0858507635289707,0.824788391456706,1.3589424377887602,2.9760048045859717,2.603637452650684,3.386617989968312,1124,32297,0.034801993993250145,HUILA
(0-39),7.406773496502001,2.0049251396738863,27.34479276857612,0.036798528058877636,0.0,0.08778836448142857,0.496826001463667,0.39758305379617565,0.6132176032454972,86,17932,0.004795895605621236,CESAR
(40-49),11.374857437180383,3.797983056665916,34.000260466102326,0.17,0.0,0.3621456607626104,1.4942671691328326,1.1810037592622984,1.8640833463267947,77,5334,0.014435695538057743,CESAR
(50-59),16.212794543199667,9.601928474772148,27.33917016107682,0.62,0.3072618434693817,0.9329200498749756,3.82517399628981,3.2352817724100036,4.488056260921702,144,3894,0.03697996918335902,CESAR
(60-69),23.913896918990297,17.2509408246225,33.097736080254315,2.32,1.6183678710132896,3.0222659716579043,9.704400208615995,8.521695739788084,10.991415846528064,222,2363,0.09394837071519255,CESAR
(70-79),43.52502712648016,34.60827778348217,54.58868153409484,9.31,7.416131015191079,11.209146146671447,21.393361954078348,19.207403276160253,23.707632358425833,282,1360,0.2073529411764706,CESAR
(80-MAX_AGE),74.58425390609497,62.68516086389704,88.49124711987619,24.96,21.425576113474506,28.487768773873853,33.4677872765415,30.165955593485155,36.894732989474065,262,807,0.3246592317224288,CESAR
(0-MAX_AGE),33.899152714704066,31.942435161532433,35.9787826213675,0.8132037573582567,0.6045521073392118,1.0344946276019107,2.3988781221898217,2.075878976507737,2.7573345257198607,1073,31690,0.033859261596718204,CESAR
(0-39),17.7716999428131,4.728984193289041,66.74663191500385,0.036798528058877636,0.0,0.08778836448142857,0.2070653433734197,0.1458337260521129,0.28530046808917797,37,18703,0.0019782922525798,META
(40-49),16.633894350941507,5.501495216850142,50.198525987283645,0.17,0.0,0.3621456607626104,1.021746260420015,0.7616769182405986,1.341244034615452,51,5233,0.009745843684311103,META
(50-59),17.757648702930705,10.449140634385012,30.140783826533283,0.62,0.3072618434693817,0.9329200498749756,3.4921127200985724,2.8864807310766833,4.183561723797702,113,3410,0.03313782991202346,META
(60-69),22.198495907210663,15.963810401133927,30.823101748554908,2.32,1.6183678710132896,3.0222659716579043,10.452519771263052,9.0970480959028,11.934368074161783,194,1956,0.09918200408997956,META
(70-79),46.27955924229293,36.43187286299234,58.67214437830604,9.31,7.416131015191079,11.209146146671447,20.115167038738704,17.646421499192936,22.764993533861144,197,1029,0.19144800777453838,META
(80-MAX_AGE),79.20459728176594,65.85863409112504,95.13064221727589,24.96,21.425576113474506,28.487768773873853,31.495869784749196,27.80467647589952,35.369385513115844,190,625,0.304,META
(0-MAX_AGE),38.52453495919782,35.93861776536759,41.301270326671236,0.9103216999484103,0.6780593756106391,1.1548913454292569,2.3629543202143193,2.0124264967567624,2.7571126974741937,782,30956,0.025261661713399663,META
(0-39),20.438515792701622,5.352640744105689,77.99955669426161,0.036798528058877636,0.0,0.08778836448142857,0.18003860515288497,0.11538713463597396,0.2677654974371557,24,14796,0.0016220600162206002,CALDAS
(40-49),43.565864022662886,13.584860410868737,100.0,0.17,0.0,0.3621456607626104,0.39010569210450435,0.22313849350517687,0.6327361439169454,16,4566,0.003504161191414805,CALDAS
(50-59),34.324418863484595,19.75495140175086,59.57676956107352,0.62,0.3072618434693817,0.9329200498749756,1.806411155063007,1.3968461132695131,2.296693670676564,65,4027,0.01614104792649615,CALDAS
(60-69),40.0725003441472,28.535372775566636,56.19717980240928,2.32,1.6183678710132896,3.0222659716579043,5.789288275306317,4.915499463460228,6.765959747199024,148,2878,0.05142460041695622,CALDAS
(70-79),72.43163340724317,56.7642317974949,92.22327970639131,9.31,7.416131015191079,11.209146146671447,12.853576287309481,11.184400054755407,14.672654062716195,189,1652,0.11440677966101695,CALDAS
(80-MAX_AGE),99.8266897746967,83.45070300097781,100.0,24.96,21.425576113474506,28.487768773873853,25.00939376071638,22.335676864502194,27.832968865391848,247,1088,0.2270220588235294,CALDAS
(0-MAX_AGE),66.03865183124216,61.33622360191071,71.11084771629179,1.547798452621895,1.1953972953409728,1.9111662789279769,2.343758563995563,1.9825381610270918,2.7604641758146746,689,29007,0.023752887234115904,CALDAS
(0-39),4.619059274326275,1.2537982263014926,17.00553003239088,0.036798528058877636,0.0,0.08778836448142857,0.7966556296814311,0.6545805039696501,0.9602130030911593,109,13868,0.007859821171041247,CORDOBA
(40-49),5.971407866130838,2.009078823901557,17.7119576768696,0.17,0.0,0.3621456607626104,2.846674322883431,2.3820308838430835,3.3733278738322214,129,4597,0.028061779421361756,CORDOBA
(50-59),10.789050205188893,6.449440467029791,18.02302682071183,0.62,0.3072618434693817,0.9329200498749756,5.747151227097793,5.050498395783536,6.508394963335062,233,4108,0.056718597857838365,CORDOBA
(60-69),17.711363836727497,12.917855266289969,24.2383037975393,2.32,1.6183678710132896,3.0222659716579043,13.098703913200241,11.918571986822434,14.350372751310502,398,3077,0.12934676633084172,CORDOBA
(70-79),36.93352832948059,29.660640796499482,45.83279975671088,9.31,7.416131015191079,11.209146146671447,25.21301799017031,23.25520939241704,27.249116040973643,470,1889,0.24880889359449443,CORDOBA
(80-MAX_AGE),61.13674406979766,52.18980936371036,71.26679724103504,24.96,21.425576113474506,28.487768773873853,40.82698697992773,38.130399678833,43.56544590200061,527,1305,0.40383141762452107,CORDOBA
(0-MAX_AGE),27.11716526792436,25.929048215385087,28.362018271024382,1.0846168604365605,0.8253881593019528,1.3559694606009307,3.9997095589553764,3.5813108717248507,4.454326151250738,1866,28844,0.06469283039800305,CORDOBA
(0-39),18.0785911420686,4.7652356896358175,68.54850330315506,0.036798528058877636,0.0,0.08778836448142857,0.20355256632268348,0.13530050238729424,0.29405678541130076,28,15230,0.0018384766907419566,RISARALDA
(40-49),26.254085857485286,8.457271094235317,81.36789348926777,0.17,0.0,0.3621456607626104,0.6474779813489883,0.4233772623646466,0.9472756262621673,26,4436,0.005861136158701533,RISARALDA
(50-59),25.745257452574528,14.969224237422237,44.229060419487645,0.62,0.3072618434693817,0.9329200498749756,2.408815766661914,1.9174408339568811,2.9851446312494145,81,3717,0.021791767554479417,RISARALDA
(60-69),30.109843558150235,21.557296346069133,41.995576810662726,2.32,1.6183678710132896,3.0222659716579043,7.706734961615655,6.630921082153908,8.89574994390896,171,2474,0.06911883589329022,RISARALDA
(70-79),55.963686566539764,44.092832468859264,70.86854654078059,9.31,7.416131015191079,11.209146146671447,16.644308504940756,14.638301102653253,18.8055490227783,212,1406,0.1507823613086771,RISARALDA
(80-MAX_AGE),87.70487744491211,73.05632065231545,100.0,24.96,21.425576113474506,28.487768773873853,28.458919577338985,25.22710989462708,31.8639832946212,210,813,0.25830258302583026,RISARALDA
(0-MAX_AGE),51.9088610108395,48.31674899797381,55.77619967033455,1.448711934670928,1.1151057420087631,1.7935078270146976,2.790863058755626,2.377327688774801,3.260176792786784,728,28076,0.025929619603932183,RISARALDA
(0-39),8.671784276169937,2.3349013972276853,32.18634902832919,0.036798528058877636,0.0,0.08778836448142857,0.42433719329156044,0.32473514330583036,0.5447496043534783,61,15133,0.00403092579131699,NARIÑO
(40-49),10.621997782978198,3.5391201923266573,31.817941191012327,0.17,0.0,0.3621456607626104,1.6001788983218956,1.2471120649214265,2.020815331728465,69,4542,0.015191545574636724,NARIÑO
(50-59),19.722184622476195,11.60384034618364,33.478595428852444,0.62,0.3072618434693817,0.9329200498749756,3.144414939208559,2.5983152634771964,3.768364014096748,113,3805,0.029697766097240473,NARIÑO
(60-69),23.10558579143064,16.65495892664116,32.004854808955166,2.32,1.6183678710132896,3.0222659716579043,10.041763066207182,8.797850736551815,11.39675708768413,214,2255,0.09490022172949002,NARIÑO
(70-79),42.54260724425426,33.80152937937099,53.40117512455463,9.31,7.416131015191079,11.209146146671447,21.896320447707613,19.62093257262934,24.30602337548934,271,1309,0.20702826585179526,NARIÑO
(80-MAX_AGE),66.46262767801173,56.055980545778205,78.55691055440887,24.96,21.425576113474506,28.487768773873853,37.5412428712582,34.06662199105649,41.11410527121851,282,793,0.35561160151324084,NARIÑO
(0-MAX_AGE),37.97901586878963,35.737944125313646,40.365647939059116,1.2538015959821378,0.9648998805944565,1.5546546709990625,3.3012867800075023,2.8737521507686097,3.7740649395083805,1010,27837,0.03628264540000718,NARIÑO
(0-39),15.823367065317386,4.176426101598288,59.916326860718335,0.036798528058877636,0.0,0.08778836448142857,0.2325669070999997,0.15580732676479747,0.33383543271030547,29,13656,0.002123608670181605,BOYACA
(40-49),18.054768649669498,5.903303178172936,55.12196942408507,0.17,0.0,0.3621456607626104,0.9414057431138737,0.6601954627822401,1.3009416070146052,36,4181,0.008610380291796222,BOYACA
(50-59),27.65788001848114,15.956845688601867,47.889806859506734,0.62,0.3072618434693817,0.9329200498749756,2.241932983447508,1.7450528912026178,2.8336247862047026,68,3340,0.02035928143712575,BOYACA
(60-69),29.914958428762965,21.323788363895,41.913509301160516,2.32,1.6183678710132896,3.0222659716579043,7.755840454269252,6.5989483213144,9.043549676207208,149,2122,0.07021677662582469,BOYACA
(70-79),64.45676274944567,49.95849157966194,83.05775227195423,9.31,7.416131015191079,11.209146146671447,14.453202920639608,12.297913243603386,16.827074905955886,140,1065,0.13145539906103287,BOYACA
(80-MAX_AGE),81.41205768033517,67.84857617115298,97.51391844581939,24.96,21.425576113474506,28.487768773873853,30.636416833685015,27.169224714725672,34.27460228345313,206,731,0.2818057455540356,BOYACA
(0-MAX_AGE),53.50293369885563,49.52754546292337,57.80695528450093,1.4507077571297151,1.1228314934779473,1.790042472797244,2.7114885855961703,2.275721324258569,3.209009499975497,628,25100,0.0250199203187251,BOYACA
(0-39),18.79178166206685,4.8489142869572746,72.79052610827381,0.036798528058877636,0.0,0.08778836448142857,0.19582683276184232,0.11609939718714432,0.30931491797774324,18,10197,0.00176522506619594,QUINDIO
(40-49),20.325779036827196,6.519720580417493,63.26825744003388,0.17,0.0,0.3621456607626104,0.8361754525673174,0.5364670101596622,1.2416232158022567,24,3200,0.0075,QUINDIO
(50-59),33.01667918097375,18.701873626901012,58.24013233252607,0.62,0.3072618434693817,0.9329200498749756,1.8784202241632564,1.3928153924556226,2.4758407183439024,49,2924,0.016757865937072503,QUINDIO
(60-69),35.36549707602339,24.990629565108303,49.992793298242134,2.32,1.6183678710132896,3.0222659716579043,6.5592573917519035,5.467882140361255,7.792302133655005,120,2043,0.05873715124816446,QUINDIO
(70-79),47.47279946372402,37.46217234227922,60.02460054712777,9.31,7.416131015191079,11.209146146671447,19.617429916245772,17.304885204690926,22.0943175607042,215,1229,0.17493897477624085,QUINDIO
(80-MAX_AGE),100.0,82.63605386114423,100.0,24.96,21.425576113474506,28.487768773873853,24.8457026803593,21.552312418663373,28.371565186382007,160,717,0.22315202231520223,QUINDIO
(0-MAX_AGE),54.291967389474635,50.12751154866633,58.81358663967147,1.5822893962417135,1.2232706876726733,1.9522095151605852,2.914464803409928,2.436972694084607,3.4687604214174814,586,20310,0.028852781880846872,QUINDIO
(0-39),13.166206685065932,3.448260055046902,50.244372302023486,0.036798528058877636,0.0,0.08778836448142857,0.2795069987673604,0.1791649815943017,0.4156006146229907,24,9050,0.0026519337016574587,CAUCA
(40-49),16.082836768584546,5.210302324494578,49.561873504332496,0.17,0.0,0.3621456607626104,1.0567959583747615,0.7088632804215271,1.514233952715227,29,2886,0.010048510048510048,CAUCA
(50-59),26.080295698271037,14.81514679707676,45.87525519650269,0.62,0.3072618434693817,0.9329200498749756,2.377868728613014,1.7754838709085043,3.1147180603761537,51,2256,0.022606382978723406,CAUCA
(60-69),27.12837200528202,19.188433974807953,38.316998755410445,2.32,1.6183678710132896,3.0222659716579043,8.55118641879377,7.140431194418828,10.138179941510117,120,1478,0.08119079837618404,CAUCA
(70-79),49.607709363806926,38.71235057693476,63.48427519792301,9.31,7.416131015191079,11.209146146671447,18.777374891212922,16.17617224571908,21.60219171812451,156,876,0.1780821917808219,CAUCA
(80-MAX_AGE),83.71180985392424,69.33032560125723,100.0,24.96,21.425576113474506,28.487768773873853,29.795636318046586,26.12122997937455,33.67466775490069,175,616,0.2840909090909091,CAUCA
(0-MAX_AGE),46.60257846519017,42.922614654510284,50.606610180947484,1.1456097377056538,0.8772058473390725,1.4260865831886844,2.4582520562308225,2.0223391527291352,2.967913220029847,555,17162,0.0323388882414637,CAUCA
(0-39),10.685531199441677,2.820467956047687,40.46009304403286,0.036798528058877636,0.0,0.08778836448142857,0.3443606136971287,0.23074131231369677,0.4941877554785923,29,8568,0.00338468720821662,SUCRE
(40-49),10.878186968838527,3.577350215546974,33.0199036085446,0.17,0.0,0.3621456607626104,1.5623229094030395,1.1282442483819024,2.105993573503362,42,2731,0.015378982057854266,SUCRE
(50-59),16.640322933638107,9.699194389192737,28.51830204971692,0.62,0.3072618434693817,0.9329200498749756,3.7268898415215737,2.987545717448043,4.587920597250372,85,2320,0.036637931034482756,SUCRE
(60-69),22.043010752688176,15.79989894346077,30.711891766744703,2.32,1.6183678710132896,3.0222659716579043,10.527197746810703,9.080387077681504,12.117500338687027,172,1669,0.1030557219892151,SUCRE
(70-79),50.08558988086348,39.37682887653812,63.58003879213818,9.31,7.416131015191079,11.209146146671447,18.585258548546392,16.26294349157833,21.08711070588205,193,1052,0.18346007604562736,SUCRE
(80-MAX_AGE),76.84333561726653,64.18930332612375,91.81353332503802,24.96,21.425576113474506,28.487768773873853,32.47142016995347,28.91407536553954,36.18591893596863,215,674,0.3189910979228487,SUCRE
(0-MAX_AGE),38.9840931552732,36.29869872722036,41.87426956959889,1.0984377536189682,0.8359410200941756,1.3730031709005481,2.8176682616872495,2.3647169443846914,3.338872980311579,736,17021,0.043240702661418245,SUCRE
(0-39),9.528365532045385,2.5182148205913504,36.032883331948504,0.036798528058877636,0.0,0.08778836448142857,0.3861767759283987,0.26069894137464683,0.5508360622926589,30,8169,0.003672420124862284,STA MARTA D.E.
(40-49),7.44893394960489,2.4716667137532666,22.40703000019277,0.17,0.0,0.3621456607626104,2.2820268448511842,1.7328575652897502,2.9466250550602036,57,2626,0.021706016755521706,STA MARTA D.E.
(50-59),15.180454314734092,8.824157707687661,26.089446981478094,0.62,0.3072618434693817,0.9329200498749756,4.083798274106003,3.246270706322859,5.063864178114807,79,2043,0.03866862457170827,STA MARTA D.E.
(60-69),21.846676243959777,15.51582000580692,30.731149165136117,2.32,1.6183678710132896,3.0222659716579043,10.61852254393415,8.948167975414043,12.48061980177998,130,1296,0.10030864197530864,STA MARTA D.E.
(70-79),45.01108647450111,35.05110413220231,57.747365877369816,9.31,7.416131015191079,11.209146146671447,20.701049940734304,17.747816125148393,23.90519019420441,144,732,0.19672131147540983,STA MARTA D.E.
(80-MAX_AGE),78.82149046793761,64.31106014527874,96.8070308054819,24.96,21.425576113474506,28.487768773873853,31.648561382766143,26.99454496948749,36.591934982647835,120,397,0.3022670025188917,STA MARTA D.E.
(0-MAX_AGE),33.740790022654444,31.08967123847058,36.624730374293215,0.9126620495911941,0.6818829710982304,1.1557714454702959,2.704922000316814,2.207797539597337,3.2802778110030504,560,15263,0.03669003472449715,STA MARTA D.E.
(0-39),7.541761487435239,2.0085727196414833,28.300991085162465,0.036798528058877636,0.0,0.08778836448142857,0.48790406870892267,0.3454944099303559,0.6690774282532397,38,8048,0.004721669980119284,CAQUETA
(40-49),13.723638652817122,4.430904802018132,42.4383600748671,0.17,0.0,0.3621456607626104,1.2383556695583224,0.8176270085700843,1.7966617129113183,27,2262,0.011936339522546418,CAQUETA
(50-59),12.37940600766024,7.212996345052653,21.2256462635129,0.62,0.3072618434693817,0.9329200498749756,5.008872383969192,4.008984293311686,6.1716732985489635,83,1725,0.04811594202898551,CAQUETA
(60-69),16.192497372463414,11.548778441189098,22.682912794379266,2.32,1.6183678710132896,3.0222659716579043,14.32627741128546,12.188640302641508,16.681349051428185,140,1018,0.137524557956778,CAQUETA
(70-79),39.57871396895787,30.835583980166437,50.76841879267398,9.31,7.416131015191079,11.209146146671447,23.513478558074247,20.16158196395955,27.130538941807416,140,614,0.2280130293159609,CAQUETA
(80-MAX_AGE),74.18627288051091,61.15518048947962,90.04505016143666,24.96,21.425576113474506,28.487768773873853,33.64174283444892,29.206030390473174,38.30228553349843,146,447,0.32662192393736017,CAQUETA
(0-MAX_AGE),29.448651968565446,27.162178252553016,31.933531978366524,0.823718445980048,0.6130417289876156,1.0469886554672794,2.79708756274457,2.294760857192703,3.378270299665141,574,14118,0.04065731690041082,CAQUETA
(0-39),6.974343248492282,1.8545079636235826,26.21352295850223,0.036798528058877636,0.0,0.08778836448142857,0.5276244085169381,0.369807150548759,0.7297133603825223,36,7100,0.0050704225352112674,GUAJIRA
(40-49),6.941643059490085,2.2955793389973382,20.952788217774604,0.17,0.0,0.3621456607626104,2.448855309152693,1.8229237926938122,3.2158830932311644,50,2132,0.02345215759849906,GUAJIRA
(50-59),12.14780577456581,7.078344778445281,20.827804981389093,0.62,0.3072618434693817,0.9329200498749756,5.10465454046879,4.086031488721332,6.288952453581764,83,1699,0.04885226603884638,GUAJIRA
(60-69),20.82930651691263,14.796711367781462,29.294055153273813,2.32,1.6183678710132896,3.0222659716579043,11.140732819268383,9.392321743060672,13.08765444515878,130,1218,0.10673234811165845,GUAJIRA
(70-79),43.73886808912798,33.83228127206128,56.53791262019365,9.31,7.416131015191079,11.209146146671447,21.2782496598519,17.996176166185272,24.85940541065346,122,598,0.2040133779264214,GUAJIRA
(80-MAX_AGE),65.20936993347124,53.572916976595586,79.56099879381948,24.96,21.425576113474506,28.487768773873853,38.29390671505021,32.973554440391936,43.83051150051781,124,338,0.3668639053254438,GUAJIRA
(0-MAX_AGE),27.89301383985786,25.665531530884035,30.318713628709716,0.6447952384934906,0.4720982146324786,0.8304607320631019,2.3116819738526884,1.8620892819864108,2.836875580422616,545,13087,0.04164437991900359,GUAJIRA
(0-39),11.4885004599816,2.9302376049058187,45.02326442983787,0.036798528058877636,0.0,0.08778836448142857,0.32029552324987587,0.17937437500824382,0.5277293617297563,15,5055,0.002967359050445104,CASANARE
(40-49),17.705382436260624,5.377390275853868,58.24354472670863,0.17,0.0,0.3621456607626104,0.9599516008872121,0.4969768209340581,1.6708326803483553,12,1363,0.00880410858400587,CASANARE
(50-59),13.769666609926318,7.6092458350572825,24.92687141808081,0.62,0.3072618434693817,0.9329200498749756,4.5021856052303555,3.137727557253374,6.234796835926093,34,818,0.04156479217603912,CASANARE
(60-69),24.14383823551905,15.777787956891148,37.08625382697286,2.32,1.6183678710132896,3.0222659716579043,9.59803913778538,6.848183384851579,12.986656999829938,37,417,0.08872901678657075,CASANARE
(70-79),37.052413077322264,27.065601596794497,51.24329691375934,9.31,7.416131015191079,11.209146146671447,25.142120536352973,19.095958254302793,31.994453201895556,47,204,0.23039215686274508,CASANARE
(80-MAX_AGE),86.5684575389948,63.50713299270865,100.0,24.96,21.425576113474506,28.487768773873853,28.856258991612687,20.646784624812046,38.22955217288403,32,119,0.2689075630252101,CASANARE
(0-MAX_AGE),33.30306586146498,28.792440070256355,38.538212568497386,0.7143289696412143,0.5201696290985003,0.9213127668472403,2.1450410390168253,1.4942615484460924,2.9703645185401473,177,7976,0.02219157472417252,CASANARE
(0-39),8.261269549218031,2.132025492260631,31.996602138842867,0.036798528058877636,0.0,0.08778836448142857,0.4453838225832578,0.26416981456518795,0.702988450511477,18,4179,0.004307250538406317,BOLIVAR
(40-49),6.470254957507082,2.1010906532590217,19.894945224671485,0.17,0.0,0.3621456607626104,2.6274498680353813,1.7795937732570413,3.7297262712861934,30,1178,0.025466893039049237,BOLIVAR
(50-59),17.902625718438703,9.80166986032749,32.70781861678041,0.62,0.3072618434693817,0.9329200498749756,3.463507890617094,2.3651818594761056,4.88034178354908,31,933,0.03322615219721329,BOLIVAR
(60-69),21.925313517547963,15.09265076585784,31.871934146048485,2.32,1.6183678710132896,3.0222659716579043,10.590283537292956,8.33370096365727,13.210980284215545,69,680,0.10147058823529412,BOLIVAR
(70-79),51.34885439763489,38.44369833192359,68.77977919247371,9.31,7.416131015191079,11.209146146671447,18.147305305645027,14.478686732265661,22.29896046776183,72,409,0.17603911980440098,BOLIVAR
(80-MAX_AGE),73.40197777551228,59.5210722274829,90.88753010116936,24.96,21.425576113474506,28.487768773873853,34.05346279918106,28.7013439353328,39.72469445170249,102,313,0.3258785942492013,BOLIVAR
(0-MAX_AGE),36.2058261763606,32.51314058889046,40.33172710647437,1.0434329212197364,0.7920212319985609,1.3069933422300062,2.882016667386799,2.184135066969905,3.737552330593651,322,7692,0.04186167446697868,BOLIVAR
(0-39),3.666865090102278,0.9734531326456158,13.805023507356722,0.036798528058877636,0.0,0.08778836448142857,1.0035775058889378,0.695979766414006,1.3995994668595024,34,3506,0.009697661152310326,MAGDALENA
(40-49),5.207313932526397,1.6984266542439828,15.941023899225609,0.17,0.0,0.3621456607626104,3.2627077381210055,2.2563268528671685,4.551724521890021,33,1048,0.03148854961832061,MAGDALENA
(50-59),8.321800240846919,4.817469330542138,14.366732330995871,0.62,0.3072618434693817,0.9329200498749756,7.450130453240204,5.842574948943164,9.334240152854711,69,962,0.07172557172557173,MAGDALENA
(60-69),13.135987732077334,9.343425586017448,18.458910284480588,2.32,1.6183678710132896,3.0222659716579043,17.669834161842708,14.917380697169419,20.6972036606301,124,719,0.17246175243393602,MAGDALENA
(70-79),31.82376493483705,24.868676421755186,40.71239149549059,9.31,7.416131015191079,11.209146146671447,29.29378623010837,25.23356334315129,33.61431076468511,139,491,0.2830957230142566,MAGDALENA
(80-MAX_AGE),50.231264281535296,41.97628312509706,60.14166695022101,24.96,21.425576113474506,28.487768773873853,49.6177919808456,43.97682329539552,55.265981330678684,157,328,0.47865853658536583,MAGDALENA
(0-MAX_AGE),20.64513299284712,19.033414758228552,22.4002912615682,0.9348231895124196,0.7029159366929716,1.179088273067874,4.528203057372521,3.6704864818653054,5.529066405550549,556,7054,0.07882052736036292,MAGDALENA
(0-39),8.145617032461558,2.0675568597882785,32.079523695494785,0.036798528058877636,0.0,0.08778836448142857,0.4517111814621523,0.24716806862734442,0.756734298647288,14,3222,0.004345127250155183,PUTUMAYO
(40-49),6.392412858726444,2.04780444614234,19.929680971351196,0.17,0.0,0.3621456607626104,2.6592384252862296,1.693031689438081,3.9635605774577254,23,909,0.025302530253025302,PUTUMAYO
(50-59),9.372231736845213,5.202723850031203,16.89829359253079,0.62,0.3072618434693817,0.9329200498749756,6.618416075184566,4.652914875646865,9.084703699691465,35,554,0.0631768953068592,PUTUMAYO
(60-69),13.677657641557204,9.350006763331159,20.066311173858892,2.32,1.6183678710132896,3.0222659716579043,16.954565490549296,13.10142306443874,21.401467686535536,57,351,0.1623931623931624,PUTUMAYO
(70-79),27.27272727272727,20.719497061602848,36.126033665634296,9.31,7.416131015191079,11.209146146671447,34.17900981365769,27.711175435692674,41.11248069755945,70,213,0.3286384976525822,PUTUMAYO
(80-MAX_AGE),62.62712141525785,49.10554040402053,81.2573542959866,24.96,21.425576113474506,28.487768773873853,39.91693508934084,31.522362268703485,48.77163949083324,53,141,0.375886524822695,PUTUMAYO
(0-MAX_AGE),22.92748000678779,20.31194218975027,25.89357164913977,0.8020162356622047,0.5959642645264592,1.0208155116357551,3.4980750709385733,2.595471142604007,4.601317688197188,252,5391,0.04674457429048414,PUTUMAYO
(0-39),5.468670142083205,1.4115304134329463,21.178409628789385,0.036798528058877636,0.0,0.08778836448142857,0.6727856756999316,0.39920848537202896,1.0612147438104125,18,2724,0.006607929515418502,CHOCO
(40-49),6.042492917847025,1.9193180007544517,19.003580363774315,0.17,0.0,0.3621456607626104,2.8111802073519345,1.7254155298640117,4.308365007779569,20,725,0.027586206896551724,CHOCO
(50-59),11.050906513907753,6.007267703254569,20.358110608752355,0.62,0.3072618434693817,0.9329200498749756,5.616394336089738,3.7641272982657825,8.015228092696958,28,509,0.0550098231827112,CHOCO
(60-69),16.461116272116687,11.162866385051533,24.340721087564233,2.32,1.6183678710132896,3.0222659716579043,14.105083111501893,10.7474414399446,18.040551475985634,53,380,0.1394736842105263,CHOCO
(70-79),52.38359201773836,36.35100468480638,76.49220216916002,9.31,7.416131015191079,11.209146146671447,17.771910656881534,12.484959182529698,24.15220190727879,32,183,0.17486338797814208,CHOCO
(80-MAX_AGE),77.64298093587522,59.32125663853266,100.0,24.96,21.425576113474506,28.487768773873853,32.05538676035219,24.435336084768505,40.451252702033244,45,143,0.3146853146853147,CHOCO
(0-MAX_AGE),28.087693352740946,24.470197625612467,32.25705496423813,0.7613314751953015,0.5682743476837715,0.9671537327746261,2.710459977578573,1.8780361030394774,3.7719303414374736,196,4665,0.042015005359056806,CHOCO
(0-39),11.425942962281509,2.7476694005466227,47.504967142080076,0.036798528058877636,0.0,0.08778836448142857,0.32207433667747626,0.13914822632318305,0.6336234274932573,8,2605,0.003071017274472169,ARAUCA
(40-49),8.995423839616475,2.757401594073238,29.32814902333525,0.17,0.0,0.3621456607626104,1.8899604355972304,1.0100666962695084,3.210206591621678,13,720,0.018055555555555554,ARAUCA
(50-59),12.608515915667631,6.738200955897514,23.635156646523388,0.62,0.3072618434693817,0.9329200498749756,4.916222110624446,3.1749633446476695,7.226886725606974,24,517,0.04642166344294004,ARAUCA
(60-69),21.36291786195188,13.614663071549431,33.74849047414122,2.32,1.6183678710132896,3.0222659716579043,10.842691520712428,7.382772233810596,15.1997350598857,29,282,0.10283687943262411,ARAUCA
(70-79),34.43510545042025,25.032006071215427,47.97369902371638,9.31,7.416131015191079,11.209146146671447,27.011296706442483,20.28865622987389,34.6108423140472,43,170,0.2529411764705882,ARAUCA
(80-MAX_AGE),91.50779896013866,65.55992626718997,100.0,24.96,21.425576113474506,28.487768773873853,27.257755220666823,18.79306498941299,37.12819207294129,27,106,0.25471698113207547,ARAUCA
(0-MAX_AGE),30.548334325070087,26.006298313831827,35.906833771164656,0.7415644205681209,0.5443193783793965,0.9515378980642006,2.4276903616383163,1.602121891508578,3.527728082748836,144,4400,0.03272727272727273,ARAUCA
(0-39),12.045384851272615,2.783607189602169,52.12200118906757,0.036798528058877636,0.0,0.08778836448142857,0.30550446587980595,0.11219472190634938,0.6637601205347621,6,1987,0.003019627579265224,AMAZONAS
(40-49),6.582539273757404,1.984549732282132,21.836773862625797,0.17,0.0,0.3621456607626104,2.5846274682667736,1.297142448351398,4.577479527202632,11,434,0.02534562211981567,AMAZONAS
(50-59),8.323528476484242,4.501949516994205,15.42900902548467,0.62,0.3072618434693817,0.9329200498749756,7.440795848884399,4.9178941023559695,10.712573860996311,26,353,0.07365439093484419,AMAZONAS
(60-69),22.043010752688176,13.538174096500132,36.2557203860298,2.32,1.6183678710132896,3.0222659716579043,10.521779845492281,6.712362006406264,15.496113956419055,22,211,0.10426540284360189,AMAZONAS
(70-79),30.209291006435564,22.000371172752892,42.124057408282944,9.31,7.416131015191079,11.209146146671447,30.72065355881726,23.03022698859448,39.289124357516435,41,135,0.3037037037037037,AMAZONAS
(80-MAX_AGE),66.23116917744301,48.51720938598768,94.34052122637601,24.96,21.425576113474506,28.487768773873853,37.89055239442738,26.447712606474834,50.41399010879053,26,69,0.37681159420289856,AMAZONAS
(0-MAX_AGE),23.68599463381149,20.01604427828802,28.046932393811396,0.5269764523281841,0.374007670962386,0.6931036883641161,2.224709191884085,1.4145648244591538,3.347314066995485,132,3189,0.041392285983066796,AMAZONAS
(0-39),22.61269549218031,3.9957146716548877,100.0,0.036798528058877636,0.0,0.08778836448142857,0.1627193028176276,0.019712140791041968,0.5865500935182122,2,1292,0.0015479876160990713,SAN ANDRES
(40-49),100.0,100.0,100.0,0.17,0.0,0.3621456607626104,0.0,0.0,0.0,0,329,0.0,SAN ANDRES
(50-59),66.76312525837122,20.898119789839793,100.0,0.62,0.3072618434693817,0.9329200498749756,0.9275292155086613,0.1916887982489108,2.686561009058619,3,341,0.008797653958944282,SAN ANDRES
(60-69),28.942900545080867,17.279590120934692,48.94077663644843,2.32,1.6183678710132896,3.0222659716579043,8.023725373884044,4.899836464616268,12.24653874702264,19,252,0.07539682539682539,SAN ANDRES
(70-79),100.0,82.04949936531901,100.0,9.31,7.416131015191079,11.209146146671447,4.970700920203305,1.6334419299672245,11.219589890244619,5,108,0.046296296296296294,SAN ANDRES
(80-MAX_AGE),100.0,96.59042244077742,100.0,24.96,21.425576113474506,28.487768773873853,14.439497958201555,6.821416918906385,25.64889188342808,9,65,0.13846153846153847,SAN ANDRES
(0-MAX_AGE),78.40510034360729,57.27039079861205,100.0,0.9380962887459308,0.6881654988199266,1.1996327747233164,1.1965980514356707,0.5576829431967594,2.376864928054228,38,2388,0.015912897822445562,SAN ANDRES
(0-39),45.00459981600736,5.903532890500599,100.0,0.036798528058877636,0.0,0.08778836448142857,0.08178745827155642,0.002070657725630831,0.45483954308994656,1,1261,0.0007930214115781126,GUAVIARE
(40-49),9.722379603399432,2.5830821417260745,36.6836713538686,0.17,0.0,0.3621456607626104,1.7512911212825717,0.5710234552477672,4.039383793668572,5,296,0.016891891891891893,GUAVIARE
(50-59),100.0,18.10017507240679,100.0,0.62,0.3072618434693817,0.9329200498749756,0.5866715755731537,0.014852135261374905,3.225225427211875,1,175,0.005714285714285714,GUAVIARE
(60-69),18.140659566805574,9.937036665629703,34.15806357745228,2.32,1.6183678710132896,3.0222659716579043,12.802067181821938,6.567577653210897,21.75290706016513,11,89,0.12359550561797752,GUAVIARE
(70-79),40.04434589800444,23.556961484612575,73.1361649403388,9.31,7.416131015191079,11.209146146671447,23.333466826456327,11.796853979165679,38.746019006473965,10,45,0.2222222222222222,GUAVIARE
(80-MAX_AGE),74.87001733102254,47.38924598095654,100.0,24.96,21.425576113474506,28.487768773873853,33.139449213103774,17.178047115194882,52.55384633956797,10,32,0.3125,GUAVIARE
(0-MAX_AGE),36.56050853455531,26.739340776466314,50.07969962634318,0.6571898412077113,0.47168228620778807,0.8554425973284323,1.7975448531475327,0.826651188807166,3.5549417654747018,38,1899,0.020010531858873092,GUAVIARE
(0-39),9.763876111622201,1.9552508520970437,48.79902831614976,0.036798528058877636,0.0,0.08778836448142857,0.3770644864295241,0.0778273661491522,1.0979548820858054,3,806,0.0037220843672456576,GUAINIA
(40-49),14.107648725212464,2.8474412874773036,70.40884613970026,0.17,0.0,0.3621456607626104,1.2061018374088306,0.1463997366976968,4.288754752184721,2,168,0.011904761904761904,GUAINIA
(50-59),14.262091773460106,5.850819820950124,35.329506719452475,0.62,0.3072618434693817,0.9329200498749756,4.337756884923931,1.6082769200725182,9.202243005727095,6,140,0.04285714285714286,GUAINIA
(60-69),35.38483305036785,14.056357072271197,93.73811638627562,2.32,1.6183678710132896,3.0222659716579043,6.577541257702396,1.8210932840332088,15.993383395398608,4,62,0.06451612903225806,GUAINIA
(70-79),100.0,39.60737500272832,100.0,9.31,7.416131015191079,11.209146146671447,8.748466583843612,1.8418093685395514,23.493250174784198,3,35,0.08571428571428572,GUAINIA
(80-MAX_AGE),91.50779896013866,43.23568527105966,100.0,24.96,21.425576113474506,28.487768773873853,27.459255663752952,6.0660502085052235,61.27583801758354,3,11,0.2727272727272727,GUAINIA
(0-MAX_AGE),37.97058049240723,24.926613740739572,57.96361990302682,0.44249844081051715,0.3075459364133429,0.5907846625006133,1.1651905127763285,0.29258395156851075,3.0167260682056893,21,1222,0.01718494271685761,GUAINIA
(0-39),11.757129714811407,2.079366285819105,66.56688105476084,0.036798528058877636,0.0,0.08778836448142857,0.31317598369363053,0.0379495923280561,1.126681066072932,2,644,0.003105590062111801,VAUPES
(40-49),100.0,100.0,100.0,0.17,0.0,0.3621456607626104,0.0,0.0,0.0,0,197,0.0,VAUPES
(50-59),79.99173212071103,13.811127542078339,100.0,0.62,0.3072618434693817,0.9329200498749756,0.7731321246015668,0.019572095092666206,4.232256014018498,1,130,0.007692307692307693,VAUPES
(60-69),33.257875872476895,15.171504908279687,75.48966538956316,2.32,1.6183678710132896,3.0222659716579043,6.96946706177716,2.6004790999880063,14.554634950634126,6,87,0.06896551724137931,VAUPES
(70-79),100.0,59.21067260540015,100.0,9.31,7.416131015191079,11.209146146671447,4.673596403920711,0.5710917498922226,15.882750419321933,2,43,0.046511627906976744,VAUPES
(80-MAX_AGE),100.0,58.26338651130906,100.0,24.96,21.425576113474506,28.487768773873853,15.422126655766702,1.9254992173269363,45.53552429818488,2,13,0.15384615384615385,VAUPES
(0-MAX_AGE),65.904389353153,38.638978197641194,100.0,0.4765055959905389,0.3371850718383754,0.6290360053109647,0.7229133714926556,0.1459524229727861,2.2308787851534957,13,1114,0.011669658886894075,VAUPES
(0-39),100.0,100.0,100.0,0.036798528058877636,0.0,0.08778836448142857,0.0,0.0,0.0,0,747,0.0,VICHADA
(40-49),100.0,100.0,100.0,0.17,0.0,0.3621456607626104,0.0,0.0,0.0,0,158,0.0,VICHADA
(50-59),100.0,100.0,100.0,0.62,0.3072618434693817,0.9329200498749756,0.0,0.0,0.0,0,82,0.0,VICHADA
(60-69),20.219904600210203,9.902379539155518,43.292571360899544,2.32,1.6183678710132896,3.0222659716579043,11.431051268182731,4.7213903829239054,22.144401602949028,7,63,0.1111111111111111,VICHADA
(70-79),60.53215077605321,26.9220700472236,100.0,9.31,7.416131015191079,11.209146146671447,15.158851042788182,4.289876985589762,34.418825739433935,4,27,0.14814814814814814,VICHADA
(80-MAX_AGE),100.0,54.31347805248238,100.0,24.96,21.425576113474506,28.487768773873853,20.298169005857982,4.399185806303631,48.66177734881681,3,15,0.2,VICHADA
(0-MAX_AGE),61.80895701719239,36.9330430125382,100.0,0.45736014706167727,0.3190257681566846,0.6089748076684218,0.740058777519053,0.2517971687365049,1.5661495957826932,14,1092,0.01282051282051282,VICHADA
(0-39),13.032119759985719,3.5721901342308016,47.5104933784284,0.036798528058877636,0.0,0.08778836448142857,0.28236779055978983,0.27055656635463887,0.29456081249530364,2144,808793,0.0026508636944187203,Colombia
(40-49),14.604898674065087,4.965627277915416,42.86286758490071,0.17,0.0,0.3621456607626104,1.163798196152661,1.1198777925455574,1.208984097047372,2617,239498,0.010927022355092736,Colombia
(50-59),20.365881218134213,12.346091749558175,33.54208467858818,0.62,0.3072618434693817,0.9329200498749756,3.044749559869025,2.9668690583745168,3.124108036451445,5625,197142,0.028532732751011963,Colombia
(60-69),25.837148364522495,19.085766688053454,34.90120054166628,2.32,1.6183678710132896,3.0222659716579043,8.980536202544462,8.813794978527639,9.14940286761401,10068,119894,0.08397417718985103,Colombia
(70-79),48.35006046296811,39.35430060340822,59.15190462678481,9.31,7.416131015191079,11.209146146671447,19.260917521184968,18.946220296042664,19.578587200432608,11570,64130,0.18041478247310153,Colombia
(80-MAX_AGE),74.72861975343797,64.62941420619337,85.8405628620385,24.96,21.425576113474506,28.487768773873853,33.396604739174826,32.915978994664684,33.87983801547206,12355,39338,0.3140729066043012,Colombia
(0-MAX_AGE),42.22668183820751,41.77302290583353,42.68533664808105,1.167305295229447,0.8894974839391916,1.4569566348042446,2.7643786945937654,2.7083965649338193,2.821246705265425,44379,1468795,0.030214563638901275,Colombia
