divipola,departamento,EDAD,HOMBRES_1985,MUJERES_1985,HOMBRES_1993,MUJERES_1993,HOMBRES_2005,MUJERES_2005,HOMBRES_2018,MUJERES_2018
5,Antioquia,0-4,6.02,5.75,5.56,5.37,4.67,4.45,2.96,2.82
5,Antioquia,5-9,5.98,5.75,5.69,5.5,4.98,4.78,3.27,3.12
5,Antioquia,10-14,5.5,5.31,5.66,5.56,5.2,5,3.86,3.69
5,Antioquia,15-19,5.66,6.04,4.49,4.85,4.74,4.75,4.26,4.08
5,Antioquia,20-24,5.47,6.03,4.27,4.92,4.17,4.41,4.55,4.5
5,Antioquia,25-29,4.42,4.9,4.41,5.01,3.67,4.03,4.4,4.4
5,Antioquia,30-34,3.56,3.74,4.13,4.57,3.2,3.61,3.93,4
5,Antioquia,35-39,2.92,3.12,3.3,3.77,3.44,3.9,3.64,3.87
5,Antioquia,40-44,2.17,2.2,2.65,2.85,3.34,3.78,2.88,3.26
5,Antioquia,45-49,1.77,1.89,1.96,2.15,2.8,3.22,2.81,3.29
5,Antioquia,50-54,1.59,1.73,1.64,1.83,2.25,2.56,2.93,3.47
5,Antioquia,55-59,1.24,1.34,1.22,1.41,1.73,2.01,2.58,3.11
5,Antioquia,60-64,0.99,1.08,1.15,1.35,1.29,1.51,2.03,2.51
5,Antioquia,65-69,0.67,0.75,0.79,0.93,1.03,1.25,1.52,1.9
5,Antioquia,70-74,0.5,0.56,0.58,0.69,0.8,0.99,1.07,1.37
5,Antioquia,75-79,0.3,0.35,0.37,0.45,0.54,0.7,0.74,0.97
5,Antioquia,80-84,0.17,0.23,0.22,0.29,0.28,0.39,0.46,0.67
5,Antioquia,85-89,0.09,0.12,0.1,0.15,0.14,0.21,0.26,0.41
5,Antioquia,90-94,0.02,0.04,0.04,0.07,0.05,0.08,0.1,0.18
5,Antioquia,95-99,0.02,0.04,0.01,0.02,0.01,0.02,0.03,0.05
5,Antioquia,100+,0,0,0,0,0,0,0.01,0.02