divipola,departamento,EDAD,HOMBRES_1985,MUJERES_1985,HOMBRES_1993,MUJERES_1993,HOMBRES_2005,MUJERES_2005,HOMBRES_2018,MUJERES_2018
97,Vaupes,0-4,7.39,6.85,8.87,8.13,8.24,8.57,4.23,4.2
97,Vaupes,5-9,5.41,5.18,7.96,7.23,5.85,5.81,9.13,9.12
97,Vaupes,10-14,5.31,3.91,6.29,5.6,5.2,5.46,8.71,8.78
97,Vaupes,15-19,5.71,6.38,4.64,4.01,5.35,4.8,7.37,6.13
97,Vaupes,20-24,5.46,6.42,4.39,3.72,4.34,4.07,4.62,3.43
97,Vaupes,25-29,5.6,5.31,3.95,4.01,3.05,2.81,3.14,2.75
97,Vaupes,30-34,4.5,3.38,3.77,2.92,3.15,3.36,2.75,2.31
97,Vaupes,35-39,4.43,3.28,3.21,2.89,3.08,2.93,2.4,2.01
97,Vaupes,40-44,2.33,2.01,2.64,1.87,2.79,2.47,2.11,1.72
97,Vaupes,45-49,2.5,2.11,2.02,1.73,2.63,2.26,1.96,1.57
97,Vaupes,50-54,1.3,0.97,1.83,1.48,2.07,1.89,1.59,1.41
97,Vaupes,55-59,0.81,0.67,1.59,0.97,1.47,1.17,1.49,1.25
97,Vaupes,60-64,0.7,0.61,1.06,0.83,1.01,1.07,1.08,0.94
97,Vaupes,65-69,0.71,0.1,0.56,0.42,1.12,1.01,0.85,0.67
97,Vaupes,70-74,0.28,0.06,0.32,0.25,0.74,0.68,0.46,0.43
97,Vaupes,75-79,0.04,0.07,0.25,0.15,0.34,0.44,0.36,0.38
97,Vaupes,80-84,0.11,0,0.15,0.09,0.32,0.32,0.19,0.25
97,Vaupes,85-89,0.04,0,0.06,0.05,0.04,0.06,0.08,0.08
97,Vaupes,90-94,0.08,0,0.02,0.03,0,0,0,0.02
97,Vaupes,95-99,0,0,0.01,0.02,0,0.02,0,0.01
97,Vaupes,100+,0,0,0,0,0.01,0.01,0.01,0.02