divipola,departamento,EDAD,HOMBRES_1985,MUJERES_1985,HOMBRES_1993,MUJERES_1993,HOMBRES_2005,MUJERES_2005,HOMBRES_2018,MUJERES_2018
76,Valle del Cauca,0-4,5.67,5.42,5.07,4.94,4.49,4.28,2.94,2.79
76,Valle del Cauca,5-9,5.86,5.65,5.13,5.03,4.91,4.72,3.28,3.14
76,Valle del Cauca,10-14,5.57,5.49,5.31,5.33,5.13,4.98,3.66,3.51
76,Valle del Cauca,15-19,5.39,6.09,4.64,5.17,4.58,4.69,4,3.92
76,Valle del Cauca,20-24,5.06,6.01,4.72,5.39,4.21,4.57,4.23,4.32
76,Valle del Cauca,25-29,4.17,4.86,4.51,5.12,3.77,4.19,3.95,4.19
76,Valle del Cauca,30-34,3.49,3.82,4.19,4.6,3.42,3.87,3.55,3.84
76,Valle del Cauca,35-39,2.95,3.28,3.35,3.79,3.38,3.88,3.44,3.86
76,Valle del Cauca,40-44,2.33,2.38,2.7,2.84,3.22,3.71,2.99,3.45
76,Valle del Cauca,45-49,1.94,2.07,2.06,2.19,2.65,3.12,2.96,3.5
76,Valle del Cauca,50-54,1.75,1.83,1.78,1.91,2.16,2.55,2.97,3.56
76,Valle del Cauca,55-59,1.35,1.37,1.37,1.5,1.69,1.99,2.61,3.22
76,Valle del Cauca,60-64,1.09,1.08,1.27,1.35,1.32,1.54,2.13,2.73
76,Valle del Cauca,65-69,0.73,0.76,0.85,0.9,1.11,1.36,1.65,2.09
76,Valle del Cauca,70-74,0.54,0.56,0.62,0.67,0.83,1.04,1.22,1.56
76,Valle del Cauca,75-79,0.34,0.36,0.38,0.42,0.6,0.75,0.88,1.18
76,Valle del Cauca,80-84,0.18,0.22,0.22,0.28,0.31,0.42,0.58,0.84
76,Valle del Cauca,85-89,0.09,0.12,0.1,0.14,0.15,0.22,0.31,0.49
76,Valle del Cauca,90-94,0.02,0.04,0.04,0.06,0.05,0.09,0.12,0.2
76,Valle del Cauca,95-99,0.02,0.04,0.02,0.02,0.01,0.02,0.03,0.06
76,Valle del Cauca,100+,0,0,0,0,0,0.01,0.01,0.02