divipola,departamento,EDAD,HOMBRES_1985,MUJERES_1985,HOMBRES_1993,MUJERES_1993,HOMBRES_2005,MUJERES_2005,HOMBRES_2018,MUJERES_2018
13,Bolívar,0-4,6.88,6.55,6.36,6.11,5.82,5.44,4.32,4.13
13,Bolívar,5-9,6.9,6.66,6.33,6.09,5.57,5.29,4.71,4.46
13,Bolívar,10-14,6.5,6.15,6.25,6.02,5.74,5.4,4.8,4.5
13,Bolívar,15-19,6.15,6.13,5.35,5.26,5.13,4.9,4.74,4.53
13,Bolívar,20-24,5.24,5.44,4.88,4.96,4.43,4.49,4.35,4.31
13,Bolívar,25-29,3.92,4.13,4.28,4.5,3.8,3.95,4.03,4.05
13,Bolívar,30-34,3.08,3.05,3.78,3.83,3.39,3.53,3.57,3.67
13,Bolívar,35-39,2.69,2.71,3.01,3.1,3.3,3.44,3.3,3.49
13,Bolívar,40-44,1.99,1.87,2.44,2.33,3,3.11,2.85,3.01
13,Bolívar,45-49,1.65,1.65,1.79,1.79,2.46,2.57,2.72,2.88
13,Bolívar,50-54,1.44,1.42,1.5,1.47,1.96,1.98,2.61,2.77
13,Bolívar,55-59,1.12,1.09,1.11,1.15,1.55,1.61,2.19,2.36
13,Bolívar,60-64,0.93,0.92,1.04,1.04,1.14,1.19,1.74,1.88
13,Bolívar,65-69,0.68,0.68,0.73,0.76,0.97,1.05,1.32,1.44
13,Bolívar,70-74,0.51,0.51,0.58,0.61,0.72,0.81,0.91,1.03
13,Bolívar,75-79,0.3,0.31,0.36,0.38,0.5,0.58,0.69,0.79
13,Bolívar,80-84,0.19,0.22,0.2,0.24,0.28,0.35,0.42,0.54
13,Bolívar,85-89,0.09,0.12,0.09,0.12,0.16,0.21,0.23,0.32
13,Bolívar,90-94,0.03,0.04,0.04,0.06,0.05,0.07,0.1,0.15
13,Bolívar,95-99,0.02,0.04,0.02,0.03,0.01,0.02,0.03,0.05
13,Bolívar,100+,0,0,0,0,0,0.01,0.02,0.03