divipola,departamento,EDAD,HOMBRES_1985,MUJERES_1985,HOMBRES_1993,MUJERES_1993,HOMBRES_2005,MUJERES_2005,HOMBRES_2018,MUJERES_2018
0,Nacional,0-4,6.25,5.96,5.78,5.56,5.08,4.83,3.52,3.36
0,Nacional,5-9,6.37,6.13,5.87,5.66,5.3,5.06,3.86,3.69
0,Nacional,10-14,5.97,5.74,5.88,5.72,5.34,5.12,4.18,3.99
0,Nacional,15-19,5.62,5.96,4.88,5.1,4.76,4.72,4.46,4.26
0,Nacional,20-24,4.99,5.54,4.56,4.98,4.3,4.48,4.49,4.43
0,Nacional,25-29,4.06,4.5,4.29,4.7,3.84,4.07,4.16,4.2
0,Nacional,30-34,3.34,3.46,3.94,4.2,3.38,3.66,3.74,3.85
0,Nacional,35-39,2.91,3.05,3.2,3.5,3.36,3.68,3.53,3.75
0,Nacional,40-44,2.23,2.18,2.61,2.63,3.15,3.44,2.96,3.25
0,Nacional,45-49,1.86,1.91,1.96,2.03,2.62,2.9,2.82,3.17
0,Nacional,50-54,1.66,1.68,1.69,1.75,2.11,2.31,2.75,3.13
0,Nacional,55-59,1.26,1.27,1.25,1.33,1.67,1.83,2.39,2.77
0,Nacional,60-64,1.06,1.07,1.17,1.24,1.27,1.4,1.9,2.23
0,Nacional,65-69,0.72,0.74,0.79,0.84,1.03,1.19,1.45,1.7
0,Nacional,70-74,0.56,0.58,0.61,0.65,0.78,0.92,1.04,1.24
0,Nacional,75-79,0.33,0.34,0.37,0.41,0.55,0.67,0.74,0.92
0,Nacional,80-84,0.19,0.22,0.22,0.27,0.29,0.38,0.47,0.64
0,Nacional,85-89,0.08,0.11,0.09,0.13,0.15,0.2,0.25,0.37
0,Nacional,90-94,0.02,0.04,0.04,0.06,0.05,0.07,0.09,0.15
0,Nacional,95-99,0.02,0.04,0.02,0.02,0.01,0.02,0.03,0.05
0,Nacional,100+,0,0,0,0,0,0,0.01,0.02