divipola,departamento,EDAD,HOMBRES_1985,MUJERES_1985,HOMBRES_1993,MUJERES_1993,HOMBRES_2005,MUJERES_2005,HOMBRES_2018,MUJERES_2018
11,Bogotá. D. C.,0-4,5.71,5.46,5.09,4.95,4.26,4.08,2.94,2.8
11,Bogotá. D. C.,5-9,5.51,5.35,4.97,4.84,4.69,4.53,3.18,3.06
11,Bogotá. D. C.,10-14,4.68,4.76,4.93,4.96,4.54,4.43,3.36,3.24
11,Bogotá. D. C.,15-19,4.82,6,4.24,5.07,4.23,4.39,3.9,3.84
11,Bogotá. D. C.,20-24,5.57,6.87,4.75,5.68,4.58,4.98,4.83,4.87
11,Bogotá. D. C.,25-29,4.82,5.74,4.9,5.65,4.34,4.72,4.71,4.76
11,Bogotá. D. C.,30-34,3.87,4.35,4.57,5.18,3.8,4.15,4.19,4.28
11,Bogotá. D. C.,35-39,3.27,3.61,3.54,4.12,3.64,4.09,3.87,4.13
11,Bogotá. D. C.,40-44,2.43,2.45,2.8,3.09,3.44,3.96,3.12,3.56
11,Bogotá. D. C.,45-49,1.88,2.02,2.03,2.27,2.85,3.37,2.89,3.42
11,Bogotá. D. C.,50-54,1.59,1.71,1.67,1.9,2.21,2.65,2.84,3.46
11,Bogotá. D. C.,55-59,1.17,1.3,1.21,1.42,1.71,2.05,2.47,3.1
11,Bogotá. D. C.,60-64,0.84,1.01,1.03,1.26,1.25,1.51,1.89,2.44
11,Bogotá. D. C.,65-69,0.57,0.73,0.66,0.84,0.87,1.15,1.36,1.8
11,Bogotá. D. C.,70-74,0.38,0.52,0.46,0.62,0.62,0.86,0.93,1.28
11,Bogotá. D. C.,75-79,0.23,0.32,0.26,0.39,0.44,0.64,0.64,0.92
11,Bogotá. D. C.,80-84,0.11,0.18,0.15,0.24,0.22,0.36,0.39,0.64
11,Bogotá. D. C.,85-89,0.05,0.09,0.06,0.11,0.1,0.18,0.21,0.37
11,Bogotá. D. C.,90-94,0.01,0.02,0.02,0.04,0.03,0.06,0.07,0.16
11,Bogotá. D. C.,95-99,0.01,0.02,0.01,0.01,0.01,0.02,0.02,0.04
11,Bogotá. D. C.,100+,0,0,0,0,0,0,0.01,0.02