divipola,departamento,EDAD,HOMBRES_1985,MUJERES_1985,HOMBRES_1993,MUJERES_1993,HOMBRES_2005,MUJERES_2005,HOMBRES_2018,MUJERES_2018
81,Arauca,0-4,6.44,5.76,7.27,6.97,5.8,5.5,4.48,4.26
81,Arauca,5-9,6.65,5.92,6.93,6.9,6.03,5.84,4.76,4.65
81,Arauca,10-14,6.79,6.43,6.64,6.36,6.34,6.26,5.2,4.89
81,Arauca,15-19,5.91,6.07,5.16,5.27,5.53,4.91,5.21,4.7
81,Arauca,20-24,4.77,4.97,4.5,4.91,5.19,4.07,4.82,4.71
81,Arauca,25-29,4.42,4.12,4.21,4.47,3.96,3.88,4.43,4.37
81,Arauca,30-34,3.74,3.11,4.01,3.66,3.61,3.76,3.83,3.86
81,Arauca,35-39,3.4,2.86,3.22,2.8,3.09,3.38,3.52,3.56
81,Arauca,40-44,2.82,2.14,2.54,1.97,2.78,2.93,2.83,3.05
81,Arauca,45-49,2.26,1.67,1.9,1.47,2.36,2.31,2.62,2.8
81,Arauca,50-54,1.88,1.35,1.57,1.22,1.76,1.58,2.36,2.45
81,Arauca,55-59,1.17,0.85,1.07,0.77,1.34,1.26,1.92,1.97
81,Arauca,60-64,1.03,0.77,0.93,0.7,1.05,0.98,1.53,1.35
81,Arauca,65-69,0.56,0.38,0.49,0.45,0.88,0.88,1.08,1
81,Arauca,70-74,0.47,0.34,0.42,0.33,0.62,0.69,0.8,0.71
81,Arauca,75-79,0.19,0.16,0.24,0.19,0.38,0.35,0.58,0.54
81,Arauca,80-84,0.16,0.13,0.14,0.12,0.2,0.18,0.33,0.33
81,Arauca,85-89,0.05,0.06,0.05,0.06,0.1,0.1,0.16,0.16
81,Arauca,90-94,0.03,0.04,0.02,0.03,0.03,0.04,0.05,0.06
81,Arauca,95-99,0.09,0.07,0.04,0.04,0.01,0.01,0.01,0.01
81,Arauca,100+,0,0,0,0,0,0,0.01,0.01