divipola,departamento,EDAD,HOMBRES_1985,MUJERES_1985,HOMBRES_1993,MUJERES_1993,HOMBRES_2005,MUJERES_2005,HOMBRES_2018,MUJERES_2018
27,Chocó,0-4,7.45,7.31,7.84,7.69,7.5,7.24,5.65,5.46
27,Chocó,5-9,7.9,7.49,8.27,7.81,6.6,6.24,5.92,5.75
27,Chocó,10-14,7.28,6.77,7.33,6.76,6.57,6.3,5.82,5.6
27,Chocó,15-19,6.02,5.81,5.6,5.38,5.93,5.58,5.23,4.82
27,Chocó,20-24,4.2,4.49,4.04,4.18,4.35,4.49,4.46,4.33
27,Chocó,25-29,3.25,3.66,3.24,3.62,3.35,3.63,4.01,4.24
27,Chocó,30-34,2.48,2.83,2.87,3.19,2.66,3.01,3.5,3.79
27,Chocó,35-39,2.37,2.76,2.45,2.78,2.48,2.83,2.92,3.13
27,Chocó,40-44,1.91,2.01,1.95,1.98,2.16,2.48,2.41,2.67
27,Chocó,45-49,1.78,1.77,1.52,1.56,2.01,2.25,2.12,2.29
27,Chocó,50-54,1.54,1.51,1.34,1.37,1.47,1.62,1.81,2.06
27,Chocó,55-59,1.05,0.97,0.96,0.94,1.17,1.25,1.67,1.93
27,Chocó,60-64,1.02,0.92,0.95,0.91,0.82,0.87,1.29,1.45
27,Chocó,65-69,0.56,0.55,0.54,0.54,0.9,1.04,0.94,1.03
27,Chocó,70-74,0.53,0.52,0.49,0.5,0.59,0.7,0.61,0.63
27,Chocó,75-79,0.29,0.24,0.27,0.28,0.44,0.53,0.51,0.59
27,Chocó,80-84,0.18,0.21,0.19,0.24,0.21,0.25,0.33,0.44
27,Chocó,85-89,0.08,0.09,0.1,0.11,0.12,0.16,0.14,0.23
27,Chocó,90-94,0.03,0.05,0.05,0.07,0.05,0.06,0.06,0.09
27,Chocó,95-99,0.05,0.07,0.03,0.04,0.02,0.04,0.02,0.03
27,Chocó,100+,0,0,0,0,0,0.01,0.02,0.02