divipola,departamento,EDAD,HOMBRES_1985,MUJERES_1985,HOMBRES_1993,MUJERES_1993,HOMBRES_2005,MUJERES_2005,HOMBRES_2018,MUJERES_2018
68,Santander,0-4,6.29,5.99,5.75,5.49,4.63,4.37,3.45,3.27
68,Santander,5-9,6.49,6.19,5.88,5.67,5.03,4.77,3.75,3.58
68,Santander,10-14,6.25,6,5.98,5.77,5.32,5.08,3.99,3.78
68,Santander,15-19,5.78,6.16,4.97,5.14,4.89,4.8,4.21,3.97
68,Santander,20-24,4.81,5.29,4.48,4.89,4.37,4.46,4.4,4.27
68,Santander,25-29,3.79,4.16,4.14,4.53,3.84,4.05,4.06,4.06
68,Santander,30-34,3.15,3.21,3.76,3.99,3.45,3.73,3.75,3.78
68,Santander,35-39,2.82,2.94,3.05,3.32,3.46,3.79,3.58,3.71
68,Santander,40-44,2.19,2.15,2.55,2.55,3.23,3.5,3.09,3.34
68,Santander,45-49,1.85,1.91,1.99,2.07,2.63,2.88,3,3.35
68,Santander,50-54,1.67,1.72,1.76,1.85,2.12,2.28,2.9,3.29
68,Santander,55-59,1.29,1.31,1.29,1.4,1.72,1.88,2.48,2.86
68,Santander,60-64,1.11,1.17,1.24,1.33,1.33,1.49,1.97,2.29
68,Santander,65-69,0.79,0.84,0.85,0.94,1.1,1.27,1.54,1.77
68,Santander,70-74,0.61,0.64,0.71,0.77,0.82,0.99,1.11,1.35
68,Santander,75-79,0.35,0.37,0.44,0.5,0.6,0.75,0.79,1.03
68,Santander,80-84,0.19,0.24,0.26,0.33,0.33,0.44,0.5,0.7
68,Santander,85-89,0.08,0.11,0.11,0.14,0.17,0.25,0.27,0.4
68,Santander,90-94,0.02,0.04,0.04,0.06,0.06,0.09,0.1,0.17
68,Santander,95-99,0.02,0.03,0.01,0.02,0.01,0.02,0.03,0.05
68,Santander,100+,0,0,0,0,0,0,0.01,0.01